<?xml version="1.0" encoding="utf-8"?>
<!DOCTYPE eagle SYSTEM "eagle.dtd">
<eagle version="6.1">
<drawing>
<settings>
<setting alwaysvectorfont="no"/>
<setting verticaltext="up"/>
</settings>
<grid distance="0.1" unitdist="inch" unit="mil" style="lines" multiple="1" display="no" altdistance="0.01" altunitdist="inch" altunit="inch"/>
<layers>
<layer number="1" name="Top" color="4" fill="1" visible="yes" active="yes"/>
<layer number="2" name="Route2" color="1" fill="3" visible="no" active="yes"/>
<layer number="3" name="Route3" color="4" fill="3" visible="no" active="yes"/>
<layer number="4" name="Route4" color="1" fill="4" visible="no" active="yes"/>
<layer number="5" name="Route5" color="4" fill="4" visible="no" active="yes"/>
<layer number="6" name="Route6" color="1" fill="8" visible="no" active="yes"/>
<layer number="7" name="Route7" color="4" fill="8" visible="no" active="yes"/>
<layer number="8" name="Route8" color="1" fill="2" visible="no" active="yes"/>
<layer number="9" name="Route9" color="4" fill="2" visible="no" active="yes"/>
<layer number="10" name="Route10" color="1" fill="7" visible="no" active="yes"/>
<layer number="11" name="Route11" color="4" fill="7" visible="no" active="yes"/>
<layer number="12" name="Route12" color="1" fill="5" visible="no" active="yes"/>
<layer number="13" name="Route13" color="4" fill="5" visible="no" active="yes"/>
<layer number="14" name="Route14" color="1" fill="6" visible="no" active="yes"/>
<layer number="15" name="Route15" color="4" fill="6" visible="no" active="yes"/>
<layer number="16" name="Bottom" color="1" fill="1" visible="yes" active="yes"/>
<layer number="17" name="Pads" color="2" fill="1" visible="yes" active="yes"/>
<layer number="18" name="Vias" color="2" fill="1" visible="yes" active="yes"/>
<layer number="19" name="Unrouted" color="6" fill="1" visible="yes" active="yes"/>
<layer number="20" name="Dimension" color="15" fill="1" visible="yes" active="yes"/>
<layer number="21" name="tPlace" color="7" fill="1" visible="yes" active="yes"/>
<layer number="22" name="bPlace" color="7" fill="1" visible="yes" active="yes"/>
<layer number="23" name="tOrigins" color="15" fill="1" visible="yes" active="yes"/>
<layer number="24" name="bOrigins" color="15" fill="1" visible="yes" active="yes"/>
<layer number="25" name="tNames" color="7" fill="1" visible="yes" active="yes"/>
<layer number="26" name="bNames" color="7" fill="1" visible="yes" active="yes"/>
<layer number="27" name="tValues" color="7" fill="1" visible="yes" active="yes"/>
<layer number="28" name="bValues" color="7" fill="1" visible="yes" active="yes"/>
<layer number="29" name="tStop" color="7" fill="3" visible="no" active="yes"/>
<layer number="30" name="bStop" color="7" fill="6" visible="no" active="yes"/>
<layer number="31" name="tCream" color="7" fill="4" visible="no" active="yes"/>
<layer number="32" name="bCream" color="7" fill="5" visible="no" active="yes"/>
<layer number="33" name="tFinish" color="6" fill="3" visible="no" active="yes"/>
<layer number="34" name="bFinish" color="6" fill="6" visible="no" active="yes"/>
<layer number="35" name="tGlue" color="7" fill="4" visible="no" active="yes"/>
<layer number="36" name="bGlue" color="7" fill="5" visible="no" active="yes"/>
<layer number="37" name="tTest" color="7" fill="1" visible="no" active="yes"/>
<layer number="38" name="bTest" color="7" fill="1" visible="no" active="yes"/>
<layer number="39" name="tKeepout" color="4" fill="11" visible="yes" active="yes"/>
<layer number="40" name="bKeepout" color="1" fill="11" visible="yes" active="yes"/>
<layer number="41" name="tRestrict" color="4" fill="10" visible="yes" active="yes"/>
<layer number="42" name="bRestrict" color="1" fill="10" visible="yes" active="yes"/>
<layer number="43" name="vRestrict" color="2" fill="10" visible="yes" active="yes"/>
<layer number="44" name="Drills" color="7" fill="1" visible="no" active="yes"/>
<layer number="45" name="Holes" color="7" fill="1" visible="no" active="yes"/>
<layer number="46" name="Milling" color="3" fill="1" visible="no" active="yes"/>
<layer number="47" name="Measures" color="7" fill="1" visible="no" active="yes"/>
<layer number="48" name="Document" color="7" fill="1" visible="yes" active="yes"/>
<layer number="49" name="Reference" color="7" fill="1" visible="yes" active="yes"/>
<layer number="51" name="tDocu" color="7" fill="1" visible="yes" active="yes"/>
<layer number="52" name="bDocu" color="7" fill="1" visible="yes" active="yes"/>
<layer number="91" name="Nets" color="2" fill="1" visible="yes" active="yes"/>
<layer number="92" name="Busses" color="1" fill="1" visible="yes" active="yes"/>
<layer number="93" name="Pins" color="2" fill="1" visible="yes" active="yes"/>
<layer number="94" name="Symbols" color="4" fill="1" visible="yes" active="yes"/>
<layer number="95" name="Names" color="7" fill="1" visible="yes" active="yes"/>
<layer number="96" name="Values" color="7" fill="1" visible="yes" active="yes"/>
<layer number="97" name="Info" color="7" fill="1" visible="yes" active="yes"/>
<layer number="98" name="Guide" color="6" fill="1" visible="yes" active="yes"/>
</layers>
<library>
<packages>
<package name="QFP80P900X900X120-32N">
<smd name="1" x="-4.2418" y="2.794" dx="0.508" dy="1.4732" layer="1" rot="R270"/>
<smd name="2" x="-4.2418" y="2.0066" dx="0.508" dy="1.4732" layer="1" rot="R270"/>
<smd name="3" x="-4.2418" y="1.1938" dx="0.508" dy="1.4732" layer="1" rot="R270"/>
<smd name="4" x="-4.2418" y="0.4064" dx="0.508" dy="1.4732" layer="1" rot="R270"/>
<smd name="5" x="-4.2418" y="-0.4064" dx="0.508" dy="1.4732" layer="1" rot="R270"/>
<smd name="6" x="-4.2418" y="-1.1938" dx="0.508" dy="1.4732" layer="1" rot="R270"/>
<smd name="7" x="-4.2418" y="-2.0066" dx="0.508" dy="1.4732" layer="1" rot="R270"/>
<smd name="8" x="-4.2418" y="-2.794" dx="0.508" dy="1.4732" layer="1" rot="R270"/>
<smd name="9" x="-2.794" y="-4.2418" dx="0.508" dy="1.4732" layer="1" rot="R180"/>
<smd name="10" x="-2.0066" y="-4.2418" dx="0.508" dy="1.4732" layer="1" rot="R180"/>
<smd name="11" x="-1.1938" y="-4.2418" dx="0.508" dy="1.4732" layer="1" rot="R180"/>
<smd name="12" x="-0.4064" y="-4.2418" dx="0.508" dy="1.4732" layer="1" rot="R180"/>
<smd name="13" x="0.4064" y="-4.2418" dx="0.508" dy="1.4732" layer="1" rot="R180"/>
<smd name="14" x="1.1938" y="-4.2418" dx="0.508" dy="1.4732" layer="1" rot="R180"/>
<smd name="15" x="2.0066" y="-4.2418" dx="0.508" dy="1.4732" layer="1" rot="R180"/>
<smd name="16" x="2.794" y="-4.2418" dx="0.508" dy="1.4732" layer="1" rot="R180"/>
<smd name="17" x="4.2418" y="-2.794" dx="0.508" dy="1.4732" layer="1" rot="R270"/>
<smd name="18" x="4.2418" y="-2.0066" dx="0.508" dy="1.4732" layer="1" rot="R270"/>
<smd name="19" x="4.2418" y="-1.1938" dx="0.508" dy="1.4732" layer="1" rot="R270"/>
<smd name="20" x="4.2418" y="-0.4064" dx="0.508" dy="1.4732" layer="1" rot="R270"/>
<smd name="21" x="4.2418" y="0.4064" dx="0.508" dy="1.4732" layer="1" rot="R270"/>
<smd name="22" x="4.2418" y="1.1938" dx="0.508" dy="1.4732" layer="1" rot="R270"/>
<smd name="23" x="4.2418" y="2.0066" dx="0.508" dy="1.4732" layer="1" rot="R270"/>
<smd name="24" x="4.2418" y="2.794" dx="0.508" dy="1.4732" layer="1" rot="R270"/>
<smd name="25" x="2.794" y="4.2418" dx="0.508" dy="1.4732" layer="1" rot="R180"/>
<smd name="26" x="2.0066" y="4.2418" dx="0.508" dy="1.4732" layer="1" rot="R180"/>
<smd name="27" x="1.1938" y="4.2418" dx="0.508" dy="1.4732" layer="1" rot="R180"/>
<smd name="28" x="0.4064" y="4.2418" dx="0.508" dy="1.4732" layer="1" rot="R180"/>
<smd name="29" x="-0.4064" y="4.2418" dx="0.508" dy="1.4732" layer="1" rot="R180"/>
<smd name="30" x="-1.1938" y="4.2418" dx="0.508" dy="1.4732" layer="1" rot="R180"/>
<smd name="31" x="-2.0066" y="4.2418" dx="0.508" dy="1.4732" layer="1" rot="R180"/>
<smd name="32" x="-2.794" y="4.2418" dx="0.508" dy="1.4732" layer="1" rot="R180"/>
<wire x1="-1.1938" y1="5.3086" x2="-1.1938" y2="6.3246" width="0.1524" layer="21"/>
<wire x1="5.334" y1="-0.381" x2="6.35" y2="-0.381" width="0.1524" layer="21"/>
<wire x1="-2.032" y1="-6.3246" x2="-2.032" y2="-5.3086" width="0.1524" layer="21"/>
<wire x1="-3.3782" y1="3.556" x2="-3.556" y2="3.556" width="0.1524" layer="21"/>
<wire x1="-3.175" y1="2.6416" x2="-2.6416" y2="3.175" width="0.1524" layer="21"/>
<wire x1="-3.556" y1="-3.556" x2="-3.3782" y2="-3.556" width="0.1524" layer="21"/>
<wire x1="3.556" y1="-3.556" x2="3.556" y2="-3.3782" width="0.1524" layer="21"/>
<wire x1="3.556" y1="3.556" x2="3.3782" y2="3.556" width="0.1524" layer="21"/>
<wire x1="-3.556" y1="3.556" x2="-3.556" y2="3.3782" width="0.1524" layer="21"/>
<wire x1="-3.556" y1="-3.3782" x2="-3.556" y2="-3.556" width="0.1524" layer="21"/>
<wire x1="3.3782" y1="-3.556" x2="3.556" y2="-3.556" width="0.1524" layer="21"/>
<wire x1="3.556" y1="3.3782" x2="3.556" y2="3.556" width="0.1524" layer="21"/>
<text x="-6.1976" y="2.9464" size="1.27" layer="21" ratio="6" rot="SR0">*</text>
<wire x1="2.5654" y1="3.556" x2="3.0226" y2="3.556" width="0" layer="51"/>
<wire x1="3.0226" y1="3.556" x2="3.0226" y2="4.6228" width="0" layer="51"/>
<wire x1="3.0226" y1="4.6228" x2="2.5654" y2="4.6228" width="0" layer="51"/>
<wire x1="2.5654" y1="4.6228" x2="2.5654" y2="3.556" width="0" layer="51"/>
<wire x1="1.778" y1="3.556" x2="2.2352" y2="3.556" width="0" layer="51"/>
<wire x1="2.2352" y1="3.556" x2="2.2352" y2="4.6228" width="0" layer="51"/>
<wire x1="2.2352" y1="4.6228" x2="1.778" y2="4.6228" width="0" layer="51"/>
<wire x1="1.778" y1="4.6228" x2="1.778" y2="3.556" width="0" layer="51"/>
<wire x1="0.9652" y1="3.556" x2="1.4224" y2="3.556" width="0" layer="51"/>
<wire x1="1.4224" y1="3.556" x2="1.4224" y2="4.6228" width="0" layer="51"/>
<wire x1="1.4224" y1="4.6228" x2="0.9652" y2="4.6228" width="0" layer="51"/>
<wire x1="0.9652" y1="4.6228" x2="0.9652" y2="3.556" width="0" layer="51"/>
<wire x1="0.1778" y1="3.556" x2="0.635" y2="3.556" width="0" layer="51"/>
<wire x1="0.635" y1="3.556" x2="0.635" y2="4.6228" width="0" layer="51"/>
<wire x1="0.635" y1="4.6228" x2="0.1778" y2="4.6228" width="0" layer="51"/>
<wire x1="0.1778" y1="4.6228" x2="0.1778" y2="3.556" width="0" layer="51"/>
<wire x1="-0.635" y1="3.556" x2="-0.1778" y2="3.556" width="0" layer="51"/>
<wire x1="-0.1778" y1="3.556" x2="-0.1778" y2="4.6228" width="0" layer="51"/>
<wire x1="-0.1778" y1="4.6228" x2="-0.635" y2="4.6228" width="0" layer="51"/>
<wire x1="-0.635" y1="4.6228" x2="-0.635" y2="3.556" width="0" layer="51"/>
<wire x1="-1.4224" y1="3.556" x2="-0.9652" y2="3.556" width="0" layer="51"/>
<wire x1="-0.9652" y1="3.556" x2="-0.9652" y2="4.6228" width="0" layer="51"/>
<wire x1="-0.9652" y1="4.6228" x2="-1.4224" y2="4.6228" width="0" layer="51"/>
<wire x1="-1.4224" y1="4.6228" x2="-1.4224" y2="3.556" width="0" layer="51"/>
<wire x1="-2.2352" y1="3.556" x2="-1.778" y2="3.556" width="0" layer="51"/>
<wire x1="-1.778" y1="3.556" x2="-1.778" y2="4.6228" width="0" layer="51"/>
<wire x1="-1.778" y1="4.6228" x2="-2.2352" y2="4.6228" width="0" layer="51"/>
<wire x1="-2.2352" y1="4.6228" x2="-2.2352" y2="3.556" width="0" layer="51"/>
<wire x1="-3.0226" y1="3.556" x2="-2.5654" y2="3.556" width="0" layer="51"/>
<wire x1="-2.5654" y1="3.556" x2="-2.5654" y2="4.6228" width="0" layer="51"/>
<wire x1="-2.5654" y1="4.6228" x2="-3.0226" y2="4.6228" width="0" layer="51"/>
<wire x1="-3.0226" y1="4.6228" x2="-3.0226" y2="3.556" width="0" layer="51"/>
<wire x1="-3.556" y1="2.5654" x2="-3.556" y2="3.0226" width="0" layer="51"/>
<wire x1="-3.556" y1="3.0226" x2="-4.6228" y2="3.0226" width="0" layer="51"/>
<wire x1="-4.6228" y1="3.0226" x2="-4.6228" y2="2.5654" width="0" layer="51"/>
<wire x1="-4.6228" y1="2.5654" x2="-3.556" y2="2.5654" width="0" layer="51"/>
<wire x1="-3.556" y1="1.778" x2="-3.556" y2="2.2352" width="0" layer="51"/>
<wire x1="-3.556" y1="2.2352" x2="-4.6228" y2="2.2352" width="0" layer="51"/>
<wire x1="-4.6228" y1="2.2352" x2="-4.6228" y2="1.778" width="0" layer="51"/>
<wire x1="-4.6228" y1="1.778" x2="-3.556" y2="1.778" width="0" layer="51"/>
<wire x1="-3.556" y1="0.9652" x2="-3.556" y2="1.4224" width="0" layer="51"/>
<wire x1="-3.556" y1="1.4224" x2="-4.6228" y2="1.4224" width="0" layer="51"/>
<wire x1="-4.6228" y1="1.4224" x2="-4.6228" y2="0.9652" width="0" layer="51"/>
<wire x1="-4.6228" y1="0.9652" x2="-3.556" y2="0.9652" width="0" layer="51"/>
<wire x1="-3.556" y1="0.1778" x2="-3.556" y2="0.635" width="0" layer="51"/>
<wire x1="-3.556" y1="0.635" x2="-4.6228" y2="0.635" width="0" layer="51"/>
<wire x1="-4.6228" y1="0.635" x2="-4.6228" y2="0.1778" width="0" layer="51"/>
<wire x1="-4.6228" y1="0.1778" x2="-3.556" y2="0.1778" width="0" layer="51"/>
<wire x1="-3.556" y1="-0.635" x2="-3.556" y2="-0.1778" width="0" layer="51"/>
<wire x1="-3.556" y1="-0.1778" x2="-4.6228" y2="-0.1778" width="0" layer="51"/>
<wire x1="-4.6228" y1="-0.1778" x2="-4.6228" y2="-0.635" width="0" layer="51"/>
<wire x1="-4.6228" y1="-0.635" x2="-3.556" y2="-0.635" width="0" layer="51"/>
<wire x1="-3.556" y1="-1.4224" x2="-3.556" y2="-0.9652" width="0" layer="51"/>
<wire x1="-3.556" y1="-0.9652" x2="-4.6228" y2="-0.9652" width="0" layer="51"/>
<wire x1="-4.6228" y1="-0.9652" x2="-4.6228" y2="-1.4224" width="0" layer="51"/>
<wire x1="-4.6228" y1="-1.4224" x2="-3.556" y2="-1.4224" width="0" layer="51"/>
<wire x1="-3.556" y1="-2.2352" x2="-3.556" y2="-1.778" width="0" layer="51"/>
<wire x1="-3.556" y1="-1.778" x2="-4.6228" y2="-1.778" width="0" layer="51"/>
<wire x1="-4.6228" y1="-1.778" x2="-4.6228" y2="-2.2352" width="0" layer="51"/>
<wire x1="-4.6228" y1="-2.2352" x2="-3.556" y2="-2.2352" width="0" layer="51"/>
<wire x1="-3.556" y1="-3.0226" x2="-3.556" y2="-2.5654" width="0" layer="51"/>
<wire x1="-3.556" y1="-2.5654" x2="-4.6228" y2="-2.5654" width="0" layer="51"/>
<wire x1="-4.6228" y1="-2.5654" x2="-4.6228" y2="-3.0226" width="0" layer="51"/>
<wire x1="-4.6228" y1="-3.0226" x2="-3.556" y2="-3.0226" width="0" layer="51"/>
<wire x1="-2.5654" y1="-3.556" x2="-3.0226" y2="-3.556" width="0" layer="51"/>
<wire x1="-3.0226" y1="-3.556" x2="-3.0226" y2="-4.6228" width="0" layer="51"/>
<wire x1="-3.0226" y1="-4.6228" x2="-2.5654" y2="-4.6228" width="0" layer="51"/>
<wire x1="-2.5654" y1="-4.6228" x2="-2.5654" y2="-3.556" width="0" layer="51"/>
<wire x1="-1.778" y1="-3.556" x2="-2.2352" y2="-3.556" width="0" layer="51"/>
<wire x1="-2.2352" y1="-3.556" x2="-2.2352" y2="-4.6228" width="0" layer="51"/>
<wire x1="-2.2352" y1="-4.6228" x2="-1.778" y2="-4.6228" width="0" layer="51"/>
<wire x1="-1.778" y1="-4.6228" x2="-1.778" y2="-3.556" width="0" layer="51"/>
<wire x1="-0.9652" y1="-3.556" x2="-1.4224" y2="-3.556" width="0" layer="51"/>
<wire x1="-1.4224" y1="-3.556" x2="-1.4224" y2="-4.6228" width="0" layer="51"/>
<wire x1="-1.4224" y1="-4.6228" x2="-0.9652" y2="-4.6228" width="0" layer="51"/>
<wire x1="-0.9652" y1="-4.6228" x2="-0.9652" y2="-3.556" width="0" layer="51"/>
<wire x1="-0.1778" y1="-3.556" x2="-0.635" y2="-3.556" width="0" layer="51"/>
<wire x1="-0.635" y1="-3.556" x2="-0.635" y2="-4.6228" width="0" layer="51"/>
<wire x1="-0.635" y1="-4.6228" x2="-0.1778" y2="-4.6228" width="0" layer="51"/>
<wire x1="-0.1778" y1="-4.6228" x2="-0.1778" y2="-3.556" width="0" layer="51"/>
<wire x1="0.635" y1="-3.556" x2="0.1778" y2="-3.556" width="0" layer="51"/>
<wire x1="0.1778" y1="-3.556" x2="0.1778" y2="-4.6228" width="0" layer="51"/>
<wire x1="0.1778" y1="-4.6228" x2="0.635" y2="-4.6228" width="0" layer="51"/>
<wire x1="0.635" y1="-4.6228" x2="0.635" y2="-3.556" width="0" layer="51"/>
<wire x1="1.4224" y1="-3.556" x2="0.9652" y2="-3.556" width="0" layer="51"/>
<wire x1="0.9652" y1="-3.556" x2="0.9652" y2="-4.6228" width="0" layer="51"/>
<wire x1="0.9652" y1="-4.6228" x2="1.4224" y2="-4.6228" width="0" layer="51"/>
<wire x1="1.4224" y1="-4.6228" x2="1.4224" y2="-3.556" width="0" layer="51"/>
<wire x1="2.2352" y1="-3.556" x2="1.778" y2="-3.556" width="0" layer="51"/>
<wire x1="1.778" y1="-3.556" x2="1.778" y2="-4.6228" width="0" layer="51"/>
<wire x1="1.778" y1="-4.6228" x2="2.2352" y2="-4.6228" width="0" layer="51"/>
<wire x1="2.2352" y1="-4.6228" x2="2.2352" y2="-3.556" width="0" layer="51"/>
<wire x1="3.0226" y1="-3.556" x2="2.5654" y2="-3.556" width="0" layer="51"/>
<wire x1="2.5654" y1="-3.556" x2="2.5654" y2="-4.6228" width="0" layer="51"/>
<wire x1="2.5654" y1="-4.6228" x2="3.0226" y2="-4.6228" width="0" layer="51"/>
<wire x1="3.0226" y1="-4.6228" x2="3.0226" y2="-3.556" width="0" layer="51"/>
<wire x1="3.556" y1="-2.5654" x2="3.556" y2="-3.0226" width="0" layer="51"/>
<wire x1="3.556" y1="-3.0226" x2="4.6228" y2="-3.0226" width="0" layer="51"/>
<wire x1="4.6228" y1="-3.0226" x2="4.6228" y2="-2.5654" width="0" layer="51"/>
<wire x1="4.6228" y1="-2.5654" x2="3.556" y2="-2.5654" width="0" layer="51"/>
<wire x1="3.556" y1="-1.778" x2="3.556" y2="-2.2352" width="0" layer="51"/>
<wire x1="3.556" y1="-2.2352" x2="4.6228" y2="-2.2352" width="0" layer="51"/>
<wire x1="4.6228" y1="-2.2352" x2="4.6228" y2="-1.778" width="0" layer="51"/>
<wire x1="4.6228" y1="-1.778" x2="3.556" y2="-1.778" width="0" layer="51"/>
<wire x1="3.556" y1="-0.9652" x2="3.556" y2="-1.4224" width="0" layer="51"/>
<wire x1="3.556" y1="-1.4224" x2="4.6228" y2="-1.4224" width="0" layer="51"/>
<wire x1="4.6228" y1="-1.4224" x2="4.6228" y2="-0.9652" width="0" layer="51"/>
<wire x1="4.6228" y1="-0.9652" x2="3.556" y2="-0.9652" width="0" layer="51"/>
<wire x1="3.556" y1="-0.1778" x2="3.556" y2="-0.635" width="0" layer="51"/>
<wire x1="3.556" y1="-0.635" x2="4.6228" y2="-0.635" width="0" layer="51"/>
<wire x1="4.6228" y1="-0.635" x2="4.6228" y2="-0.1778" width="0" layer="51"/>
<wire x1="4.6228" y1="-0.1778" x2="3.556" y2="-0.1778" width="0" layer="51"/>
<wire x1="3.556" y1="0.635" x2="3.556" y2="0.1778" width="0" layer="51"/>
<wire x1="3.556" y1="0.1778" x2="4.6228" y2="0.1778" width="0" layer="51"/>
<wire x1="4.6228" y1="0.1778" x2="4.6228" y2="0.635" width="0" layer="51"/>
<wire x1="4.6228" y1="0.635" x2="3.556" y2="0.635" width="0" layer="51"/>
<wire x1="3.556" y1="1.4224" x2="3.556" y2="0.9652" width="0" layer="51"/>
<wire x1="3.556" y1="0.9652" x2="4.6228" y2="0.9652" width="0" layer="51"/>
<wire x1="4.6228" y1="0.9652" x2="4.6228" y2="1.4224" width="0" layer="51"/>
<wire x1="4.6228" y1="1.4224" x2="3.556" y2="1.4224" width="0" layer="51"/>
<wire x1="3.556" y1="2.2352" x2="3.556" y2="1.778" width="0" layer="51"/>
<wire x1="3.556" y1="1.778" x2="4.6228" y2="1.778" width="0" layer="51"/>
<wire x1="4.6228" y1="1.778" x2="4.6228" y2="2.2352" width="0" layer="51"/>
<wire x1="4.6228" y1="2.2352" x2="3.556" y2="2.2352" width="0" layer="51"/>
<wire x1="3.556" y1="3.0226" x2="3.556" y2="2.5654" width="0" layer="51"/>
<wire x1="3.556" y1="2.5654" x2="4.6228" y2="2.5654" width="0" layer="51"/>
<wire x1="4.6228" y1="2.5654" x2="4.6228" y2="3.0226" width="0" layer="51"/>
<wire x1="4.6228" y1="3.0226" x2="3.556" y2="3.0226" width="0" layer="51"/>
<wire x1="-3.556" y1="2.286" x2="-2.286" y2="3.556" width="0" layer="51"/>
<wire x1="-3.556" y1="-3.556" x2="3.556" y2="-3.556" width="0" layer="51"/>
<wire x1="3.556" y1="-3.556" x2="3.556" y2="3.556" width="0" layer="51"/>
<wire x1="3.556" y1="3.556" x2="-3.556" y2="3.556" width="0" layer="51"/>
<wire x1="-3.556" y1="3.556" x2="-3.556" y2="-3.556" width="0" layer="51"/>
<text x="-6.1976" y="2.9464" size="1.27" layer="51" ratio="6" rot="SR0">*</text>
<text x="-4.8006" y="-7.8994" size="2.0828" layer="25" ratio="10" rot="SR0">&gt;NAME</text>
<text x="-3.4544" y="7.9756" size="2.0828" layer="27" ratio="10" rot="SR0">&gt;VALUE</text>
</package>
</packages>
<symbols>
<symbol name="ATMEGA328P-AU">
<pin name="VCC_2" x="-17.78" y="22.86" length="middle" direction="pwr"/>
<pin name="VCC" x="-17.78" y="20.32" length="middle" direction="pwr"/>
<pin name="AVCC" x="-17.78" y="17.78" length="middle" direction="pwr"/>
<pin name="ADC6" x="-17.78" y="12.7" length="middle" direction="in"/>
<pin name="ADC7" x="-17.78" y="10.16" length="middle" direction="in"/>
<pin name="AREF" x="-17.78" y="5.08" length="middle" direction="in"/>
<pin name="PB0" x="-17.78" y="0" length="middle"/>
<pin name="PB1" x="-17.78" y="-2.54" length="middle"/>
<pin name="PB2" x="-17.78" y="-5.08" length="middle"/>
<pin name="PB3" x="-17.78" y="-7.62" length="middle"/>
<pin name="PB4" x="-17.78" y="-10.16" length="middle"/>
<pin name="PB5" x="-17.78" y="-12.7" length="middle"/>
<pin name="PB6" x="-17.78" y="-15.24" length="middle"/>
<pin name="PB7" x="-17.78" y="-17.78" length="middle"/>
<pin name="GND_2" x="-17.78" y="-22.86" length="middle" direction="pas"/>
<pin name="GND_3" x="-17.78" y="-25.4" length="middle" direction="pas"/>
<pin name="GND" x="-17.78" y="-27.94" length="middle" direction="pas"/>
<pin name="PC0" x="17.78" y="22.86" length="middle" rot="R180"/>
<pin name="PC1" x="17.78" y="20.32" length="middle" rot="R180"/>
<pin name="PC2" x="17.78" y="17.78" length="middle" rot="R180"/>
<pin name="PC3" x="17.78" y="15.24" length="middle" rot="R180"/>
<pin name="PC4" x="17.78" y="12.7" length="middle" rot="R180"/>
<pin name="PC5" x="17.78" y="10.16" length="middle" rot="R180"/>
<pin name="PC6" x="17.78" y="7.62" length="middle" rot="R180"/>
<pin name="PD0" x="17.78" y="2.54" length="middle" rot="R180"/>
<pin name="PD1" x="17.78" y="0" length="middle" rot="R180"/>
<pin name="PD2" x="17.78" y="-2.54" length="middle" rot="R180"/>
<pin name="PD3" x="17.78" y="-5.08" length="middle" rot="R180"/>
<pin name="PD4" x="17.78" y="-7.62" length="middle" rot="R180"/>
<pin name="PD5" x="17.78" y="-10.16" length="middle" rot="R180"/>
<pin name="PD6" x="17.78" y="-12.7" length="middle" rot="R180"/>
<pin name="PD7" x="17.78" y="-15.24" length="middle" rot="R180"/>
<wire x1="-12.7" y1="27.94" x2="-12.7" y2="-33.02" width="0.4064" layer="94"/>
<wire x1="-12.7" y1="-33.02" x2="12.7" y2="-33.02" width="0.4064" layer="94"/>
<wire x1="12.7" y1="-33.02" x2="12.7" y2="27.94" width="0.4064" layer="94"/>
<wire x1="12.7" y1="27.94" x2="-12.7" y2="27.94" width="0.4064" layer="94"/>
<text x="-5.4864" y="28.8544" size="2.0828" layer="95" ratio="10" rot="SR0">&gt;NAME</text>
<text x="-4.8768" y="-35.941" size="2.0828" layer="96" ratio="10" rot="SR0">&gt;VALUE</text>
</symbol>
</symbols>
<devicesets>
<deviceset name="ATMEGA328P-AU" prefix="U">
<description>8-bit Microcontroller with In-System Programmable Flash</description>
<gates>
<gate name="A" symbol="ATMEGA328P-AU" x="0" y="0"/>
</gates>
<devices>
<device name="" package="QFP80P900X900X120-32N">
<connects>
<connect gate="A" pin="ADC6" pad="19"/>
<connect gate="A" pin="ADC7" pad="22"/>
<connect gate="A" pin="AREF" pad="20"/>
<connect gate="A" pin="AVCC" pad="18"/>
<connect gate="A" pin="GND" pad="21"/>
<connect gate="A" pin="GND_2" pad="3"/>
<connect gate="A" pin="GND_3" pad="5"/>
<connect gate="A" pin="PB0" pad="12"/>
<connect gate="A" pin="PB1" pad="13"/>
<connect gate="A" pin="PB2" pad="14"/>
<connect gate="A" pin="PB3" pad="15"/>
<connect gate="A" pin="PB4" pad="16"/>
<connect gate="A" pin="PB5" pad="17"/>
<connect gate="A" pin="PB6" pad="7"/>
<connect gate="A" pin="PB7" pad="8"/>
<connect gate="A" pin="PC0" pad="23"/>
<connect gate="A" pin="PC1" pad="24"/>
<connect gate="A" pin="PC2" pad="25"/>
<connect gate="A" pin="PC3" pad="26"/>
<connect gate="A" pin="PC4" pad="27"/>
<connect gate="A" pin="PC5" pad="28"/>
<connect gate="A" pin="PC6" pad="29"/>
<connect gate="A" pin="PD0" pad="30"/>
<connect gate="A" pin="PD1" pad="31"/>
<connect gate="A" pin="PD2" pad="32"/>
<connect gate="A" pin="PD3" pad="1"/>
<connect gate="A" pin="PD4" pad="2"/>
<connect gate="A" pin="PD5" pad="9"/>
<connect gate="A" pin="PD6" pad="10"/>
<connect gate="A" pin="PD7" pad="11"/>
<connect gate="A" pin="VCC" pad="6"/>
<connect gate="A" pin="VCC_2" pad="4"/>
</connects>
<technologies>
<technology name="">
<attribute name="MPN" value="ATMEGA328P-AU" constant="no"/>
<attribute name="OC_FARNELL" value="1715486" constant="no"/>
<attribute name="OC_NEWARK" value="14R4631" constant="no"/>
<attribute name="PACKAGE" value="TQFP-32" constant="no"/>
<attribute name="SUPPLIER" value="Atmel" constant="no"/>
</technology>
</technologies>
</device>
</devices>
</deviceset>
</devicesets>
</library>
</drawing>
</eagle>
