<?xml version="1.0" encoding="utf-8"?>
<!DOCTYPE eagle SYSTEM "eagle.dtd">
<eagle version="6.5.0">
<drawing>
<settings>
<setting alwaysvectorfont="no"/>
<setting verticaltext="up"/>
</settings>
<grid distance="0.635" unitdist="mm" unit="mm" style="lines" multiple="1" display="no" altdistance="0.025" altunitdist="inch" altunit="inch"/>
<layers>
<layer number="1" name="Top" color="4" fill="1" visible="yes" active="yes"/>
<layer number="2" name="Route2" color="1" fill="3" visible="no" active="no"/>
<layer number="3" name="Route3" color="4" fill="3" visible="no" active="no"/>
<layer number="4" name="Route4" color="1" fill="4" visible="no" active="no"/>
<layer number="5" name="Route5" color="4" fill="4" visible="no" active="no"/>
<layer number="6" name="Route6" color="1" fill="8" visible="no" active="no"/>
<layer number="7" name="Route7" color="4" fill="8" visible="no" active="no"/>
<layer number="8" name="Route8" color="1" fill="2" visible="no" active="no"/>
<layer number="9" name="Route9" color="4" fill="2" visible="no" active="no"/>
<layer number="10" name="Route10" color="1" fill="7" visible="no" active="no"/>
<layer number="11" name="Route11" color="4" fill="7" visible="no" active="no"/>
<layer number="12" name="Route12" color="1" fill="5" visible="no" active="no"/>
<layer number="13" name="Route13" color="4" fill="5" visible="no" active="no"/>
<layer number="14" name="Route14" color="1" fill="6" visible="no" active="no"/>
<layer number="15" name="Route15" color="4" fill="6" visible="no" active="no"/>
<layer number="16" name="Bottom" color="1" fill="1" visible="yes" active="yes"/>
<layer number="17" name="Pads" color="2" fill="1" visible="yes" active="yes"/>
<layer number="18" name="Vias" color="2" fill="1" visible="yes" active="yes"/>
<layer number="19" name="Unrouted" color="6" fill="1" visible="yes" active="yes"/>
<layer number="20" name="Dimension" color="15" fill="1" visible="yes" active="yes"/>
<layer number="21" name="tPlace" color="7" fill="1" visible="yes" active="yes"/>
<layer number="22" name="bPlace" color="7" fill="1" visible="yes" active="yes"/>
<layer number="23" name="tOrigins" color="15" fill="1" visible="yes" active="yes"/>
<layer number="24" name="bOrigins" color="15" fill="1" visible="yes" active="yes"/>
<layer number="25" name="tNames" color="7" fill="1" visible="yes" active="yes"/>
<layer number="26" name="bNames" color="7" fill="1" visible="yes" active="yes"/>
<layer number="27" name="tValues" color="7" fill="1" visible="yes" active="yes"/>
<layer number="28" name="bValues" color="7" fill="1" visible="yes" active="yes"/>
<layer number="29" name="tStop" color="7" fill="3" visible="no" active="yes"/>
<layer number="30" name="bStop" color="7" fill="6" visible="no" active="yes"/>
<layer number="31" name="tCream" color="7" fill="4" visible="no" active="yes"/>
<layer number="32" name="bCream" color="7" fill="5" visible="no" active="yes"/>
<layer number="33" name="tFinish" color="6" fill="3" visible="no" active="yes"/>
<layer number="34" name="bFinish" color="6" fill="6" visible="no" active="yes"/>
<layer number="35" name="tGlue" color="7" fill="4" visible="no" active="yes"/>
<layer number="36" name="bGlue" color="7" fill="5" visible="no" active="yes"/>
<layer number="37" name="tTest" color="7" fill="1" visible="no" active="yes"/>
<layer number="38" name="bTest" color="7" fill="1" visible="no" active="yes"/>
<layer number="39" name="tKeepout" color="4" fill="11" visible="no" active="yes"/>
<layer number="40" name="bKeepout" color="1" fill="11" visible="no" active="yes"/>
<layer number="41" name="tRestrict" color="4" fill="10" visible="no" active="yes"/>
<layer number="42" name="bRestrict" color="1" fill="10" visible="no" active="yes"/>
<layer number="43" name="vRestrict" color="2" fill="10" visible="no" active="yes"/>
<layer number="44" name="Drills" color="7" fill="1" visible="yes" active="yes"/>
<layer number="45" name="Holes" color="7" fill="1" visible="yes" active="yes"/>
<layer number="46" name="Milling" color="3" fill="1" visible="no" active="yes"/>
<layer number="47" name="Measures" color="7" fill="1" visible="yes" active="yes"/>
<layer number="48" name="Document" color="7" fill="1" visible="yes" active="yes"/>
<layer number="49" name="Reference" color="7" fill="1" visible="yes" active="yes"/>
<layer number="51" name="tDocu" color="7" fill="1" visible="yes" active="yes"/>
<layer number="52" name="bDocu" color="7" fill="1" visible="yes" active="yes"/>
<layer number="91" name="Nets" color="2" fill="1" visible="no" active="no"/>
<layer number="92" name="Busses" color="1" fill="1" visible="no" active="no"/>
<layer number="93" name="Pins" color="2" fill="1" visible="no" active="no"/>
<layer number="94" name="Symbols" color="4" fill="1" visible="no" active="no"/>
<layer number="95" name="Names" color="7" fill="1" visible="no" active="no"/>
<layer number="96" name="Values" color="7" fill="1" visible="no" active="no"/>
<layer number="97" name="Info" color="7" fill="1" visible="no" active="no"/>
<layer number="98" name="Guide" color="6" fill="1" visible="no" active="no"/>
</layers>
<board>
<plain>
<wire x1="0" y1="0" x2="37.445" y2="0" width="0" layer="20"/>
<wire x1="37.445" y1="0" x2="37.445" y2="47.295" width="0" layer="20"/>
<wire x1="37.445" y1="47.295" x2="0" y2="47.295" width="0" layer="20"/>
<wire x1="0" y1="47.295" x2="0" y2="0" width="0" layer="20"/>
</plain>
<libraries>
<library name="tomikaa">
<description>&lt;b&gt;Microchip PIC Microcontrollers and other Devices&lt;/b&gt;&lt;p&gt;
Based on the following sources :
&lt;ul&gt;
&lt;li&gt;Microchip Data Book, 1993
&lt;li&gt;THE EMERGING WORLD STANDARD, 1995/1996
&lt;li&gt;Microchip, Technical Library CD-ROM, June 1998
&lt;li&gt;www.microchip.com
&lt;/ul&gt;
&lt;author&gt;Created by librarian@cadsoft.de&lt;/author&gt;</description>
<packages>
<package name="SO-14">
<description>&lt;B&gt;Small Outline Narrow Plastic Gull Wing&lt;/B&gt;&lt;p&gt;
150-mil body, package type SL</description>
<wire x1="-4.895" y1="3.9" x2="4.895" y2="3.9" width="0.1998" layer="39"/>
<wire x1="4.895" y1="-3.9" x2="-4.895" y2="-3.9" width="0.1998" layer="39"/>
<wire x1="-4.895" y1="-3.9" x2="-4.895" y2="3.9" width="0.1998" layer="39"/>
<wire x1="4.305" y1="-1.9" x2="-4.305" y2="-1.9" width="0.2032" layer="51"/>
<wire x1="-4.305" y1="-1.9" x2="-4.305" y2="-1.4" width="0.2032" layer="51"/>
<wire x1="-4.305" y1="-1.4" x2="-4.305" y2="1.9" width="0.2032" layer="51"/>
<wire x1="4.305" y1="-1.4" x2="-4.305" y2="-1.4" width="0.2032" layer="51"/>
<wire x1="4.305" y1="1.9" x2="4.305" y2="-1.4" width="0.2032" layer="51"/>
<wire x1="4.305" y1="-1.4" x2="4.305" y2="-1.9" width="0.2032" layer="51"/>
<wire x1="4.895" y1="3.9" x2="4.895" y2="-3.9" width="0.1998" layer="39"/>
<wire x1="-4.305" y1="1.9" x2="4.305" y2="1.9" width="0.2032" layer="51"/>
<smd name="2" x="-2.54" y="-2.6" dx="0.6" dy="2.2" layer="1"/>
<smd name="13" x="-2.54" y="2.6" dx="0.6" dy="2.2" layer="1"/>
<smd name="1" x="-3.81" y="-2.6" dx="0.6" dy="2.2" layer="1"/>
<smd name="3" x="-1.27" y="-2.6" dx="0.6" dy="2.2" layer="1"/>
<smd name="4" x="0" y="-2.6" dx="0.6" dy="2.2" layer="1"/>
<smd name="14" x="-3.81" y="2.6" dx="0.6" dy="2.2" layer="1"/>
<smd name="12" x="-1.27" y="2.6" dx="0.6" dy="2.2" layer="1"/>
<smd name="11" x="0" y="2.6" dx="0.6" dy="2.2" layer="1"/>
<smd name="6" x="2.54" y="-2.6" dx="0.6" dy="2.2" layer="1"/>
<smd name="9" x="2.54" y="2.6" dx="0.6" dy="2.2" layer="1"/>
<smd name="5" x="1.27" y="-2.6" dx="0.6" dy="2.2" layer="1"/>
<smd name="7" x="3.81" y="-2.6" dx="0.6" dy="2.2" layer="1"/>
<smd name="10" x="1.27" y="2.6" dx="0.6" dy="2.2" layer="1"/>
<smd name="8" x="3.81" y="2.6" dx="0.6" dy="2.2" layer="1"/>
<text x="-4.572" y="-1.905" size="1.27" layer="25" rot="R90">&gt;NAME</text>
<text x="5.842" y="-1.905" size="1.27" layer="27" rot="R90">&gt;VALUE</text>
<text x="-3.81" y="0.365" size="0.3048" layer="48">JEDEC MS-012 AB</text>
<text x="-3.81" y="-0.635" size="0.4064" layer="48">IPC SO14</text>
<rectangle x1="-4.0551" y1="-3.1001" x2="-3.5649" y2="-2" layer="51"/>
<rectangle x1="-2.7851" y1="-3.1001" x2="-2.2949" y2="-2" layer="51"/>
<rectangle x1="-1.5151" y1="-3.1001" x2="-1.0249" y2="-2" layer="51"/>
<rectangle x1="-0.2451" y1="-3.1001" x2="0.2451" y2="-2" layer="51"/>
<rectangle x1="-0.2451" y1="2" x2="0.2451" y2="3.1001" layer="51"/>
<rectangle x1="-1.5151" y1="2" x2="-1.0249" y2="3.1001" layer="51"/>
<rectangle x1="-2.7851" y1="2" x2="-2.2949" y2="3.1001" layer="51"/>
<rectangle x1="-4.0551" y1="2" x2="-3.5649" y2="3.1001" layer="51"/>
<rectangle x1="1.0249" y1="-3.1001" x2="1.5151" y2="-2" layer="51"/>
<rectangle x1="2.2949" y1="-3.1001" x2="2.7851" y2="-2" layer="51"/>
<rectangle x1="3.5649" y1="-3.1001" x2="4.0551" y2="-2" layer="51"/>
<rectangle x1="3.5649" y1="2" x2="4.0551" y2="3.1001" layer="51"/>
<rectangle x1="2.2949" y1="2" x2="2.7851" y2="3.1001" layer="51"/>
<rectangle x1="1.0249" y1="2" x2="1.5151" y2="3.1001" layer="51"/>
</package>
<package name="SOIC127P600X175-16N">
<smd name="1" x="-2.4638" y="4.445" dx="1.9812" dy="0.5588" layer="1"/>
<smd name="2" x="-2.4638" y="3.175" dx="1.9812" dy="0.5588" layer="1"/>
<smd name="3" x="-2.4638" y="1.905" dx="1.9812" dy="0.5588" layer="1"/>
<smd name="4" x="-2.4638" y="0.635" dx="1.9812" dy="0.5588" layer="1"/>
<smd name="5" x="-2.4638" y="-0.635" dx="1.9812" dy="0.5588" layer="1"/>
<smd name="6" x="-2.4638" y="-1.905" dx="1.9812" dy="0.5588" layer="1"/>
<smd name="7" x="-2.4638" y="-3.175" dx="1.9812" dy="0.5588" layer="1"/>
<smd name="8" x="-2.4638" y="-4.445" dx="1.9812" dy="0.5588" layer="1"/>
<smd name="9" x="2.4638" y="-4.445" dx="1.9812" dy="0.5588" layer="1"/>
<smd name="10" x="2.4638" y="-3.175" dx="1.9812" dy="0.5588" layer="1"/>
<smd name="11" x="2.4638" y="-1.905" dx="1.9812" dy="0.5588" layer="1"/>
<smd name="12" x="2.4638" y="-0.635" dx="1.9812" dy="0.5588" layer="1"/>
<smd name="13" x="2.4638" y="0.635" dx="1.9812" dy="0.5588" layer="1"/>
<smd name="14" x="2.4638" y="1.905" dx="1.9812" dy="0.5588" layer="1"/>
<smd name="15" x="2.4638" y="3.175" dx="1.9812" dy="0.5588" layer="1"/>
<smd name="16" x="2.4638" y="4.445" dx="1.9812" dy="0.5588" layer="1"/>
<wire x1="-2.0066" y1="4.191" x2="-2.0066" y2="4.699" width="0" layer="51"/>
<wire x1="-2.0066" y1="4.699" x2="-3.0988" y2="4.699" width="0" layer="51"/>
<wire x1="-3.0988" y1="4.699" x2="-3.0988" y2="4.191" width="0" layer="51"/>
<wire x1="-3.0988" y1="4.191" x2="-2.0066" y2="4.191" width="0" layer="51"/>
<wire x1="-2.0066" y1="2.921" x2="-2.0066" y2="3.429" width="0" layer="51"/>
<wire x1="-2.0066" y1="3.429" x2="-3.0988" y2="3.429" width="0" layer="51"/>
<wire x1="-3.0988" y1="3.429" x2="-3.0988" y2="2.921" width="0" layer="51"/>
<wire x1="-3.0988" y1="2.921" x2="-2.0066" y2="2.921" width="0" layer="51"/>
<wire x1="-2.0066" y1="1.651" x2="-2.0066" y2="2.159" width="0" layer="51"/>
<wire x1="-2.0066" y1="2.159" x2="-3.0988" y2="2.159" width="0" layer="51"/>
<wire x1="-3.0988" y1="2.159" x2="-3.0988" y2="1.651" width="0" layer="51"/>
<wire x1="-3.0988" y1="1.651" x2="-2.0066" y2="1.651" width="0" layer="51"/>
<wire x1="-2.0066" y1="0.381" x2="-2.0066" y2="0.889" width="0" layer="51"/>
<wire x1="-2.0066" y1="0.889" x2="-3.0988" y2="0.889" width="0" layer="51"/>
<wire x1="-3.0988" y1="0.889" x2="-3.0988" y2="0.381" width="0" layer="51"/>
<wire x1="-3.0988" y1="0.381" x2="-2.0066" y2="0.381" width="0" layer="51"/>
<wire x1="-2.0066" y1="-0.889" x2="-2.0066" y2="-0.381" width="0" layer="51"/>
<wire x1="-2.0066" y1="-0.381" x2="-3.0988" y2="-0.381" width="0" layer="51"/>
<wire x1="-3.0988" y1="-0.381" x2="-3.0988" y2="-0.889" width="0" layer="51"/>
<wire x1="-3.0988" y1="-0.889" x2="-2.0066" y2="-0.889" width="0" layer="51"/>
<wire x1="-2.0066" y1="-2.159" x2="-2.0066" y2="-1.651" width="0" layer="51"/>
<wire x1="-2.0066" y1="-1.651" x2="-3.0988" y2="-1.651" width="0" layer="51"/>
<wire x1="-3.0988" y1="-1.651" x2="-3.0988" y2="-2.159" width="0" layer="51"/>
<wire x1="-3.0988" y1="-2.159" x2="-2.0066" y2="-2.159" width="0" layer="51"/>
<wire x1="-2.0066" y1="-3.429" x2="-2.0066" y2="-2.921" width="0" layer="51"/>
<wire x1="-2.0066" y1="-2.921" x2="-3.0988" y2="-2.921" width="0" layer="51"/>
<wire x1="-3.0988" y1="-2.921" x2="-3.0988" y2="-3.429" width="0" layer="51"/>
<wire x1="-3.0988" y1="-3.429" x2="-2.0066" y2="-3.429" width="0" layer="51"/>
<wire x1="-2.0066" y1="-4.699" x2="-2.0066" y2="-4.191" width="0" layer="51"/>
<wire x1="-2.0066" y1="-4.191" x2="-3.0988" y2="-4.191" width="0" layer="51"/>
<wire x1="-3.0988" y1="-4.191" x2="-3.0988" y2="-4.699" width="0" layer="51"/>
<wire x1="-3.0988" y1="-4.699" x2="-2.0066" y2="-4.699" width="0" layer="51"/>
<wire x1="2.0066" y1="-4.191" x2="2.0066" y2="-4.699" width="0" layer="51"/>
<wire x1="2.0066" y1="-4.699" x2="3.0988" y2="-4.699" width="0" layer="51"/>
<wire x1="3.0988" y1="-4.699" x2="3.0988" y2="-4.191" width="0" layer="51"/>
<wire x1="3.0988" y1="-4.191" x2="2.0066" y2="-4.191" width="0" layer="51"/>
<wire x1="2.0066" y1="-2.921" x2="2.0066" y2="-3.429" width="0" layer="51"/>
<wire x1="2.0066" y1="-3.429" x2="3.0988" y2="-3.429" width="0" layer="51"/>
<wire x1="3.0988" y1="-3.429" x2="3.0988" y2="-2.921" width="0" layer="51"/>
<wire x1="3.0988" y1="-2.921" x2="2.0066" y2="-2.921" width="0" layer="51"/>
<wire x1="2.0066" y1="-1.651" x2="2.0066" y2="-2.159" width="0" layer="51"/>
<wire x1="2.0066" y1="-2.159" x2="3.0988" y2="-2.159" width="0" layer="51"/>
<wire x1="3.0988" y1="-2.159" x2="3.0988" y2="-1.651" width="0" layer="51"/>
<wire x1="3.0988" y1="-1.651" x2="2.0066" y2="-1.651" width="0" layer="51"/>
<wire x1="2.0066" y1="-0.381" x2="2.0066" y2="-0.889" width="0" layer="51"/>
<wire x1="2.0066" y1="-0.889" x2="3.0988" y2="-0.889" width="0" layer="51"/>
<wire x1="3.0988" y1="-0.889" x2="3.0988" y2="-0.381" width="0" layer="51"/>
<wire x1="3.0988" y1="-0.381" x2="2.0066" y2="-0.381" width="0" layer="51"/>
<wire x1="2.0066" y1="0.889" x2="2.0066" y2="0.381" width="0" layer="51"/>
<wire x1="2.0066" y1="0.381" x2="3.0988" y2="0.381" width="0" layer="51"/>
<wire x1="3.0988" y1="0.381" x2="3.0988" y2="0.889" width="0" layer="51"/>
<wire x1="3.0988" y1="0.889" x2="2.0066" y2="0.889" width="0" layer="51"/>
<wire x1="2.0066" y1="2.159" x2="2.0066" y2="1.651" width="0" layer="51"/>
<wire x1="2.0066" y1="1.651" x2="3.0988" y2="1.651" width="0" layer="51"/>
<wire x1="3.0988" y1="1.651" x2="3.0988" y2="2.159" width="0" layer="51"/>
<wire x1="3.0988" y1="2.159" x2="2.0066" y2="2.159" width="0" layer="51"/>
<wire x1="2.0066" y1="3.429" x2="2.0066" y2="2.921" width="0" layer="51"/>
<wire x1="2.0066" y1="2.921" x2="3.0988" y2="2.921" width="0" layer="51"/>
<wire x1="3.0988" y1="2.921" x2="3.0988" y2="3.429" width="0" layer="51"/>
<wire x1="3.0988" y1="3.429" x2="2.0066" y2="3.429" width="0" layer="51"/>
<wire x1="2.0066" y1="4.699" x2="2.0066" y2="4.191" width="0" layer="51"/>
<wire x1="2.0066" y1="4.191" x2="3.0988" y2="4.191" width="0" layer="51"/>
<wire x1="3.0988" y1="4.191" x2="3.0988" y2="4.699" width="0" layer="51"/>
<wire x1="3.0988" y1="4.699" x2="2.0066" y2="4.699" width="0" layer="51"/>
<wire x1="-2.0066" y1="-5.0038" x2="2.0066" y2="-5.0038" width="0" layer="51"/>
<wire x1="2.0066" y1="-5.0038" x2="2.0066" y2="5.0038" width="0" layer="51"/>
<wire x1="2.0066" y1="5.0038" x2="0.3048" y2="5.0038" width="0" layer="51"/>
<wire x1="0.3048" y1="5.0038" x2="-0.3048" y2="5.0038" width="0" layer="51"/>
<wire x1="-0.3048" y1="5.0038" x2="-2.0066" y2="5.0038" width="0" layer="51"/>
<wire x1="-2.0066" y1="5.0038" x2="-2.0066" y2="-5.0038" width="0" layer="51"/>
<wire x1="0.3048" y1="5.0038" x2="-0.3048" y2="5.0038" width="0" layer="51" curve="-180"/>
<text x="-3.302" y="4.8768" size="1.27" layer="51" ratio="6" rot="SR0">*</text>
<wire x1="3.81" y1="-2.9464" x2="4.826" y2="-2.9464" width="0.1524" layer="21"/>
<wire x1="-1.2954" y1="-5.0038" x2="1.2954" y2="-5.0038" width="0.1524" layer="21"/>
<wire x1="1.2954" y1="5.0038" x2="0.3048" y2="5.0038" width="0.1524" layer="21"/>
<wire x1="0.3048" y1="5.0038" x2="-0.3048" y2="5.0038" width="0.1524" layer="21"/>
<wire x1="-0.3048" y1="5.0038" x2="-1.2954" y2="5.0038" width="0.1524" layer="21"/>
<wire x1="0.3048" y1="5.0038" x2="-0.3048" y2="5.0038" width="0.1524" layer="21" curve="-180"/>
<text x="-3.302" y="4.8768" size="1.27" layer="21" ratio="6" rot="SR0">*</text>
<text x="-2.8702" y="-0.635" size="1.27" layer="25" ratio="6" rot="SR0">&gt;NAME</text>
<text x="-3.4544" y="-0.635" size="1.27" layer="27" ratio="6" rot="SR0">&gt;VALUE</text>
</package>
<package name="SOIC127P600X175-8N">
<smd name="1" x="-2.5908" y="1.905" dx="1.7018" dy="0.5334" layer="1"/>
<smd name="2" x="-2.5908" y="0.635" dx="1.7018" dy="0.5334" layer="1"/>
<smd name="3" x="-2.5908" y="-0.635" dx="1.7018" dy="0.5334" layer="1"/>
<smd name="4" x="-2.5908" y="-1.905" dx="1.7018" dy="0.5334" layer="1"/>
<smd name="5" x="2.5908" y="-1.905" dx="1.7018" dy="0.5334" layer="1"/>
<smd name="6" x="2.5908" y="-0.635" dx="1.7018" dy="0.5334" layer="1"/>
<smd name="7" x="2.5908" y="0.635" dx="1.7018" dy="0.5334" layer="1"/>
<smd name="8" x="2.5908" y="1.905" dx="1.7018" dy="0.5334" layer="1"/>
<wire x1="2.0066" y1="-2.4892" x2="2.0066" y2="-2.159" width="0" layer="51"/>
<wire x1="2.0066" y1="-1.651" x2="2.0066" y2="-0.889" width="0" layer="51"/>
<wire x1="2.0066" y1="-0.381" x2="2.0066" y2="0.381" width="0" layer="51"/>
<wire x1="2.0066" y1="0.889" x2="2.0066" y2="1.651" width="0" layer="51"/>
<wire x1="2.0066" y1="2.159" x2="2.0066" y2="2.4892" width="0" layer="51"/>
<wire x1="2.0066" y1="2.4892" x2="0.3048" y2="2.4892" width="0" layer="51"/>
<wire x1="-0.3048" y1="2.4892" x2="-2.0066" y2="2.4892" width="0" layer="51"/>
<wire x1="-2.0066" y1="2.4892" x2="-2.0066" y2="2.159" width="0" layer="51"/>
<wire x1="-2.0066" y1="1.651" x2="-2.0066" y2="0.889" width="0" layer="51"/>
<wire x1="-2.0066" y1="0.381" x2="-2.0066" y2="-0.381" width="0" layer="51"/>
<wire x1="-2.0066" y1="-0.889" x2="-2.0066" y2="-1.651" width="0" layer="51"/>
<wire x1="-2.0066" y1="-2.159" x2="-2.0066" y2="-2.4892" width="0" layer="51"/>
<wire x1="0.3048" y1="2.4892" x2="-0.3048" y2="2.4892" width="0" layer="51" curve="-180"/>
<text x="-3.429" y="2.3114" size="1.27" layer="51" ratio="6" rot="SR0">*</text>
<wire x1="1.6764" y1="2.4892" x2="0.3048" y2="2.4892" width="0.1524" layer="21"/>
<wire x1="-0.3048" y1="2.4892" x2="-1.6764" y2="2.4892" width="0.1524" layer="21"/>
<wire x1="0.3048" y1="2.4892" x2="-0.3048" y2="2.4892" width="0.1524" layer="21" curve="-180"/>
<text x="-3.429" y="2.3114" size="1.27" layer="21" ratio="6" rot="SR0">*</text>
<text x="-3.4544" y="4.445" size="2.0828" layer="25" ratio="10" rot="SR0">&gt;NAME</text>
<text x="-3.4544" y="-5.715" size="2.0828" layer="27" ratio="10" rot="SR0">&gt;VALUE</text>
<wire x1="-2.0066" y1="1.651" x2="-2.0066" y2="2.159" width="0" layer="51"/>
<wire x1="-2.0066" y1="2.159" x2="-3.0988" y2="2.159" width="0" layer="51"/>
<wire x1="-3.0988" y1="2.159" x2="-3.0988" y2="1.651" width="0" layer="51"/>
<wire x1="-3.0988" y1="1.651" x2="-2.0066" y2="1.651" width="0" layer="51"/>
<wire x1="-2.0066" y1="0.381" x2="-2.0066" y2="0.889" width="0" layer="51"/>
<wire x1="-2.0066" y1="0.889" x2="-3.0988" y2="0.889" width="0" layer="51"/>
<wire x1="-3.0988" y1="0.889" x2="-3.0988" y2="0.381" width="0" layer="51"/>
<wire x1="-3.0988" y1="0.381" x2="-2.0066" y2="0.381" width="0" layer="51"/>
<wire x1="-2.0066" y1="-0.889" x2="-2.0066" y2="-0.381" width="0" layer="51"/>
<wire x1="-2.0066" y1="-0.381" x2="-3.0988" y2="-0.381" width="0" layer="51"/>
<wire x1="-3.0988" y1="-0.381" x2="-3.0988" y2="-0.889" width="0" layer="51"/>
<wire x1="-3.0988" y1="-0.889" x2="-2.0066" y2="-0.889" width="0" layer="51"/>
<wire x1="-2.0066" y1="-2.159" x2="-2.0066" y2="-1.651" width="0" layer="51"/>
<wire x1="-2.0066" y1="-1.651" x2="-3.0988" y2="-1.651" width="0" layer="51"/>
<wire x1="-3.0988" y1="-1.651" x2="-3.0988" y2="-2.159" width="0" layer="51"/>
<wire x1="-3.0988" y1="-2.159" x2="-2.0066" y2="-2.159" width="0" layer="51"/>
<wire x1="2.0066" y1="-1.651" x2="2.0066" y2="-2.159" width="0" layer="51"/>
<wire x1="2.0066" y1="-2.159" x2="3.0988" y2="-2.159" width="0" layer="51"/>
<wire x1="3.0988" y1="-2.159" x2="3.0988" y2="-1.651" width="0" layer="51"/>
<wire x1="3.0988" y1="-1.651" x2="2.0066" y2="-1.651" width="0" layer="51"/>
<wire x1="2.0066" y1="-0.381" x2="2.0066" y2="-0.889" width="0" layer="51"/>
<wire x1="2.0066" y1="-0.889" x2="3.0988" y2="-0.889" width="0" layer="51"/>
<wire x1="3.0988" y1="-0.889" x2="3.0988" y2="-0.381" width="0" layer="51"/>
<wire x1="3.0988" y1="-0.381" x2="2.0066" y2="-0.381" width="0" layer="51"/>
<wire x1="2.0066" y1="0.889" x2="2.0066" y2="0.381" width="0" layer="51"/>
<wire x1="2.0066" y1="0.381" x2="3.0988" y2="0.381" width="0" layer="51"/>
<wire x1="3.0988" y1="0.381" x2="3.0988" y2="0.889" width="0" layer="51"/>
<wire x1="3.0988" y1="0.889" x2="2.0066" y2="0.889" width="0" layer="51"/>
<wire x1="2.0066" y1="2.159" x2="2.0066" y2="1.651" width="0" layer="51"/>
<wire x1="2.0066" y1="1.651" x2="3.0988" y2="1.651" width="0" layer="51"/>
<wire x1="3.0988" y1="1.651" x2="3.0988" y2="2.159" width="0" layer="51"/>
<wire x1="3.0988" y1="2.159" x2="2.0066" y2="2.159" width="0" layer="51"/>
<wire x1="-2.0066" y1="-2.4892" x2="2.0066" y2="-2.4892" width="0" layer="51"/>
<wire x1="2.0066" y1="-0.381" x2="2.0066" y2="0.381" width="0" layer="51"/>
<wire x1="0.3048" y1="2.4892" x2="-0.3048" y2="2.4892" width="0" layer="51"/>
<wire x1="-2.0066" y1="1.651" x2="-2.0066" y2="-1.651" width="0" layer="51"/>
<wire x1="0.3048" y1="2.4892" x2="-0.3048" y2="2.4892" width="0" layer="51" curve="-180"/>
<text x="-3.302" y="2.3368" size="1.27" layer="51" ratio="6" rot="SR0">*</text>
<wire x1="-1.6764" y1="-2.4892" x2="1.6764" y2="-2.4892" width="0.1524" layer="21"/>
<wire x1="0.3048" y1="2.4892" x2="-0.3048" y2="2.4892" width="0.1524" layer="21"/>
<wire x1="0.3048" y1="2.4892" x2="-0.3048" y2="2.4892" width="0.1524" layer="21" curve="-180"/>
<text x="-3.302" y="2.3368" size="1.27" layer="21" ratio="6" rot="SR0">*</text>
<text x="-3.4544" y="4.445" size="2.0828" layer="25" ratio="10" rot="SR0">&gt;NAME</text>
<text x="-3.4544" y="-5.715" size="2.0828" layer="27" ratio="10" rot="SR0">&gt;VALUE</text>
</package>
</packages>
</library>
<library name="rcl">
<description>&lt;b&gt;Resistors, Capacitors, Inductors&lt;/b&gt;&lt;p&gt;
Based on the previous libraries:
&lt;ul&gt;
&lt;li&gt;r.lbr
&lt;li&gt;cap.lbr 
&lt;li&gt;cap-fe.lbr
&lt;li&gt;captant.lbr
&lt;li&gt;polcap.lbr
&lt;li&gt;ipc-smd.lbr
&lt;/ul&gt;
All SMD packages are defined according to the IPC specifications and  CECC&lt;p&gt;
&lt;author&gt;Created by librarian@cadsoft.de&lt;/author&gt;&lt;p&gt;
&lt;p&gt;
for Electrolyt Capacitors see also :&lt;p&gt;
www.bccomponents.com &lt;p&gt;
www.panasonic.com&lt;p&gt;
www.kemet.com&lt;p&gt;
http://www.secc.co.jp/pdf/os_e/2004/e_os_all.pdf &lt;b&gt;(SANYO)&lt;/b&gt;
&lt;p&gt;
for trimmer refence see : &lt;u&gt;www.electrospec-inc.com/cross_references/trimpotcrossref.asp&lt;/u&gt;&lt;p&gt;

&lt;table border=0 cellspacing=0 cellpadding=0 width="100%" cellpaddding=0&gt;
&lt;tr valign="top"&gt;

&lt;! &lt;td width="10"&gt;&amp;nbsp;&lt;/td&gt;
&lt;td width="90%"&gt;

&lt;b&gt;&lt;font color="#0000FF" size="4"&gt;TRIM-POT CROSS REFERENCE&lt;/font&gt;&lt;/b&gt;
&lt;P&gt;
&lt;TABLE BORDER=0 CELLSPACING=1 CELLPADDING=2&gt;
  &lt;TR&gt;
    &lt;TD COLSPAN=8&gt;
      &lt;FONT SIZE=3 FACE=ARIAL&gt;&lt;B&gt;RECTANGULAR MULTI-TURN&lt;/B&gt;&lt;/FONT&gt;
    &lt;/TD&gt;
  &lt;/TR&gt;
  &lt;TR&gt;
    &lt;TD ALIGN=CENTER&gt;
      &lt;B&gt;
      &lt;FONT SIZE=3 FACE=ARIAL color="#FF0000"&gt;BOURNS&lt;/FONT&gt;
      &lt;/B&gt;
    &lt;/TD&gt;
    &lt;TD ALIGN=CENTER&gt;
      &lt;B&gt;
      &lt;FONT SIZE=3 FACE=ARIAL color="#FF0000"&gt;BI&amp;nbsp;TECH&lt;/FONT&gt;
      &lt;/B&gt;
    &lt;/TD&gt;
    &lt;TD ALIGN=CENTER&gt;
      &lt;B&gt;
      &lt;FONT SIZE=3 FACE=ARIAL color="#FF0000"&gt;DALE-VISHAY&lt;/FONT&gt;
      &lt;/B&gt;
    &lt;/TD&gt;
    &lt;TD ALIGN=CENTER&gt;
      &lt;B&gt;
      &lt;FONT SIZE=3 FACE=ARIAL color="#FF0000"&gt;PHILIPS/MEPCO&lt;/FONT&gt;
      &lt;/B&gt;
    &lt;/TD&gt;
    &lt;TD ALIGN=CENTER&gt;
      &lt;B&gt;
      &lt;FONT SIZE=3 FACE=ARIAL color="#FF0000"&gt;MURATA&lt;/FONT&gt;
      &lt;/B&gt;
    &lt;/TD&gt;
    &lt;TD ALIGN=CENTER&gt;
      &lt;B&gt;
      &lt;FONT SIZE=3 FACE=ARIAL color="#FF0000"&gt;PANASONIC&lt;/FONT&gt;
      &lt;/B&gt;
    &lt;/TD&gt;
    &lt;TD ALIGN=CENTER&gt;
      &lt;B&gt;
      &lt;FONT SIZE=3 FACE=ARIAL color="#FF0000"&gt;SPECTROL&lt;/FONT&gt;
      &lt;/B&gt;
    &lt;/TD&gt;
    &lt;TD ALIGN=CENTER&gt;
      &lt;B&gt;
      &lt;FONT SIZE=3 FACE=ARIAL color="#FF0000"&gt;MILSPEC&lt;/FONT&gt;
      &lt;/B&gt;
    &lt;/TD&gt;&lt;TD&gt;&amp;nbsp;&lt;/TD&gt;
  &lt;/TR&gt;
  &lt;TR&gt;
    &lt;TD BGCOLOR="#cccccc" ALIGN=CENTER&gt;&lt;FONT FACE=ARIAL SIZE=3 &gt;
      3005P&lt;BR&gt;
      3006P&lt;BR&gt;
      3006W&lt;BR&gt;
      3006Y&lt;BR&gt;
      3009P&lt;BR&gt;
      3009W&lt;BR&gt;
      3009Y&lt;BR&gt;
      3057J&lt;BR&gt;
      3057L&lt;BR&gt;
      3057P&lt;BR&gt;
      3057Y&lt;BR&gt;
      3059J&lt;BR&gt;
      3059L&lt;BR&gt;
      3059P&lt;BR&gt;
      3059Y&lt;BR&gt;&lt;/FONT&gt;
    &lt;/TD&gt;
    &lt;TD BGCOLOR="#cccccc" ALIGN=CENTER&gt;&lt;FONT FACE=ARIAL SIZE=3&gt;
      -&lt;BR&gt;
      89P&lt;BR&gt;
      89W&lt;BR&gt;
      89X&lt;BR&gt;
      89PH&lt;BR&gt;
      76P&lt;BR&gt;
      89XH&lt;BR&gt;
      78SLT&lt;BR&gt;
      78L&amp;nbsp;ALT&lt;BR&gt;
      56P&amp;nbsp;ALT&lt;BR&gt;
      78P&amp;nbsp;ALT&lt;BR&gt;
      T8S&lt;BR&gt;
      78L&lt;BR&gt;
      56P&lt;BR&gt;
      78P&lt;BR&gt;&lt;/FONT&gt;
    &lt;/TD&gt;
    &lt;TD BGCOLOR="#cccccc" ALIGN=CENTER&gt;&lt;FONT FACE=ARIAL SIZE=3&gt;
      -&lt;BR&gt;
      T18/784&lt;BR&gt;
      783&lt;BR&gt;
      781&lt;BR&gt;
      -&lt;BR&gt;
      -&lt;BR&gt;
      -&lt;BR&gt;
      2199&lt;BR&gt;
      1697/1897&lt;BR&gt;
      1680/1880&lt;BR&gt;
      2187&lt;BR&gt;
      -&lt;BR&gt;
      -&lt;BR&gt;
      -&lt;BR&gt;
      -&lt;BR&gt;&lt;/FONT&gt;
    &lt;/TD&gt;
    &lt;TD BGCOLOR="#cccccc" ALIGN=CENTER&gt;&lt;FONT FACE=ARIAL SIZE=3&gt;
      -&lt;BR&gt;
      8035EKP/CT20/RJ-20P&lt;BR&gt;
      -&lt;BR&gt;
      RJ-20X&lt;BR&gt;
      -&lt;BR&gt;
      -&lt;BR&gt;
      -&lt;BR&gt;
      1211L&lt;BR&gt;
      8012EKQ&amp;nbsp;ALT&lt;BR&gt;
      8012EKR&amp;nbsp;ALT&lt;BR&gt;
      1211P&lt;BR&gt;
      8012EKJ&lt;BR&gt;
      8012EKL&lt;BR&gt;
      8012EKQ&lt;BR&gt;
      8012EKR&lt;BR&gt;&lt;/FONT&gt;
    &lt;/TD&gt;
    &lt;TD BGCOLOR="#cccccc" ALIGN=CENTER&gt;&lt;FONT FACE=ARIAL SIZE=3&gt;
      -&lt;BR&gt;
      2101P&lt;BR&gt;
      2101W&lt;BR&gt;
      2101Y&lt;BR&gt;
      -&lt;BR&gt;
      -&lt;BR&gt;
      -&lt;BR&gt;
      -&lt;BR&gt;
      -&lt;BR&gt;
      -&lt;BR&gt;
      -&lt;BR&gt;
      -&lt;BR&gt;
      2102L&lt;BR&gt;
      2102S&lt;BR&gt;
      2102Y&lt;BR&gt;&lt;/FONT&gt;
    &lt;/TD&gt;
    &lt;TD BGCOLOR="#cccccc" ALIGN=CENTER&gt;&lt;FONT FACE=ARIAL SIZE=3&gt;
      -&lt;BR&gt;
      EVMCOG&lt;BR&gt;
      -&lt;BR&gt;
      -&lt;BR&gt;
      -&lt;BR&gt;
      -&lt;BR&gt;
      -&lt;BR&gt;
      -&lt;BR&gt;
      -&lt;BR&gt;
      -&lt;BR&gt;
      -&lt;BR&gt;
      -&lt;BR&gt;
      -&lt;BR&gt;
      -&lt;BR&gt;
      -&lt;BR&gt;&lt;/FONT&gt;
    &lt;/TD&gt;
    &lt;TD BGCOLOR="#cccccc" ALIGN=CENTER&gt;&lt;FONT FACE=ARIAL SIZE=3&gt;
      -&lt;BR&gt;
      43P&lt;BR&gt;
      43W&lt;BR&gt;
      43Y&lt;BR&gt;
      -&lt;BR&gt;
      -&lt;BR&gt;
      -&lt;BR&gt;
      -&lt;BR&gt;
      40L&lt;BR&gt;
      40P&lt;BR&gt;
      40Y&lt;BR&gt;
      70Y-T602&lt;BR&gt;
      70L&lt;BR&gt;
      70P&lt;BR&gt;
      70Y&lt;BR&gt;&lt;/FONT&gt;
    &lt;/TD&gt;
    &lt;TD BGCOLOR="#cccccc" ALIGN=CENTER&gt;&lt;FONT FACE=ARIAL SIZE=3&gt;
      -&lt;BR&gt;
      -&lt;BR&gt;
      -&lt;BR&gt;
      -&lt;BR&gt;
      -&lt;BR&gt;
      -&lt;BR&gt;
      -&lt;BR&gt;
      -&lt;BR&gt;
      RT/RTR12&lt;BR&gt;
      RT/RTR12&lt;BR&gt;
      RT/RTR12&lt;BR&gt;
      -&lt;BR&gt;
      RJ/RJR12&lt;BR&gt;
      RJ/RJR12&lt;BR&gt;
      RJ/RJR12&lt;BR&gt;&lt;/FONT&gt;
    &lt;/TD&gt;
  &lt;/TR&gt;
  &lt;TR&gt;
    &lt;TD COLSPAN=8&gt;&amp;nbsp;
    &lt;/TD&gt;
  &lt;/TR&gt;
  &lt;TR&gt;
    &lt;TD COLSPAN=8&gt;
      &lt;FONT SIZE=4 FACE=ARIAL&gt;&lt;B&gt;SQUARE MULTI-TURN&lt;/B&gt;&lt;/FONT&gt;
    &lt;/TD&gt;
  &lt;/TR&gt;
  &lt;TR&gt;
   &lt;TD ALIGN=CENTER&gt;
      &lt;FONT SIZE=3 FACE=ARIAL&gt;&lt;B&gt;BOURN&lt;/B&gt;&lt;/FONT&gt;
    &lt;/TD&gt;
    &lt;TD ALIGN=CENTER&gt;
      &lt;FONT SIZE=3 FACE=ARIAL&gt;&lt;B&gt;BI&amp;nbsp;TECH&lt;/B&gt;&lt;/FONT&gt;
    &lt;/TD&gt;
    &lt;TD ALIGN=CENTER&gt;
      &lt;FONT SIZE=3 FACE=ARIAL&gt;&lt;B&gt;DALE-VISHAY&lt;/B&gt;&lt;/FONT&gt;
    &lt;/TD&gt;
    &lt;TD ALIGN=CENTER&gt;
      &lt;FONT SIZE=3 FACE=ARIAL&gt;&lt;B&gt;PHILIPS/MEPCO&lt;/B&gt;&lt;/FONT&gt;
    &lt;/TD&gt;
    &lt;TD ALIGN=CENTER&gt;
      &lt;FONT SIZE=3 FACE=ARIAL&gt;&lt;B&gt;MURATA&lt;/B&gt;&lt;/FONT&gt;
    &lt;/TD&gt;
    &lt;TD ALIGN=CENTER&gt;
      &lt;FONT SIZE=3 FACE=ARIAL&gt;&lt;B&gt;PANASONIC&lt;/B&gt;&lt;/FONT&gt;
    &lt;/TD&gt;
    &lt;TD ALIGN=CENTER&gt;
      &lt;FONT SIZE=3 FACE=ARIAL&gt;&lt;B&gt;SPECTROL&lt;/B&gt;&lt;/FONT&gt;
    &lt;/TD&gt;
    &lt;TD ALIGN=CENTER&gt;
      &lt;FONT SIZE=3 FACE=ARIAL&gt;&lt;B&gt;MILSPEC&lt;/B&gt;&lt;/FONT&gt;
    &lt;/TD&gt;
  &lt;/TR&gt;
  &lt;TR&gt;
    &lt;TD BGCOLOR="#cccccc" ALIGN=CENTER&gt;&lt;FONT FACE=ARIAL SIZE=3&gt;
      3250L&lt;BR&gt;
      3250P&lt;BR&gt;
      3250W&lt;BR&gt;
      3250X&lt;BR&gt;
      3252P&lt;BR&gt;
      3252W&lt;BR&gt;
      3252X&lt;BR&gt;
      3260P&lt;BR&gt;
      3260W&lt;BR&gt;
      3260X&lt;BR&gt;
      3262P&lt;BR&gt;
      3262W&lt;BR&gt;
      3262X&lt;BR&gt;
      3266P&lt;BR&gt;
      3266W&lt;BR&gt;
      3266X&lt;BR&gt;
      3290H&lt;BR&gt;
      3290P&lt;BR&gt;
      3290W&lt;BR&gt;
      3292P&lt;BR&gt;
      3292W&lt;BR&gt;
      3292X&lt;BR&gt;
      3296P&lt;BR&gt;
      3296W&lt;BR&gt;
      3296X&lt;BR&gt;
      3296Y&lt;BR&gt;
      3296Z&lt;BR&gt;
      3299P&lt;BR&gt;
      3299W&lt;BR&gt;
      3299X&lt;BR&gt;
      3299Y&lt;BR&gt;
      3299Z&lt;BR&gt;&lt;/FONT&gt;
    &lt;/TD&gt;
    &lt;TD BGCOLOR="#cccccc" ALIGN=CENTER&gt;&lt;FONT FACE=ARIAL SIZE=3&gt;
      -&lt;BR&gt;
      66P&amp;nbsp;ALT&lt;BR&gt;
      66W&amp;nbsp;ALT&lt;BR&gt;
      66X&amp;nbsp;ALT&lt;BR&gt;
      66P&amp;nbsp;ALT&lt;BR&gt;
      66W&amp;nbsp;ALT&lt;BR&gt;
      66X&amp;nbsp;ALT&lt;BR&gt;
      -&lt;BR&gt;
      64W&amp;nbsp;ALT&lt;BR&gt;
      -&lt;BR&gt;
      64P&amp;nbsp;ALT&lt;BR&gt;
      64W&amp;nbsp;ALT&lt;BR&gt;
      64X&amp;nbsp;ALT&lt;BR&gt;
      64P&lt;BR&gt;
      64W&lt;BR&gt;
      64X&lt;BR&gt;
      66X&amp;nbsp;ALT&lt;BR&gt;
      66P&amp;nbsp;ALT&lt;BR&gt;
      66W&amp;nbsp;ALT&lt;BR&gt;
      66P&lt;BR&gt;
      66W&lt;BR&gt;
      66X&lt;BR&gt;
      67P&lt;BR&gt;
      67W&lt;BR&gt;
      67X&lt;BR&gt;
      67Y&lt;BR&gt;
      67Z&lt;BR&gt;
      68P&lt;BR&gt;
      68W&lt;BR&gt;
      68X&lt;BR&gt;
      67Y&amp;nbsp;ALT&lt;BR&gt;
      67Z&amp;nbsp;ALT&lt;BR&gt;&lt;/FONT&gt;
    &lt;/TD&gt;
    &lt;TD BGCOLOR="#cccccc" ALIGN=CENTER&gt;&lt;FONT FACE=ARIAL SIZE=3&gt;
      5050&lt;BR&gt;
      5091&lt;BR&gt;
      5080&lt;BR&gt;
      5087&lt;BR&gt;
      -&lt;BR&gt;
      -&lt;BR&gt;
      -&lt;BR&gt;
      -&lt;BR&gt;
      -&lt;BR&gt;
      -&lt;BR&gt;
      -&lt;BR&gt;
      T63YB&lt;BR&gt;
      T63XB&lt;BR&gt;
      -&lt;BR&gt;
      -&lt;BR&gt;
      -&lt;BR&gt;
      5887&lt;BR&gt;
      5891&lt;BR&gt;
      5880&lt;BR&gt;
      -&lt;BR&gt;
      -&lt;BR&gt;
      -&lt;BR&gt;
      T93Z&lt;BR&gt;
      T93YA&lt;BR&gt;
      T93XA&lt;BR&gt;
      T93YB&lt;BR&gt;
      T93XB&lt;BR&gt;
      -&lt;BR&gt;
      -&lt;BR&gt;
      -&lt;BR&gt;
      -&lt;BR&gt;
      -&lt;BR&gt;&lt;/FONT&gt;
    &lt;/TD&gt;
    &lt;TD BGCOLOR="#cccccc" ALIGN=CENTER&gt;&lt;FONT FACE=ARIAL SIZE=3&gt;
      -&lt;BR&gt;
      -&lt;BR&gt;
      -&lt;BR&gt;
      -&lt;BR&gt;
      -&lt;BR&gt;
      -&lt;BR&gt;
      -&lt;BR&gt;
      -&lt;BR&gt;
      -&lt;BR&gt;
      -&lt;BR&gt;
      8026EKP&lt;BR&gt;
      8026EKW&lt;BR&gt;
      8026EKM&lt;BR&gt;
      8026EKP&lt;BR&gt;
      8026EKB&lt;BR&gt;
      8026EKM&lt;BR&gt;
      1309X&lt;BR&gt;
      1309P&lt;BR&gt;
      1309W&lt;BR&gt;
      8024EKP&lt;BR&gt;
      8024EKW&lt;BR&gt;
      8024EKN&lt;BR&gt;
      RJ-9P/CT9P&lt;BR&gt;
      RJ-9W&lt;BR&gt;
      RJ-9X&lt;BR&gt;
      -&lt;BR&gt;
      -&lt;BR&gt;
      -&lt;BR&gt;
      -&lt;BR&gt;
      -&lt;BR&gt;
      -&lt;BR&gt;
      -&lt;BR&gt;&lt;/FONT&gt;
    &lt;/TD&gt;
    &lt;TD BGCOLOR="#cccccc" ALIGN=CENTER&gt;&lt;FONT FACE=ARIAL SIZE=3&gt;
      -&lt;BR&gt;
      -&lt;BR&gt;
      -&lt;BR&gt;
      -&lt;BR&gt;
      -&lt;BR&gt;
      -&lt;BR&gt;
      -&lt;BR&gt;
      -&lt;BR&gt;
      -&lt;BR&gt;
      -&lt;BR&gt;
      3103P&lt;BR&gt;
      3103Y&lt;BR&gt;
      3103Z&lt;BR&gt;
      3103P&lt;BR&gt;
      3103Y&lt;BR&gt;
      3103Z&lt;BR&gt;
      -&lt;BR&gt;
      -&lt;BR&gt;
      -&lt;BR&gt;
      -&lt;BR&gt;
      -&lt;BR&gt;
      -&lt;BR&gt;
      3105P/3106P&lt;BR&gt;
      3105W/3106W&lt;BR&gt;
      3105X/3106X&lt;BR&gt;
      3105Y/3106Y&lt;BR&gt;
      3105Z/3105Z&lt;BR&gt;
      3102P&lt;BR&gt;
      3102W&lt;BR&gt;
      3102X&lt;BR&gt;
      3102Y&lt;BR&gt;
      3102Z&lt;BR&gt;&lt;/FONT&gt;
    &lt;/TD&gt;
    &lt;TD BGCOLOR="#cccccc" ALIGN=CENTER&gt;&lt;FONT FACE=ARIAL SIZE=3&gt;
      -&lt;BR&gt;
      -&lt;BR&gt;
      -&lt;BR&gt;
      -&lt;BR&gt;
      -&lt;BR&gt;
      -&lt;BR&gt;
      -&lt;BR&gt;
      -&lt;BR&gt;
      -&lt;BR&gt;
      -&lt;BR&gt;
      -&lt;BR&gt;
      -&lt;BR&gt;
      -&lt;BR&gt;
      -&lt;BR&gt;
      -&lt;BR&gt;
      -&lt;BR&gt;
      -&lt;BR&gt;
      -&lt;BR&gt;
      -&lt;BR&gt;
      -&lt;BR&gt;
      -&lt;BR&gt;
      -&lt;BR&gt;
      EVMCBG&lt;BR&gt;
      EVMCCG&lt;BR&gt;
      -&lt;BR&gt;
      -&lt;BR&gt;
      -&lt;BR&gt;
      -&lt;BR&gt;
      -&lt;BR&gt;
      -&lt;BR&gt;
      -&lt;BR&gt;
      -&lt;BR&gt;&lt;/FONT&gt;
    &lt;/TD&gt;
    &lt;TD BGCOLOR="#cccccc" ALIGN=CENTER&gt;&lt;FONT FACE=ARIAL SIZE=3&gt;
      55-1-X&lt;BR&gt;
      55-4-X&lt;BR&gt;
      55-3-X&lt;BR&gt;
      55-2-X&lt;BR&gt;
      -&lt;BR&gt;
      -&lt;BR&gt;
      -&lt;BR&gt;
      -&lt;BR&gt;
      -&lt;BR&gt;
      -&lt;BR&gt;
      -&lt;BR&gt;
      -&lt;BR&gt;
      -&lt;BR&gt;
      -&lt;BR&gt;
      -&lt;BR&gt;
      -&lt;BR&gt;
      50-2-X&lt;BR&gt;
      50-4-X&lt;BR&gt;
      50-3-X&lt;BR&gt;
      -&lt;BR&gt;
      -&lt;BR&gt;
      -&lt;BR&gt;
      64P&lt;BR&gt;
      64W&lt;BR&gt;
      64X&lt;BR&gt;
      64Y&lt;BR&gt;
      64Z&lt;BR&gt;
      -&lt;BR&gt;
      -&lt;BR&gt;
      -&lt;BR&gt;
      -&lt;BR&gt;
      -&lt;BR&gt;&lt;/FONT&gt;
    &lt;/TD&gt;
    &lt;TD BGCOLOR="#cccccc" ALIGN=CENTER&gt;&lt;FONT FACE=ARIAL SIZE=3&gt;
      RT/RTR22&lt;BR&gt;
      RT/RTR22&lt;BR&gt;
      RT/RTR22&lt;BR&gt;
      RT/RTR22&lt;BR&gt;
      RJ/RJR22&lt;BR&gt;
      RJ/RJR22&lt;BR&gt;
      RJ/RJR22&lt;BR&gt;
      RT/RTR26&lt;BR&gt;
      RT/RTR26&lt;BR&gt;
      RT/RTR26&lt;BR&gt;
      RJ/RJR26&lt;BR&gt;
      RJ/RJR26&lt;BR&gt;
      RJ/RJR26&lt;BR&gt;
      RJ/RJR26&lt;BR&gt;
      RJ/RJR26&lt;BR&gt;
      RJ/RJR26&lt;BR&gt;
      RT/RTR24&lt;BR&gt;
      RT/RTR24&lt;BR&gt;
      RT/RTR24&lt;BR&gt;
      RJ/RJR24&lt;BR&gt;
      RJ/RJR24&lt;BR&gt;
      RJ/RJR24&lt;BR&gt;
      RJ/RJR24&lt;BR&gt;
      RJ/RJR24&lt;BR&gt;
      RJ/RJR24&lt;BR&gt;
      -&lt;BR&gt;
      -&lt;BR&gt;
      -&lt;BR&gt;
      -&lt;BR&gt;
      -&lt;BR&gt;
      -&lt;BR&gt;
      -&lt;BR&gt;&lt;/FONT&gt;
    &lt;/TD&gt;
  &lt;/TR&gt;
  &lt;TR&gt;
    &lt;TD COLSPAN=8&gt;&amp;nbsp;
    &lt;/TD&gt;
  &lt;/TR&gt;
  &lt;TR&gt;
    &lt;TD COLSPAN=8&gt;
      &lt;FONT SIZE=4 FACE=ARIAL&gt;&lt;B&gt;SINGLE TURN&lt;/B&gt;&lt;/FONT&gt;
    &lt;/TD&gt;
  &lt;/TR&gt;
  &lt;TR&gt;
    &lt;TD ALIGN=CENTER&gt;
      &lt;FONT SIZE=3 FACE=ARIAL&gt;&lt;B&gt;BOURN&lt;/B&gt;&lt;/FONT&gt;
    &lt;/TD&gt;
    &lt;TD ALIGN=CENTER&gt;
      &lt;FONT SIZE=3 FACE=ARIAL&gt;&lt;B&gt;BI&amp;nbsp;TECH&lt;/B&gt;&lt;/FONT&gt;
    &lt;/TD&gt;
    &lt;TD ALIGN=CENTER&gt;
      &lt;FONT SIZE=3 FACE=ARIAL&gt;&lt;B&gt;DALE-VISHAY&lt;/B&gt;&lt;/FONT&gt;
    &lt;/TD&gt;
    &lt;TD ALIGN=CENTER&gt;
      &lt;FONT SIZE=3 FACE=ARIAL&gt;&lt;B&gt;PHILIPS/MEPCO&lt;/B&gt;&lt;/FONT&gt;
    &lt;/TD&gt;
    &lt;TD ALIGN=CENTER&gt;
      &lt;FONT SIZE=3 FACE=ARIAL&gt;&lt;B&gt;MURATA&lt;/B&gt;&lt;/FONT&gt;
    &lt;/TD&gt;
    &lt;TD ALIGN=CENTER&gt;
      &lt;FONT SIZE=3 FACE=ARIAL&gt;&lt;B&gt;PANASONIC&lt;/B&gt;&lt;/FONT&gt;
    &lt;/TD&gt;
    &lt;TD ALIGN=CENTER&gt;
      &lt;FONT SIZE=3 FACE=ARIAL&gt;&lt;B&gt;SPECTROL&lt;/B&gt;&lt;/FONT&gt;
    &lt;/TD&gt;
    &lt;TD ALIGN=CENTER&gt;
      &lt;FONT SIZE=3 FACE=ARIAL&gt;&lt;B&gt;MILSPEC&lt;/B&gt;&lt;/FONT&gt;
    &lt;/TD&gt;
  &lt;/TR&gt;
  &lt;TR&gt;
    &lt;TD BGCOLOR="#cccccc" ALIGN=CENTER&gt;&lt;FONT FACE=ARIAL SIZE=3&gt;
      3323P&lt;BR&gt;
      3323S&lt;BR&gt;
      3323W&lt;BR&gt;
      3329H&lt;BR&gt;
      3329P&lt;BR&gt;
      3329W&lt;BR&gt;
      3339H&lt;BR&gt;
      3339P&lt;BR&gt;
      3339W&lt;BR&gt;
      3352E&lt;BR&gt;
      3352H&lt;BR&gt;
      3352K&lt;BR&gt;
      3352P&lt;BR&gt;
      3352T&lt;BR&gt;
      3352V&lt;BR&gt;
      3352W&lt;BR&gt;
      3362H&lt;BR&gt;
      3362M&lt;BR&gt;
      3362P&lt;BR&gt;
      3362R&lt;BR&gt;
      3362S&lt;BR&gt;
      3362U&lt;BR&gt;
      3362W&lt;BR&gt;
      3362X&lt;BR&gt;
      3386B&lt;BR&gt;
      3386C&lt;BR&gt;
      3386F&lt;BR&gt;
      3386H&lt;BR&gt;
      3386K&lt;BR&gt;
      3386M&lt;BR&gt;
      3386P&lt;BR&gt;
      3386S&lt;BR&gt;
      3386W&lt;BR&gt;
      3386X&lt;BR&gt;&lt;/FONT&gt;
    &lt;/TD&gt;
    &lt;TD BGCOLOR="#cccccc" ALIGN=CENTER&gt;&lt;FONT FACE=ARIAL SIZE=3&gt;
      25P&lt;BR&gt;
      25S&lt;BR&gt;
      25RX&lt;BR&gt;
      82P&lt;BR&gt;
      82M&lt;BR&gt;
      82PA&lt;BR&gt;
      -&lt;BR&gt;
      -&lt;BR&gt;
      -&lt;BR&gt;
      91E&lt;BR&gt;
      91X&lt;BR&gt;
      91T&lt;BR&gt;
      91B&lt;BR&gt;
      91A&lt;BR&gt;
      91V&lt;BR&gt;
      91W&lt;BR&gt;
      25W&lt;BR&gt;
      25V&lt;BR&gt;
      25P&lt;BR&gt;
      -&lt;BR&gt;
      25S&lt;BR&gt;
      25U&lt;BR&gt;
      25RX&lt;BR&gt;
      25X&lt;BR&gt;
      72XW&lt;BR&gt;
      72XL&lt;BR&gt;
      72PM&lt;BR&gt;
      72RX&lt;BR&gt;
      -&lt;BR&gt;
      72PX&lt;BR&gt;
      72P&lt;BR&gt;
      72RXW&lt;BR&gt;
      72RXL&lt;BR&gt;
      72X&lt;BR&gt;&lt;/FONT&gt;
    &lt;/TD&gt;
    &lt;TD BGCOLOR="#cccccc" ALIGN=CENTER&gt;&lt;FONT FACE=ARIAL SIZE=3&gt;
      -&lt;BR&gt;
      -&lt;BR&gt;
      -&lt;BR&gt;
      T7YB&lt;BR&gt;
      T7YA&lt;BR&gt;
      -&lt;BR&gt;
      -&lt;BR&gt;
      -&lt;BR&gt;
      -&lt;BR&gt;
      -&lt;BR&gt;
      -&lt;BR&gt;
      -&lt;BR&gt;
      -&lt;BR&gt;
      -&lt;BR&gt;
      -&lt;BR&gt;
      -&lt;BR&gt;
      -&lt;BR&gt;
      TXD&lt;BR&gt;
      TYA&lt;BR&gt;
      TYP&lt;BR&gt;
      -&lt;BR&gt;
      TYD&lt;BR&gt;
      TX&lt;BR&gt;
      -&lt;BR&gt;
      150SX&lt;BR&gt;
      100SX&lt;BR&gt;
      102T&lt;BR&gt;
      101S&lt;BR&gt;
      190T&lt;BR&gt;
      150TX&lt;BR&gt;
      101&lt;BR&gt;
      -&lt;BR&gt;
      -&lt;BR&gt;
      101SX&lt;BR&gt;&lt;/FONT&gt;
    &lt;/TD&gt;
    &lt;TD BGCOLOR="#cccccc" ALIGN=CENTER&gt;&lt;FONT FACE=ARIAL SIZE=3&gt;
      ET6P&lt;BR&gt;
      ET6S&lt;BR&gt;
      ET6X&lt;BR&gt;
      RJ-6W/8014EMW&lt;BR&gt;
      RJ-6P/8014EMP&lt;BR&gt;
      RJ-6X/8014EMX&lt;BR&gt;
      TM7W&lt;BR&gt;
      TM7P&lt;BR&gt;
      TM7X&lt;BR&gt;
      -&lt;BR&gt;
      8017SMS&lt;BR&gt;
      -&lt;BR&gt;
      8017SMB&lt;BR&gt;
      8017SMA&lt;BR&gt;
      -&lt;BR&gt;
      -&lt;BR&gt;
      CT-6W&lt;BR&gt;
      CT-6H&lt;BR&gt;
      CT-6P&lt;BR&gt;
      CT-6R&lt;BR&gt;
      -&lt;BR&gt;
      CT-6V&lt;BR&gt;
      CT-6X&lt;BR&gt;
      -&lt;BR&gt;
      -&lt;BR&gt;
      8038EKV&lt;BR&gt;
      -&lt;BR&gt;
      8038EKX&lt;BR&gt;
      -&lt;BR&gt;
      -&lt;BR&gt;
      8038EKP&lt;BR&gt;
      8038EKZ&lt;BR&gt;
      8038EKW&lt;BR&gt;
      -&lt;BR&gt;&lt;/FONT&gt;
    &lt;/TD&gt;
    &lt;TD BGCOLOR="#cccccc" ALIGN=CENTER&gt;&lt;FONT FACE=ARIAL SIZE=3&gt;
      -&lt;BR&gt;
      -&lt;BR&gt;
      -&lt;BR&gt;
      3321H&lt;BR&gt;
      3321P&lt;BR&gt;
      3321N&lt;BR&gt;
      1102H&lt;BR&gt;
      1102P&lt;BR&gt;
      1102T&lt;BR&gt;
      RVA0911V304A&lt;BR&gt;
      -&lt;BR&gt;
      RVA0911H413A&lt;BR&gt;
      RVG0707V100A&lt;BR&gt;
      RVA0607V(H)306A&lt;BR&gt;
      RVA1214H213A&lt;BR&gt;
      -&lt;BR&gt;
      -&lt;BR&gt;
      -&lt;BR&gt;
      -&lt;BR&gt;
      -&lt;BR&gt;
      -&lt;BR&gt;
      -&lt;BR&gt;
      -&lt;BR&gt;
      -&lt;BR&gt;
      3104B&lt;BR&gt;
      3104C&lt;BR&gt;
      3104F&lt;BR&gt;
      3104H&lt;BR&gt;
      -&lt;BR&gt;
      3104M&lt;BR&gt;
      3104P&lt;BR&gt;
      3104S&lt;BR&gt;
      3104W&lt;BR&gt;
      3104X&lt;BR&gt;&lt;/FONT&gt;
    &lt;/TD&gt;
    &lt;TD BGCOLOR="#cccccc" ALIGN=CENTER&gt;&lt;FONT FACE=ARIAL SIZE=3&gt;
      EVMQ0G&lt;BR&gt;
      EVMQIG&lt;BR&gt;
      EVMQ3G&lt;BR&gt;
      EVMS0G&lt;BR&gt;
      EVMQ0G&lt;BR&gt;
      EVMG0G&lt;BR&gt;
      -&lt;BR&gt;
      -&lt;BR&gt;
      -&lt;BR&gt;
      EVMK4GA00B&lt;BR&gt;
      EVM30GA00B&lt;BR&gt;
      EVMK0GA00B&lt;BR&gt;
      EVM38GA00B&lt;BR&gt;
      EVMB6&lt;BR&gt;
      EVLQ0&lt;BR&gt;
      -&lt;BR&gt;
      EVMMSG&lt;BR&gt;
      EVMMBG&lt;BR&gt;
      EVMMAG&lt;BR&gt;
      -&lt;BR&gt;
      -&lt;BR&gt;
      EVMMCS&lt;BR&gt;
      -&lt;BR&gt;
      -&lt;BR&gt;
      -&lt;BR&gt;
      -&lt;BR&gt;
      -&lt;BR&gt;
      EVMM1&lt;BR&gt;
      -&lt;BR&gt;
      -&lt;BR&gt;
      EVMM0&lt;BR&gt;
      -&lt;BR&gt;
      -&lt;BR&gt;
      EVMM3&lt;BR&gt;&lt;/FONT&gt;
    &lt;/TD&gt;
    &lt;TD BGCOLOR="#cccccc" ALIGN=CENTER&gt;&lt;FONT FACE=ARIAL SIZE=3&gt;
      -&lt;BR&gt;
      -&lt;BR&gt;
      -&lt;BR&gt;
      62-3-1&lt;BR&gt;
      62-1-2&lt;BR&gt;
      -&lt;BR&gt;
      -&lt;BR&gt;
      -&lt;BR&gt;
      -&lt;BR&gt;
      -&lt;BR&gt;
      -&lt;BR&gt;
      -&lt;BR&gt;
      -&lt;BR&gt;
      -&lt;BR&gt;
      -&lt;BR&gt;
      -&lt;BR&gt;
      67R&lt;BR&gt;
      -&lt;BR&gt;
      67P&lt;BR&gt;
      -&lt;BR&gt;
      -&lt;BR&gt;
      -&lt;BR&gt;
      -&lt;BR&gt;
      67X&lt;BR&gt;
      63V&lt;BR&gt;
      63S&lt;BR&gt;
      63M&lt;BR&gt;
      -&lt;BR&gt;
      -&lt;BR&gt;
      63H&lt;BR&gt;
      63P&lt;BR&gt;
      -&lt;BR&gt;
      -&lt;BR&gt;
      63X&lt;BR&gt;&lt;/FONT&gt;
    &lt;/TD&gt;
    &lt;TD BGCOLOR="#cccccc" ALIGN=CENTER&gt;&lt;FONT FACE=ARIAL SIZE=3&gt;
      -&lt;BR&gt;
      -&lt;BR&gt;
      -&lt;BR&gt;
      RJ/RJR50&lt;BR&gt;
      RJ/RJR50&lt;BR&gt;
      RJ/RJR50&lt;BR&gt;
      -&lt;BR&gt;
      -&lt;BR&gt;
      -&lt;BR&gt;
      -&lt;BR&gt;
      -&lt;BR&gt;
      -&lt;BR&gt;
      -&lt;BR&gt;
      -&lt;BR&gt;
      -&lt;BR&gt;
      -&lt;BR&gt;
      -&lt;BR&gt;
      -&lt;BR&gt;
      -&lt;BR&gt;
      -&lt;BR&gt;
      -&lt;BR&gt;
      -&lt;BR&gt;
      -&lt;BR&gt;
      -&lt;BR&gt;
      -&lt;BR&gt;
      -&lt;BR&gt;
      -&lt;BR&gt;
      -&lt;BR&gt;
      -&lt;BR&gt;
      -&lt;BR&gt;
      -&lt;BR&gt;
      -&lt;BR&gt;
      -&lt;BR&gt;
      -&lt;BR&gt;&lt;/FONT&gt;
    &lt;/TD&gt;
  &lt;/TR&gt;
&lt;/TABLE&gt;
&lt;P&gt;&amp;nbsp;&lt;P&gt;
&lt;TABLE BORDER=0 CELLSPACING=1 CELLPADDING=3&gt;
  &lt;TR&gt;
    &lt;TD COLSPAN=7&gt;
      &lt;FONT color="#0000FF" SIZE=4 FACE=ARIAL&gt;&lt;B&gt;SMD TRIM-POT CROSS REFERENCE&lt;/B&gt;&lt;/FONT&gt;
      &lt;P&gt;
      &lt;FONT SIZE=4 FACE=ARIAL&gt;&lt;B&gt;MULTI-TURN&lt;/B&gt;&lt;/FONT&gt;
    &lt;/TD&gt;
  &lt;/TR&gt;
  &lt;TR&gt;
    &lt;TD&gt;
      &lt;FONT SIZE=3 FACE=ARIAL&gt;&lt;B&gt;BOURNS&lt;/B&gt;&lt;/FONT&gt;
    &lt;/TD&gt;
    &lt;TD&gt;
      &lt;FONT SIZE=3 FACE=ARIAL&gt;&lt;B&gt;BI&amp;nbsp;TECH&lt;/B&gt;&lt;/FONT&gt;
    &lt;/TD&gt;
    &lt;TD&gt;
      &lt;FONT SIZE=3 FACE=ARIAL&gt;&lt;B&gt;DALE-VISHAY&lt;/B&gt;&lt;/FONT&gt;
    &lt;/TD&gt;
    &lt;TD&gt;
      &lt;FONT SIZE=3 FACE=ARIAL&gt;&lt;B&gt;PHILIPS/MEPCO&lt;/B&gt;&lt;/FONT&gt;
    &lt;/TD&gt;
    &lt;TD&gt;
      &lt;FONT SIZE=3 FACE=ARIAL&gt;&lt;B&gt;PANASONIC&lt;/B&gt;&lt;/FONT&gt;
    &lt;/TD&gt;
    &lt;TD&gt;
      &lt;FONT SIZE=3 FACE=ARIAL&gt;&lt;B&gt;TOCOS&lt;/B&gt;&lt;/FONT&gt;
    &lt;/TD&gt;
    &lt;TD&gt;
      &lt;FONT SIZE=3 FACE=ARIAL&gt;&lt;B&gt;AUX/KYOCERA&lt;/B&gt;&lt;/FONT&gt;
    &lt;/TD&gt;
  &lt;/TR&gt;
  &lt;TR&gt;
    &lt;TD BGCOLOR="#cccccc" ALIGN=CENTER&gt;&lt;FONT FACE=ARIAL SIZE=3&gt;
      3224G&lt;BR&gt;
      3224J&lt;BR&gt;
      3224W&lt;BR&gt;
      3269P&lt;BR&gt;
      3269W&lt;BR&gt;
      3269X&lt;BR&gt;&lt;/FONT&gt;
    &lt;/TD&gt;
    &lt;TD BGCOLOR="#cccccc" ALIGN=CENTER&gt;&lt;FONT FACE=ARIAL SIZE=3&gt;
      44G&lt;BR&gt;
      44J&lt;BR&gt;
      44W&lt;BR&gt;
      84P&lt;BR&gt;
      84W&lt;BR&gt;
      84X&lt;BR&gt;&lt;/FONT&gt;
    &lt;/TD&gt;
    &lt;TD BGCOLOR="#cccccc" ALIGN=CENTER&gt;&lt;FONT FACE=ARIAL SIZE=3&gt;
      -&lt;BR&gt;
      -&lt;BR&gt;
      -&lt;BR&gt;
      ST63Z&lt;BR&gt;
      ST63Y&lt;BR&gt;
      -&lt;BR&gt;&lt;/FONT&gt;
    &lt;/TD&gt;
    &lt;TD BGCOLOR="#cccccc" ALIGN=CENTER&gt;&lt;FONT FACE=ARIAL SIZE=3&gt;
      -&lt;BR&gt;
      -&lt;BR&gt;
      -&lt;BR&gt;
      ST5P&lt;BR&gt;
      ST5W&lt;BR&gt;
      ST5X&lt;BR&gt;&lt;/FONT&gt;
    &lt;/TD&gt;
    &lt;TD BGCOLOR="#cccccc" ALIGN=CENTER&gt;&lt;FONT FACE=ARIAL SIZE=3&gt;
      -&lt;BR&gt;
      -&lt;BR&gt;
      -&lt;BR&gt;
      -&lt;BR&gt;
      -&lt;BR&gt;
      -&lt;BR&gt;&lt;/FONT&gt;
    &lt;/TD&gt;
    &lt;TD BGCOLOR="#cccccc" ALIGN=CENTER&gt;&lt;FONT FACE=ARIAL SIZE=3&gt;
      -&lt;BR&gt;
      -&lt;BR&gt;
      -&lt;BR&gt;
      -&lt;BR&gt;
      -&lt;BR&gt;
      -&lt;BR&gt;&lt;/FONT&gt;
    &lt;/TD&gt;
    &lt;TD BGCOLOR="#cccccc" ALIGN=CENTER&gt;&lt;FONT FACE=ARIAL SIZE=3&gt;
      -&lt;BR&gt;
      -&lt;BR&gt;
      -&lt;BR&gt;
      -&lt;BR&gt;
      -&lt;BR&gt;
      -&lt;BR&gt;&lt;/FONT&gt;
    &lt;/TD&gt;
  &lt;/TR&gt;
  &lt;TR&gt;
    &lt;TD COLSPAN=7&gt;&amp;nbsp;
    &lt;/TD&gt;
  &lt;/TR&gt;
  &lt;TR&gt;
    &lt;TD COLSPAN=7&gt;
      &lt;FONT SIZE=4 FACE=ARIAL&gt;&lt;B&gt;SINGLE TURN&lt;/B&gt;&lt;/FONT&gt;
    &lt;/TD&gt;
  &lt;/TR&gt;
  &lt;TR&gt;
    &lt;TD&gt;
      &lt;FONT SIZE=3 FACE=ARIAL&gt;&lt;B&gt;BOURNS&lt;/B&gt;&lt;/FONT&gt;
    &lt;/TD&gt;
    &lt;TD&gt;
      &lt;FONT SIZE=3 FACE=ARIAL&gt;&lt;B&gt;BI&amp;nbsp;TECH&lt;/B&gt;&lt;/FONT&gt;
    &lt;/TD&gt;
    &lt;TD&gt;
      &lt;FONT SIZE=3 FACE=ARIAL&gt;&lt;B&gt;DALE-VISHAY&lt;/B&gt;&lt;/FONT&gt;
    &lt;/TD&gt;
    &lt;TD&gt;
      &lt;FONT SIZE=3 FACE=ARIAL&gt;&lt;B&gt;PHILIPS/MEPCO&lt;/B&gt;&lt;/FONT&gt;
    &lt;/TD&gt;
    &lt;TD&gt;
      &lt;FONT SIZE=3 FACE=ARIAL&gt;&lt;B&gt;PANASONIC&lt;/B&gt;&lt;/FONT&gt;
    &lt;/TD&gt;
    &lt;TD&gt;
      &lt;FONT SIZE=3 FACE=ARIAL&gt;&lt;B&gt;TOCOS&lt;/B&gt;&lt;/FONT&gt;
    &lt;/TD&gt;
    &lt;TD&gt;
      &lt;FONT SIZE=3 FACE=ARIAL&gt;&lt;B&gt;AUX/KYOCERA&lt;/B&gt;&lt;/FONT&gt;
    &lt;/TD&gt;
  &lt;/TR&gt;
  &lt;TR&gt;
    &lt;TD BGCOLOR="#cccccc" ALIGN=CENTER&gt;&lt;FONT FACE=ARIAL SIZE=3&gt;
      3314G&lt;BR&gt;
      3314J&lt;BR&gt;
      3364A/B&lt;BR&gt;
      3364C/D&lt;BR&gt;
      3364W/X&lt;BR&gt;
      3313G&lt;BR&gt;
      3313J&lt;BR&gt;&lt;/FONT&gt;
    &lt;/TD&gt;
    &lt;TD BGCOLOR="#cccccc" ALIGN=CENTER&gt;&lt;FONT FACE=ARIAL SIZE=3&gt;
      23B&lt;BR&gt;
      23A&lt;BR&gt;
      21X&lt;BR&gt;
      21W&lt;BR&gt;
      -&lt;BR&gt;
      22B&lt;BR&gt;
      22A&lt;BR&gt;&lt;/FONT&gt;
    &lt;/TD&gt;
    &lt;TD BGCOLOR="#cccccc" ALIGN=CENTER&gt;&lt;FONT FACE=ARIAL SIZE=3&gt;
      ST5YL/ST53YL&lt;BR&gt;
      ST5YJ/5T53YJ&lt;BR&gt;
      ST-23A&lt;BR&gt;
      ST-22B&lt;BR&gt;
      ST-22&lt;BR&gt;
      -&lt;BR&gt;
      -&lt;BR&gt;&lt;/FONT&gt;
    &lt;/TD&gt;
    &lt;TD BGCOLOR="#cccccc" ALIGN=CENTER&gt;&lt;FONT FACE=ARIAL SIZE=3&gt;
      ST-4B&lt;BR&gt;
      ST-4A&lt;BR&gt;
      -&lt;BR&gt;
      -&lt;BR&gt;
      -&lt;BR&gt;
      ST-3B&lt;BR&gt;
      ST-3A&lt;BR&gt;&lt;/FONT&gt;
    &lt;/TD&gt;
    &lt;TD BGCOLOR="#cccccc" ALIGN=CENTER&gt;&lt;FONT FACE=ARIAL SIZE=3&gt;
      -&lt;BR&gt;
      EVM-6YS&lt;BR&gt;
      EVM-1E&lt;BR&gt;
      EVM-1G&lt;BR&gt;
      EVM-1D&lt;BR&gt;
      -&lt;BR&gt;
      -&lt;BR&gt;&lt;/FONT&gt;
    &lt;/TD&gt;
    &lt;TD BGCOLOR="#cccccc" ALIGN=CENTER&gt;&lt;FONT FACE=ARIAL SIZE=3&gt;
      G4B&lt;BR&gt;
      G4A&lt;BR&gt;
      TR04-3S1&lt;BR&gt;
      TRG04-2S1&lt;BR&gt;
      -&lt;BR&gt;
      -&lt;BR&gt;
      -&lt;BR&gt;&lt;/FONT&gt;
    &lt;/TD&gt;
    &lt;TD BGCOLOR="#cccccc" ALIGN=CENTER&gt;&lt;FONT FACE=ARIAL SIZE=3&gt;
      -&lt;BR&gt;
      -&lt;BR&gt;
      DVR-43A&lt;BR&gt;
      CVR-42C&lt;BR&gt;
      CVR-42A/C&lt;BR&gt;
      -&lt;BR&gt;
      -&lt;BR&gt;&lt;/FONT&gt;
    &lt;/TD&gt;
  &lt;/TR&gt;
&lt;/TABLE&gt;
&lt;P&gt;
&lt;FONT SIZE=4 FACE=ARIAL&gt;&lt;B&gt;ALT =&amp;nbsp;ALTERNATE&lt;/B&gt;&lt;/FONT&gt;
&lt;P&gt;

&amp;nbsp;
&lt;P&gt;
&lt;/td&gt;
&lt;/tr&gt;
&lt;/table&gt;</description>
<packages>
<package name="C1206">
<description>&lt;b&gt;CAPACITOR&lt;/b&gt;</description>
<wire x1="-2.473" y1="0.983" x2="2.473" y2="0.983" width="0.0508" layer="39"/>
<wire x1="2.473" y1="-0.983" x2="-2.473" y2="-0.983" width="0.0508" layer="39"/>
<wire x1="-2.473" y1="-0.983" x2="-2.473" y2="0.983" width="0.0508" layer="39"/>
<wire x1="2.473" y1="0.983" x2="2.473" y2="-0.983" width="0.0508" layer="39"/>
<wire x1="-0.965" y1="0.787" x2="0.965" y2="0.787" width="0.1016" layer="51"/>
<wire x1="-0.965" y1="-0.787" x2="0.965" y2="-0.787" width="0.1016" layer="51"/>
<smd name="1" x="-1.4" y="0" dx="1.6" dy="1.8" layer="1"/>
<smd name="2" x="1.4" y="0" dx="1.6" dy="1.8" layer="1"/>
<text x="-1.27" y="1.27" size="1.27" layer="25">&gt;NAME</text>
<text x="-1.27" y="-2.54" size="1.27" layer="27">&gt;VALUE</text>
<rectangle x1="-1.7018" y1="-0.8509" x2="-0.9517" y2="0.8491" layer="51"/>
<rectangle x1="0.9517" y1="-0.8491" x2="1.7018" y2="0.8509" layer="51"/>
<rectangle x1="-0.1999" y1="-0.4001" x2="0.1999" y2="0.4001" layer="35"/>
</package>
<package name="R1206">
<description>&lt;b&gt;RESISTOR&lt;/b&gt;</description>
<wire x1="0.9525" y1="-0.8128" x2="-0.9652" y2="-0.8128" width="0.1524" layer="51"/>
<wire x1="0.9525" y1="0.8128" x2="-0.9652" y2="0.8128" width="0.1524" layer="51"/>
<wire x1="-2.473" y1="0.983" x2="2.473" y2="0.983" width="0.0508" layer="39"/>
<wire x1="2.473" y1="0.983" x2="2.473" y2="-0.983" width="0.0508" layer="39"/>
<wire x1="2.473" y1="-0.983" x2="-2.473" y2="-0.983" width="0.0508" layer="39"/>
<wire x1="-2.473" y1="-0.983" x2="-2.473" y2="0.983" width="0.0508" layer="39"/>
<smd name="2" x="1.422" y="0" dx="1.6" dy="1.803" layer="1"/>
<smd name="1" x="-1.422" y="0" dx="1.6" dy="1.803" layer="1"/>
<text x="-1.27" y="1.27" size="1.27" layer="25">&gt;NAME</text>
<text x="-1.27" y="-2.54" size="1.27" layer="27">&gt;VALUE</text>
<rectangle x1="-1.6891" y1="-0.8763" x2="-0.9525" y2="0.8763" layer="51"/>
<rectangle x1="0.9525" y1="-0.8763" x2="1.6891" y2="0.8763" layer="51"/>
<rectangle x1="-0.3" y1="-0.7" x2="0.3" y2="0.7" layer="35"/>
</package>
<package name="A/3216-18W">
<description>&lt;b&gt;Chip Capacitor Type KEMET A / EIA 3216-18 Wave solder&lt;/b&gt;&lt;p&gt;
KEMET S / EIA 3216-12</description>
<wire x1="-1.45" y1="0.6" x2="1.45" y2="0.6" width="0.1016" layer="51"/>
<wire x1="1.45" y1="0.6" x2="1.45" y2="-0.6" width="0.1016" layer="51"/>
<wire x1="1.45" y1="-0.6" x2="-1.45" y2="-0.6" width="0.1016" layer="51"/>
<wire x1="-1.45" y1="-0.6" x2="-1.45" y2="0.6" width="0.1016" layer="51"/>
<smd name="+" x="1.475" y="0" dx="2.15" dy="1.8" layer="1"/>
<smd name="-" x="-1.475" y="0" dx="2.15" dy="1.8" layer="1"/>
<text x="-1.95" y="1" size="1.27" layer="25">&gt;NAME</text>
<text x="-1.95" y="-2.325" size="1.27" layer="27">&gt;VALUE</text>
<rectangle x1="-1.6" y1="-0.6" x2="-1.475" y2="0.6" layer="51"/>
<rectangle x1="1.475" y1="-0.6" x2="1.6" y2="0.6" layer="51"/>
<rectangle x1="0.8" y1="-0.625" x2="1.1" y2="0.625" layer="51"/>
</package>
<package name="C0805">
<description>&lt;b&gt;CAPACITOR&lt;/b&gt;&lt;p&gt;</description>
<wire x1="-1.973" y1="0.983" x2="1.973" y2="0.983" width="0.0508" layer="39"/>
<wire x1="1.973" y1="-0.983" x2="-1.973" y2="-0.983" width="0.0508" layer="39"/>
<wire x1="-1.973" y1="-0.983" x2="-1.973" y2="0.983" width="0.0508" layer="39"/>
<wire x1="-0.381" y1="0.66" x2="0.381" y2="0.66" width="0.1016" layer="51"/>
<wire x1="-0.356" y1="-0.66" x2="0.381" y2="-0.66" width="0.1016" layer="51"/>
<wire x1="1.973" y1="0.983" x2="1.973" y2="-0.983" width="0.0508" layer="39"/>
<smd name="1" x="-0.95" y="0" dx="1.3" dy="1.5" layer="1"/>
<smd name="2" x="0.95" y="0" dx="1.3" dy="1.5" layer="1"/>
<text x="-1.27" y="1.27" size="1.27" layer="25">&gt;NAME</text>
<text x="-1.27" y="-2.54" size="1.27" layer="27">&gt;VALUE</text>
<rectangle x1="-1.0922" y1="-0.7239" x2="-0.3421" y2="0.7262" layer="51"/>
<rectangle x1="0.3556" y1="-0.7239" x2="1.1057" y2="0.7262" layer="51"/>
<rectangle x1="-0.1001" y1="-0.4001" x2="0.1001" y2="0.4001" layer="35"/>
</package>
<package name="R0805">
<description>&lt;b&gt;RESISTOR&lt;/b&gt;&lt;p&gt;</description>
<wire x1="-0.41" y1="0.635" x2="0.41" y2="0.635" width="0.1524" layer="51"/>
<wire x1="-0.41" y1="-0.635" x2="0.41" y2="-0.635" width="0.1524" layer="51"/>
<wire x1="-1.973" y1="0.983" x2="1.973" y2="0.983" width="0.0508" layer="39"/>
<wire x1="1.973" y1="0.983" x2="1.973" y2="-0.983" width="0.0508" layer="39"/>
<wire x1="1.973" y1="-0.983" x2="-1.973" y2="-0.983" width="0.0508" layer="39"/>
<wire x1="-1.973" y1="-0.983" x2="-1.973" y2="0.983" width="0.0508" layer="39"/>
<smd name="1" x="-0.95" y="0" dx="1.3" dy="1.5" layer="1"/>
<smd name="2" x="0.95" y="0" dx="1.3" dy="1.5" layer="1"/>
<text x="-0.635" y="1.27" size="1.27" layer="25">&gt;NAME</text>
<text x="-0.635" y="-2.54" size="1.27" layer="27">&gt;VALUE</text>
<rectangle x1="0.4064" y1="-0.6985" x2="1.0564" y2="0.7015" layer="51"/>
<rectangle x1="-1.0668" y1="-0.6985" x2="-0.4168" y2="0.7015" layer="51"/>
<rectangle x1="-0.1999" y1="-0.5001" x2="0.1999" y2="0.5001" layer="35"/>
</package>
</packages>
</library>
<library name="pinhead">
<description>&lt;b&gt;Pin Header Connectors&lt;/b&gt;&lt;p&gt;
&lt;author&gt;Created by librarian@cadsoft.de&lt;/author&gt;</description>
<packages>
<package name="1X03">
<description>&lt;b&gt;PIN HEADER&lt;/b&gt;</description>
<wire x1="-3.175" y1="1.27" x2="-1.905" y2="1.27" width="0.1524" layer="21"/>
<wire x1="-1.905" y1="1.27" x2="-1.27" y2="0.635" width="0.1524" layer="21"/>
<wire x1="-1.27" y1="0.635" x2="-1.27" y2="-0.635" width="0.1524" layer="21"/>
<wire x1="-1.27" y1="-0.635" x2="-1.905" y2="-1.27" width="0.1524" layer="21"/>
<wire x1="-1.27" y1="0.635" x2="-0.635" y2="1.27" width="0.1524" layer="21"/>
<wire x1="-0.635" y1="1.27" x2="0.635" y2="1.27" width="0.1524" layer="21"/>
<wire x1="0.635" y1="1.27" x2="1.27" y2="0.635" width="0.1524" layer="21"/>
<wire x1="1.27" y1="0.635" x2="1.27" y2="-0.635" width="0.1524" layer="21"/>
<wire x1="1.27" y1="-0.635" x2="0.635" y2="-1.27" width="0.1524" layer="21"/>
<wire x1="0.635" y1="-1.27" x2="-0.635" y2="-1.27" width="0.1524" layer="21"/>
<wire x1="-0.635" y1="-1.27" x2="-1.27" y2="-0.635" width="0.1524" layer="21"/>
<wire x1="-3.81" y1="0.635" x2="-3.81" y2="-0.635" width="0.1524" layer="21"/>
<wire x1="-3.175" y1="1.27" x2="-3.81" y2="0.635" width="0.1524" layer="21"/>
<wire x1="-3.81" y1="-0.635" x2="-3.175" y2="-1.27" width="0.1524" layer="21"/>
<wire x1="-1.905" y1="-1.27" x2="-3.175" y2="-1.27" width="0.1524" layer="21"/>
<wire x1="1.27" y1="0.635" x2="1.905" y2="1.27" width="0.1524" layer="21"/>
<wire x1="1.905" y1="1.27" x2="3.175" y2="1.27" width="0.1524" layer="21"/>
<wire x1="3.175" y1="1.27" x2="3.81" y2="0.635" width="0.1524" layer="21"/>
<wire x1="3.81" y1="0.635" x2="3.81" y2="-0.635" width="0.1524" layer="21"/>
<wire x1="3.81" y1="-0.635" x2="3.175" y2="-1.27" width="0.1524" layer="21"/>
<wire x1="3.175" y1="-1.27" x2="1.905" y2="-1.27" width="0.1524" layer="21"/>
<wire x1="1.905" y1="-1.27" x2="1.27" y2="-0.635" width="0.1524" layer="21"/>
<pad name="1" x="-2.54" y="0" drill="1.016" shape="long" rot="R90"/>
<pad name="2" x="0" y="0" drill="1.016" shape="long" rot="R90"/>
<pad name="3" x="2.54" y="0" drill="1.016" shape="long" rot="R90"/>
<text x="-3.8862" y="1.8288" size="1.27" layer="25" ratio="10">&gt;NAME</text>
<text x="-3.81" y="-3.175" size="1.27" layer="27">&gt;VALUE</text>
<rectangle x1="-0.254" y1="-0.254" x2="0.254" y2="0.254" layer="51"/>
<rectangle x1="-2.794" y1="-0.254" x2="-2.286" y2="0.254" layer="51"/>
<rectangle x1="2.286" y1="-0.254" x2="2.794" y2="0.254" layer="51"/>
</package>
<package name="1X04">
<description>&lt;b&gt;PIN HEADER&lt;/b&gt;</description>
<wire x1="0" y1="0.635" x2="0.635" y2="1.27" width="0.1524" layer="21"/>
<wire x1="0.635" y1="1.27" x2="1.905" y2="1.27" width="0.1524" layer="21"/>
<wire x1="1.905" y1="1.27" x2="2.54" y2="0.635" width="0.1524" layer="21"/>
<wire x1="2.54" y1="0.635" x2="2.54" y2="-0.635" width="0.1524" layer="21"/>
<wire x1="2.54" y1="-0.635" x2="1.905" y2="-1.27" width="0.1524" layer="21"/>
<wire x1="1.905" y1="-1.27" x2="0.635" y2="-1.27" width="0.1524" layer="21"/>
<wire x1="0.635" y1="-1.27" x2="0" y2="-0.635" width="0.1524" layer="21"/>
<wire x1="-4.445" y1="1.27" x2="-3.175" y2="1.27" width="0.1524" layer="21"/>
<wire x1="-3.175" y1="1.27" x2="-2.54" y2="0.635" width="0.1524" layer="21"/>
<wire x1="-2.54" y1="0.635" x2="-2.54" y2="-0.635" width="0.1524" layer="21"/>
<wire x1="-2.54" y1="-0.635" x2="-3.175" y2="-1.27" width="0.1524" layer="21"/>
<wire x1="-2.54" y1="0.635" x2="-1.905" y2="1.27" width="0.1524" layer="21"/>
<wire x1="-1.905" y1="1.27" x2="-0.635" y2="1.27" width="0.1524" layer="21"/>
<wire x1="-0.635" y1="1.27" x2="0" y2="0.635" width="0.1524" layer="21"/>
<wire x1="0" y1="0.635" x2="0" y2="-0.635" width="0.1524" layer="21"/>
<wire x1="0" y1="-0.635" x2="-0.635" y2="-1.27" width="0.1524" layer="21"/>
<wire x1="-0.635" y1="-1.27" x2="-1.905" y2="-1.27" width="0.1524" layer="21"/>
<wire x1="-1.905" y1="-1.27" x2="-2.54" y2="-0.635" width="0.1524" layer="21"/>
<wire x1="-5.08" y1="0.635" x2="-5.08" y2="-0.635" width="0.1524" layer="21"/>
<wire x1="-4.445" y1="1.27" x2="-5.08" y2="0.635" width="0.1524" layer="21"/>
<wire x1="-5.08" y1="-0.635" x2="-4.445" y2="-1.27" width="0.1524" layer="21"/>
<wire x1="-3.175" y1="-1.27" x2="-4.445" y2="-1.27" width="0.1524" layer="21"/>
<wire x1="3.175" y1="1.27" x2="4.445" y2="1.27" width="0.1524" layer="21"/>
<wire x1="4.445" y1="1.27" x2="5.08" y2="0.635" width="0.1524" layer="21"/>
<wire x1="5.08" y1="0.635" x2="5.08" y2="-0.635" width="0.1524" layer="21"/>
<wire x1="5.08" y1="-0.635" x2="4.445" y2="-1.27" width="0.1524" layer="21"/>
<wire x1="3.175" y1="1.27" x2="2.54" y2="0.635" width="0.1524" layer="21"/>
<wire x1="2.54" y1="-0.635" x2="3.175" y2="-1.27" width="0.1524" layer="21"/>
<wire x1="4.445" y1="-1.27" x2="3.175" y2="-1.27" width="0.1524" layer="21"/>
<pad name="1" x="-3.81" y="0" drill="1.016" shape="long" rot="R90"/>
<pad name="2" x="-1.27" y="0" drill="1.016" shape="long" rot="R90"/>
<pad name="3" x="1.27" y="0" drill="1.016" shape="long" rot="R90"/>
<pad name="4" x="3.81" y="0" drill="1.016" shape="long" rot="R90"/>
<text x="-5.1562" y="1.8288" size="1.27" layer="25" ratio="10">&gt;NAME</text>
<text x="-5.08" y="-3.175" size="1.27" layer="27">&gt;VALUE</text>
<rectangle x1="1.016" y1="-0.254" x2="1.524" y2="0.254" layer="51"/>
<rectangle x1="-1.524" y1="-0.254" x2="-1.016" y2="0.254" layer="51"/>
<rectangle x1="-4.064" y1="-0.254" x2="-3.556" y2="0.254" layer="51"/>
<rectangle x1="3.556" y1="-0.254" x2="4.064" y2="0.254" layer="51"/>
</package>
<package name="1X05">
<description>&lt;b&gt;PIN HEADER&lt;/b&gt;</description>
<wire x1="1.905" y1="1.27" x2="3.175" y2="1.27" width="0.1524" layer="21"/>
<wire x1="3.175" y1="1.27" x2="3.81" y2="0.635" width="0.1524" layer="21"/>
<wire x1="3.81" y1="0.635" x2="3.81" y2="-0.635" width="0.1524" layer="21"/>
<wire x1="3.81" y1="-0.635" x2="3.175" y2="-1.27" width="0.1524" layer="21"/>
<wire x1="-1.27" y1="0.635" x2="-0.635" y2="1.27" width="0.1524" layer="21"/>
<wire x1="-0.635" y1="1.27" x2="0.635" y2="1.27" width="0.1524" layer="21"/>
<wire x1="0.635" y1="1.27" x2="1.27" y2="0.635" width="0.1524" layer="21"/>
<wire x1="1.27" y1="0.635" x2="1.27" y2="-0.635" width="0.1524" layer="21"/>
<wire x1="1.27" y1="-0.635" x2="0.635" y2="-1.27" width="0.1524" layer="21"/>
<wire x1="0.635" y1="-1.27" x2="-0.635" y2="-1.27" width="0.1524" layer="21"/>
<wire x1="-0.635" y1="-1.27" x2="-1.27" y2="-0.635" width="0.1524" layer="21"/>
<wire x1="1.905" y1="1.27" x2="1.27" y2="0.635" width="0.1524" layer="21"/>
<wire x1="1.27" y1="-0.635" x2="1.905" y2="-1.27" width="0.1524" layer="21"/>
<wire x1="3.175" y1="-1.27" x2="1.905" y2="-1.27" width="0.1524" layer="21"/>
<wire x1="-5.715" y1="1.27" x2="-4.445" y2="1.27" width="0.1524" layer="21"/>
<wire x1="-4.445" y1="1.27" x2="-3.81" y2="0.635" width="0.1524" layer="21"/>
<wire x1="-3.81" y1="0.635" x2="-3.81" y2="-0.635" width="0.1524" layer="21"/>
<wire x1="-3.81" y1="-0.635" x2="-4.445" y2="-1.27" width="0.1524" layer="21"/>
<wire x1="-3.81" y1="0.635" x2="-3.175" y2="1.27" width="0.1524" layer="21"/>
<wire x1="-3.175" y1="1.27" x2="-1.905" y2="1.27" width="0.1524" layer="21"/>
<wire x1="-1.905" y1="1.27" x2="-1.27" y2="0.635" width="0.1524" layer="21"/>
<wire x1="-1.27" y1="0.635" x2="-1.27" y2="-0.635" width="0.1524" layer="21"/>
<wire x1="-1.27" y1="-0.635" x2="-1.905" y2="-1.27" width="0.1524" layer="21"/>
<wire x1="-1.905" y1="-1.27" x2="-3.175" y2="-1.27" width="0.1524" layer="21"/>
<wire x1="-3.175" y1="-1.27" x2="-3.81" y2="-0.635" width="0.1524" layer="21"/>
<wire x1="-6.35" y1="0.635" x2="-6.35" y2="-0.635" width="0.1524" layer="21"/>
<wire x1="-5.715" y1="1.27" x2="-6.35" y2="0.635" width="0.1524" layer="21"/>
<wire x1="-6.35" y1="-0.635" x2="-5.715" y2="-1.27" width="0.1524" layer="21"/>
<wire x1="-4.445" y1="-1.27" x2="-5.715" y2="-1.27" width="0.1524" layer="21"/>
<wire x1="4.445" y1="1.27" x2="5.715" y2="1.27" width="0.1524" layer="21"/>
<wire x1="5.715" y1="1.27" x2="6.35" y2="0.635" width="0.1524" layer="21"/>
<wire x1="6.35" y1="0.635" x2="6.35" y2="-0.635" width="0.1524" layer="21"/>
<wire x1="6.35" y1="-0.635" x2="5.715" y2="-1.27" width="0.1524" layer="21"/>
<wire x1="4.445" y1="1.27" x2="3.81" y2="0.635" width="0.1524" layer="21"/>
<wire x1="3.81" y1="-0.635" x2="4.445" y2="-1.27" width="0.1524" layer="21"/>
<wire x1="5.715" y1="-1.27" x2="4.445" y2="-1.27" width="0.1524" layer="21"/>
<pad name="1" x="-5.08" y="0" drill="1.016" shape="long" rot="R90"/>
<pad name="2" x="-2.54" y="0" drill="1.016" shape="long" rot="R90"/>
<pad name="3" x="0" y="0" drill="1.016" shape="long" rot="R90"/>
<pad name="4" x="2.54" y="0" drill="1.016" shape="long" rot="R90"/>
<pad name="5" x="5.08" y="0" drill="1.016" shape="long" rot="R90"/>
<text x="-6.4262" y="1.8288" size="1.27" layer="25" ratio="10">&gt;NAME</text>
<text x="-6.35" y="-3.175" size="1.27" layer="27">&gt;VALUE</text>
<rectangle x1="2.286" y1="-0.254" x2="2.794" y2="0.254" layer="51"/>
<rectangle x1="-0.254" y1="-0.254" x2="0.254" y2="0.254" layer="51"/>
<rectangle x1="-2.794" y1="-0.254" x2="-2.286" y2="0.254" layer="51"/>
<rectangle x1="-5.334" y1="-0.254" x2="-4.826" y2="0.254" layer="51"/>
<rectangle x1="4.826" y1="-0.254" x2="5.334" y2="0.254" layer="51"/>
</package>
<package name="1X02">
<description>&lt;b&gt;PIN HEADER&lt;/b&gt;</description>
<wire x1="-1.905" y1="1.27" x2="-0.635" y2="1.27" width="0.1524" layer="21"/>
<wire x1="-0.635" y1="1.27" x2="0" y2="0.635" width="0.1524" layer="21"/>
<wire x1="0" y1="0.635" x2="0" y2="-0.635" width="0.1524" layer="21"/>
<wire x1="0" y1="-0.635" x2="-0.635" y2="-1.27" width="0.1524" layer="21"/>
<wire x1="-2.54" y1="0.635" x2="-2.54" y2="-0.635" width="0.1524" layer="21"/>
<wire x1="-1.905" y1="1.27" x2="-2.54" y2="0.635" width="0.1524" layer="21"/>
<wire x1="-2.54" y1="-0.635" x2="-1.905" y2="-1.27" width="0.1524" layer="21"/>
<wire x1="-0.635" y1="-1.27" x2="-1.905" y2="-1.27" width="0.1524" layer="21"/>
<wire x1="0" y1="0.635" x2="0.635" y2="1.27" width="0.1524" layer="21"/>
<wire x1="0.635" y1="1.27" x2="1.905" y2="1.27" width="0.1524" layer="21"/>
<wire x1="1.905" y1="1.27" x2="2.54" y2="0.635" width="0.1524" layer="21"/>
<wire x1="2.54" y1="0.635" x2="2.54" y2="-0.635" width="0.1524" layer="21"/>
<wire x1="2.54" y1="-0.635" x2="1.905" y2="-1.27" width="0.1524" layer="21"/>
<wire x1="1.905" y1="-1.27" x2="0.635" y2="-1.27" width="0.1524" layer="21"/>
<wire x1="0.635" y1="-1.27" x2="0" y2="-0.635" width="0.1524" layer="21"/>
<pad name="1" x="-1.27" y="0" drill="1.016" shape="long" rot="R90"/>
<pad name="2" x="1.27" y="0" drill="1.016" shape="long" rot="R90"/>
<text x="-2.6162" y="1.8288" size="1.27" layer="25" ratio="10">&gt;NAME</text>
<text x="-2.54" y="-3.175" size="1.27" layer="27">&gt;VALUE</text>
<rectangle x1="-1.524" y1="-0.254" x2="-1.016" y2="0.254" layer="51"/>
<rectangle x1="1.016" y1="-0.254" x2="1.524" y2="0.254" layer="51"/>
</package>
</packages>
</library>
<library name="pot">
<description>&lt;b&gt;Potentiometers&lt;/b&gt;&lt;p&gt;
Beckman, Copal, Piher, Spectrol, Schukat&lt;p&gt;
&lt;author&gt;Created by librarian@cadsoft.de&lt;/author&gt;</description>
<packages>
<package name="CA6V">
<description>&lt;b&gt;POTENTIOMETER&lt;/b&gt;&lt;p&gt;
distributor Schukat</description>
<wire x1="-0.254" y1="0.254" x2="-0.254" y2="0.889" width="0.1524" layer="21"/>
<wire x1="-0.254" y1="0.889" x2="0.254" y2="0.889" width="0.1524" layer="21"/>
<wire x1="0.254" y1="0.889" x2="0.254" y2="0.254" width="0.1524" layer="21"/>
<wire x1="0.254" y1="0.254" x2="0.889" y2="0.254" width="0.1524" layer="21"/>
<wire x1="0.889" y1="0.254" x2="0.889" y2="-0.254" width="0.1524" layer="21"/>
<wire x1="0.889" y1="-0.254" x2="0.254" y2="-0.254" width="0.1524" layer="21"/>
<wire x1="0.254" y1="-0.254" x2="0.254" y2="-0.889" width="0.1524" layer="21"/>
<wire x1="0.254" y1="-0.889" x2="-0.254" y2="-0.889" width="0.1524" layer="21"/>
<wire x1="-0.254" y1="-0.889" x2="-0.254" y2="-0.254" width="0.1524" layer="21"/>
<wire x1="-0.254" y1="-0.254" x2="-0.889" y2="-0.254" width="0.1524" layer="21"/>
<wire x1="-0.889" y1="-0.254" x2="-0.889" y2="0.254" width="0.1524" layer="21"/>
<wire x1="-0.889" y1="0.254" x2="-0.254" y2="0.254" width="0.1524" layer="21"/>
<wire x1="0.889" y1="3.81" x2="-0.889" y2="3.81" width="0.1524" layer="51"/>
<wire x1="3.429" y1="3.81" x2="0.889" y2="3.81" width="0.1524" layer="21"/>
<wire x1="-0.889" y1="-0.889" x2="-1.397" y2="-1.397" width="0.1524" layer="21"/>
<wire x1="0.889" y1="-0.889" x2="1.397" y2="-1.397" width="0.1524" layer="21"/>
<wire x1="-1.905" y1="0" x2="-1.397" y2="0" width="0.1524" layer="21"/>
<wire x1="1.397" y1="0" x2="1.905" y2="0" width="0.1524" layer="21"/>
<wire x1="-1.016" y1="1.016" x2="-1.27" y2="1.27" width="0.1524" layer="21"/>
<wire x1="1.016" y1="1.016" x2="1.27" y2="1.27" width="0.1524" layer="21"/>
<wire x1="0" y1="1.397" x2="0" y2="1.905" width="0.1524" layer="51"/>
<wire x1="3.429" y1="-3.81" x2="1.651" y2="-3.81" width="0.1524" layer="51"/>
<wire x1="1.651" y1="-3.81" x2="-1.651" y2="-3.81" width="0.1524" layer="21"/>
<wire x1="-1.651" y1="-3.81" x2="-3.429" y2="-3.81" width="0.1524" layer="51"/>
<wire x1="3.429" y1="-3.81" x2="3.81" y2="-3.429" width="0.1524" layer="21" curve="90"/>
<wire x1="3.429" y1="3.81" x2="3.81" y2="3.429" width="0.1524" layer="21" curve="-90"/>
<wire x1="-3.81" y1="3.429" x2="-3.429" y2="3.81" width="0.1524" layer="21" curve="-90"/>
<wire x1="-3.81" y1="-3.429" x2="-3.429" y2="-3.81" width="0.1524" layer="21" curve="90"/>
<wire x1="3.81" y1="-1.524" x2="3.81" y2="-3.429" width="0.1524" layer="51"/>
<wire x1="-3.429" y1="3.81" x2="-0.889" y2="3.81" width="0.1524" layer="21"/>
<wire x1="-3.81" y1="-3.429" x2="-3.81" y2="-1.524" width="0.1524" layer="51"/>
<wire x1="3.81" y1="-1.524" x2="3.81" y2="3.429" width="0.1524" layer="21"/>
<wire x1="-3.81" y1="3.429" x2="-3.81" y2="-1.524" width="0.1524" layer="21"/>
<circle x="0" y="0" radius="2.032" width="0.1524" layer="51"/>
<circle x="0" y="0" radius="1.27" width="0.1524" layer="51"/>
<pad name="S" x="0" y="2.54" drill="1.016" shape="long"/>
<pad name="A" x="-2.54" y="-2.54" drill="1.016" shape="long" rot="R90"/>
<pad name="E" x="2.54" y="-2.54" drill="1.016" shape="long" rot="R90"/>
<text x="-2.54" y="4.191" size="1.27" layer="25" ratio="10">&gt;NAME</text>
<text x="-3.81" y="-5.461" size="1.27" layer="27" ratio="10">&gt;VALUE</text>
<rectangle x1="0.508" y1="-3.048" x2="3.683" y2="-2.032" layer="51"/>
<rectangle x1="2.159" y1="-2.667" x2="3.683" y2="0" layer="51"/>
<rectangle x1="-3.683" y1="-2.667" x2="-2.159" y2="0" layer="51"/>
<rectangle x1="-3.683" y1="-3.048" x2="-0.508" y2="-2.032" layer="51"/>
<rectangle x1="1.905" y1="-3.81" x2="3.175" y2="-3.048" layer="51"/>
<rectangle x1="-3.175" y1="-3.81" x2="-1.905" y2="-3.048" layer="51"/>
</package>
</packages>
</library>
</libraries>
<attributes>
</attributes>
<variantdefs>
</variantdefs>
<classes>
<class number="0" name="default" width="0" drill="0">
</class>
</classes>
<designrules name="default">
<description language="de">&lt;b&gt;EAGLE Design Rules&lt;/b&gt;
&lt;p&gt;
Die Standard-Design-Rules sind so gewählt, dass sie für 
die meisten Anwendungen passen. Sollte ihre Platine 
besondere Anforderungen haben, treffen Sie die erforderlichen
Einstellungen hier und speichern die Design Rules unter 
einem neuen Namen ab.</description>
<description language="en">&lt;b&gt;EAGLE Design Rules&lt;/b&gt;
&lt;p&gt;
The default Design Rules have been set to cover
a wide range of applications. Your particular design
may have different requirements, so please make the
necessary adjustments and save your customized
design rules under a new name.</description>
<param name="layerSetup" value="(1*16)"/>
<param name="mtCopper" value="0.035mm 0.035mm 0.035mm 0.035mm 0.035mm 0.035mm 0.035mm 0.035mm 0.035mm 0.035mm 0.035mm 0.035mm 0.035mm 0.035mm 0.035mm 0.035mm"/>
<param name="mtIsolate" value="1.5mm 0.15mm 0.2mm 0.15mm 0.2mm 0.15mm 0.2mm 0.15mm 0.2mm 0.15mm 0.2mm 0.15mm 0.2mm 0.15mm 0.2mm"/>
<param name="mdWireWire" value="10mil"/>
<param name="mdWirePad" value="10mil"/>
<param name="mdWireVia" value="10mil"/>
<param name="mdPadPad" value="10mil"/>
<param name="mdPadVia" value="10mil"/>
<param name="mdViaVia" value="10mil"/>
<param name="mdSmdPad" value="8mil"/>
<param name="mdSmdVia" value="8mil"/>
<param name="mdSmdSmd" value="8mil"/>
<param name="mdViaViaSameLayer" value="8mil"/>
<param name="mnLayersViaInSmd" value="2"/>
<param name="mdCopperDimension" value="20mil"/>
<param name="mdDrill" value="8mil"/>
<param name="mdSmdStop" value="0mil"/>
<param name="msWidth" value="10mil"/>
<param name="msDrill" value="24mil"/>
<param name="msMicroVia" value="9.99mm"/>
<param name="msBlindViaRatio" value="0.5"/>
<param name="rvPadTop" value="0.25"/>
<param name="rvPadInner" value="0.25"/>
<param name="rvPadBottom" value="0.25"/>
<param name="rvViaOuter" value="0.25"/>
<param name="rvViaInner" value="0.25"/>
<param name="rvMicroViaOuter" value="0.25"/>
<param name="rvMicroViaInner" value="0.25"/>
<param name="rlMinPadTop" value="10mil"/>
<param name="rlMaxPadTop" value="20mil"/>
<param name="rlMinPadInner" value="10mil"/>
<param name="rlMaxPadInner" value="20mil"/>
<param name="rlMinPadBottom" value="10mil"/>
<param name="rlMaxPadBottom" value="20mil"/>
<param name="rlMinViaOuter" value="8mil"/>
<param name="rlMaxViaOuter" value="20mil"/>
<param name="rlMinViaInner" value="8mil"/>
<param name="rlMaxViaInner" value="20mil"/>
<param name="rlMinMicroViaOuter" value="4mil"/>
<param name="rlMaxMicroViaOuter" value="20mil"/>
<param name="rlMinMicroViaInner" value="4mil"/>
<param name="rlMaxMicroViaInner" value="20mil"/>
<param name="psTop" value="-1"/>
<param name="psBottom" value="-1"/>
<param name="psFirst" value="-1"/>
<param name="psElongationLong" value="100"/>
<param name="psElongationOffset" value="100"/>
<param name="mvStopFrame" value="1"/>
<param name="mvCreamFrame" value="0"/>
<param name="mlMinStopFrame" value="4mil"/>
<param name="mlMaxStopFrame" value="4mil"/>
<param name="mlMinCreamFrame" value="0mil"/>
<param name="mlMaxCreamFrame" value="0mil"/>
<param name="mlViaStopLimit" value="0mil"/>
<param name="srRoundness" value="0"/>
<param name="srMinRoundness" value="0mil"/>
<param name="srMaxRoundness" value="0mil"/>
<param name="slThermalIsolate" value="10mil"/>
<param name="slThermalsForVias" value="0"/>
<param name="dpMaxLengthDifference" value="10mm"/>
<param name="dpGapFactor" value="2.5"/>
<param name="checkGrid" value="0"/>
<param name="checkAngle" value="0"/>
<param name="checkFont" value="1"/>
<param name="checkRestrict" value="1"/>
<param name="useDiameter" value="13"/>
<param name="maxErrors" value="50"/>
</designrules>
<autorouter>
<pass name="Default">
<param name="RoutingGrid" value="50mil"/>
<param name="tpViaShape" value="round"/>
<param name="PrefDir.1" value="|"/>
<param name="PrefDir.2" value="0"/>
<param name="PrefDir.3" value="0"/>
<param name="PrefDir.4" value="0"/>
<param name="PrefDir.5" value="0"/>
<param name="PrefDir.6" value="0"/>
<param name="PrefDir.7" value="0"/>
<param name="PrefDir.8" value="0"/>
<param name="PrefDir.9" value="0"/>
<param name="PrefDir.10" value="0"/>
<param name="PrefDir.11" value="0"/>
<param name="PrefDir.12" value="0"/>
<param name="PrefDir.13" value="0"/>
<param name="PrefDir.14" value="0"/>
<param name="PrefDir.15" value="0"/>
<param name="PrefDir.16" value="-"/>
<param name="cfVia" value="8"/>
<param name="cfNonPref" value="5"/>
<param name="cfChangeDir" value="2"/>
<param name="cfOrthStep" value="2"/>
<param name="cfDiagStep" value="3"/>
<param name="cfExtdStep" value="0"/>
<param name="cfBonusStep" value="1"/>
<param name="cfMalusStep" value="1"/>
<param name="cfPadImpact" value="4"/>
<param name="cfSmdImpact" value="4"/>
<param name="cfBusImpact" value="0"/>
<param name="cfHugging" value="3"/>
<param name="cfAvoid" value="4"/>
<param name="cfPolygon" value="10"/>
<param name="cfBase.1" value="0"/>
<param name="cfBase.2" value="1"/>
<param name="cfBase.3" value="1"/>
<param name="cfBase.4" value="1"/>
<param name="cfBase.5" value="1"/>
<param name="cfBase.6" value="1"/>
<param name="cfBase.7" value="1"/>
<param name="cfBase.8" value="1"/>
<param name="cfBase.9" value="1"/>
<param name="cfBase.10" value="1"/>
<param name="cfBase.11" value="1"/>
<param name="cfBase.12" value="1"/>
<param name="cfBase.13" value="1"/>
<param name="cfBase.14" value="1"/>
<param name="cfBase.15" value="1"/>
<param name="cfBase.16" value="0"/>
<param name="mnVias" value="20"/>
<param name="mnSegments" value="9999"/>
<param name="mnExtdSteps" value="9999"/>
<param name="mnRipupLevel" value="10"/>
<param name="mnRipupSteps" value="100"/>
<param name="mnRipupTotal" value="100"/>
</pass>
<pass name="Follow-me" refer="Default" active="yes">
</pass>
<pass name="Busses" refer="Default" active="yes">
<param name="cfNonPref" value="4"/>
<param name="cfBusImpact" value="4"/>
<param name="cfHugging" value="0"/>
<param name="mnVias" value="0"/>
</pass>
<pass name="Route" refer="Default" active="yes">
</pass>
<pass name="Optimize1" refer="Default" active="yes">
<param name="cfVia" value="99"/>
<param name="cfExtdStep" value="10"/>
<param name="cfHugging" value="1"/>
<param name="mnExtdSteps" value="1"/>
<param name="mnRipupLevel" value="0"/>
</pass>
<pass name="Optimize2" refer="Optimize1" active="yes">
<param name="cfNonPref" value="0"/>
<param name="cfChangeDir" value="6"/>
<param name="cfExtdStep" value="0"/>
<param name="cfBonusStep" value="2"/>
<param name="cfMalusStep" value="2"/>
<param name="cfPadImpact" value="2"/>
<param name="cfSmdImpact" value="2"/>
<param name="cfHugging" value="0"/>
</pass>
<pass name="Optimize3" refer="Optimize2" active="yes">
<param name="cfChangeDir" value="8"/>
<param name="cfPadImpact" value="0"/>
<param name="cfSmdImpact" value="0"/>
</pass>
<pass name="Optimize4" refer="Optimize3" active="yes">
<param name="cfChangeDir" value="25"/>
</pass>
</autorouter>
<elements>
<element name="U2" library="tomikaa" package="SO-14" value="PIC16F1825SL" x="20.32" y="24.765" rot="MR0"/>
<element name="C1" library="rcl" package="C1206" value="100n" x="27.305" y="24.765" rot="MR90"/>
<element name="JP1" library="pinhead" package="1X03" value="1WIRE" x="4.445" y="28.575" rot="R270"/>
<element name="JP2" library="pinhead" package="1X04" value="SENSOR" x="4.445" y="39.37" rot="R270"/>
<element name="R1" library="rcl" package="R1206" value="4k7" x="8.255" y="27.305" rot="MR90"/>
<element name="U1" library="tomikaa" package="SOIC127P600X175-16N" value="ADM232AARNZ" x="19.685" y="10.795" rot="MR90">
<attribute name="PACKAGE" value="SOIC-16" x="14.605" y="46.355" size="1.778" layer="28" rot="MR90" display="off"/>
<attribute name="OC_NEWARK" value="59K2026" x="14.605" y="46.355" size="1.778" layer="28" rot="MR90" display="off"/>
<attribute name="DESCRIPTION" value="RS-232 Drivers/Receivers" x="14.605" y="46.355" size="1.778" layer="28" rot="MR90" display="off"/>
<attribute name="MPN" value="ADM232AARNZ" x="14.605" y="46.355" size="1.778" layer="28" rot="MR90" display="off"/>
<attribute name="SUPPLIER" value="Analog Devices" x="14.605" y="46.355" size="1.778" layer="28" rot="MR90" display="off"/>
<attribute name="OC_FARNELL" value="1661059" x="14.605" y="46.355" size="1.778" layer="28" rot="MR90" display="off"/>
</element>
<element name="C2" library="rcl" package="C1206" value="100n" x="26.67" y="14.605" rot="MR90"/>
<element name="C3" library="rcl" package="C1206" value="100n" x="26.67" y="5.715" rot="MR90"/>
<element name="C4" library="rcl" package="C1206" value="100n" x="15.24" y="4.445" rot="MR180"/>
<element name="C5" library="rcl" package="C1206" value="100n" x="20.955" y="4.445" rot="MR0"/>
<element name="C6" library="rcl" package="C1206" value="100n" x="29.845" y="10.795" rot="MR270"/>
<element name="JP3" library="pinhead" package="1X05" value="ICSP" x="29.845" y="35.56" rot="R90"/>
<element name="JP4" library="pinhead" package="1X04" value="CTRLR" x="6.985" y="4.445"/>
<element name="C7" library="rcl" package="A/3216-18W" value="0.33u" x="3.81" y="10.16" rot="MR270"/>
<element name="C8" library="rcl" package="A/3216-18W" value="0.1u" x="3.81" y="17.78" rot="MR90"/>
<element name="U3" library="tomikaa" package="SOIC127P600X175-8N" value="UA78L05ACDG4" x="8.255" y="13.97" rot="MR270">
<attribute name="PACKAGE" value="SOIC-8" x="8.255" y="13.97" size="1.778" layer="28" rot="MR270" display="off"/>
<attribute name="OC_NEWARK" value="13M5625" x="8.255" y="13.97" size="1.778" layer="28" rot="MR270" display="off"/>
<attribute name="MPN" value="UA78L05ACDG4" x="8.255" y="13.97" size="1.778" layer="28" rot="MR270" display="off"/>
<attribute name="SUPPLIER" value="TI" x="8.255" y="13.97" size="1.778" layer="28" rot="MR270" display="off"/>
<attribute name="OC_FARNELL" value="1236589" x="8.255" y="13.97" size="1.778" layer="28" rot="MR270" display="off"/>
</element>
<element name="C9" library="rcl" package="C0805" value="330n" x="16.51" y="42.8625" rot="MR90"/>
<element name="R2" library="pot" package="CA6V" value="50k" x="19.05" y="36.195" rot="R180"/>
<element name="JP5" library="pinhead" package="1X02" value="WDM" x="20.32" y="43.815"/>
<element name="R3" library="rcl" package="R1206" value="4k7" x="9.525" y="38.1" rot="MR180"/>
<element name="R4" library="rcl" package="R1206" value="4k7" x="9.525" y="35.56" rot="MR180"/>
<element name="R5" library="rcl" package="R0805" value="100k" x="13.9065" y="42.8625" rot="MR270"/>
<element name="JP6" library="pinhead" package="1X03" value="WFS" x="33.02" y="17.78" rot="R90"/>
<element name="R6" library="rcl" package="R1206" value="10k" x="29.845" y="16.51" rot="MR270"/>
</elements>
<signals>
<signal name="VDD">
<contactref element="U2" pad="1"/>
<contactref element="C1" pad="1"/>
<contactref element="JP1" pad="3"/>
<contactref element="R1" pad="1"/>
<contactref element="JP2" pad="1"/>
<contactref element="C2" pad="1"/>
<contactref element="U1" pad="16"/>
<contactref element="C6" pad="1"/>
<contactref element="JP3" pad="2"/>
<contactref element="U3" pad="1"/>
<contactref element="C8" pad="+"/>
<wire x1="24.13" y1="16.21" x2="24.13" y2="13.2588" width="0.6096" layer="16"/>
<wire x1="24.13" y1="22.165" x2="24.13" y2="16.21" width="0.6096" layer="16"/>
<wire x1="24.13" y1="16.21" x2="22.225" y2="16.21" width="0.6096" layer="16"/>
<via x="22.225" y="16.21" extent="1-16" drill="1" diameter="1.4224" shape="square"/>
<wire x1="22.225" y1="16.21" x2="13.335" y2="16.21" width="0.6096" layer="1"/>
<via x="13.335" y="16.21" extent="1-16" drill="1" diameter="1.4224" shape="square"/>
<wire x1="24.13" y1="22.165" x2="26.105" y2="22.165" width="0.6096" layer="16"/>
<wire x1="26.105" y1="22.165" x2="27.305" y2="23.365" width="0.6096" layer="16"/>
<via x="8.255" y="43.18" extent="1-16" drill="1" shape="square"/>
<wire x1="8.255" y1="43.18" x2="8.255" y2="20.32" width="0.6096" layer="1"/>
<via x="8.255" y="20.32" extent="1-16" drill="1" shape="square"/>
<wire x1="8.407" y1="26.035" x2="8.255" y2="25.883" width="0.4064" layer="16"/>
<wire x1="26.67" y1="13.205" x2="24.1838" y2="13.205" width="0.6096" layer="16"/>
<wire x1="24.1838" y1="13.205" x2="24.13" y2="13.2588" width="0.4064" layer="16"/>
<wire x1="6.35" y1="16.5608" x2="6.35" y2="18.415" width="0.6096" layer="16"/>
<wire x1="6.35" y1="18.415" x2="5.715" y2="19.05" width="0.6096" layer="16"/>
<wire x1="5.715" y1="19.05" x2="4.015" y2="19.05" width="0.6096" layer="16"/>
<wire x1="4.015" y1="19.05" x2="3.81" y2="19.255" width="0.6096" layer="16"/>
<wire x1="8.255" y1="25.883" x2="8.255" y2="20.32" width="0.6096" layer="16"/>
<wire x1="4.445" y1="26.035" x2="8.103" y2="26.035" width="0.6096" layer="16"/>
<wire x1="8.103" y1="26.035" x2="8.255" y2="25.883" width="0.6096" layer="16"/>
<contactref element="R3" pad="2"/>
<contactref element="R4" pad="2"/>
<wire x1="8.255" y1="43.18" x2="4.445" y2="43.18" width="0.6096" layer="16"/>
<wire x1="8.255" y1="20.32" x2="6.985" y2="20.32" width="0.6096" layer="16"/>
<wire x1="6.985" y1="20.32" x2="5.715" y2="19.05" width="0.6096" layer="16"/>
<wire x1="10.947" y1="35.56" x2="10.947" y2="38.1" width="0.6096" layer="16"/>
<wire x1="10.947" y1="38.1" x2="10.947" y2="39.218" width="0.6096" layer="16"/>
<wire x1="10.947" y1="39.218" x2="8.255" y2="41.91" width="0.6096" layer="16"/>
<wire x1="8.255" y1="41.91" x2="8.255" y2="43.18" width="0.6096" layer="16"/>
<wire x1="13.335" y1="16.51" x2="13.335" y2="17.145" width="0.6096" layer="16"/>
<wire x1="10.16" y1="20.32" x2="13.335" y2="17.145" width="0.6096" layer="16"/>
<wire x1="8.255" y1="20.32" x2="10.16" y2="20.32" width="0.6096" layer="16"/>
<wire x1="27.305" y1="23.365" x2="32.1915" y2="23.365" width="0.6096" layer="16"/>
<wire x1="32.1915" y1="23.365" x2="33.274" y2="24.4475" width="0.6096" layer="16"/>
<wire x1="33.274" y1="24.4475" x2="33.274" y2="31.6865" width="0.6096" layer="16"/>
<wire x1="33.274" y1="31.6865" x2="31.9405" y2="33.02" width="0.6096" layer="16"/>
<wire x1="31.9405" y1="33.02" x2="29.845" y2="33.02" width="0.6096" layer="16"/>
<wire x1="28.832" y1="13.205" x2="28.956" y2="13.081" width="0.6096" layer="16"/>
<contactref element="JP6" pad="1"/>
<contactref element="R6" pad="2"/>
<wire x1="28.956" y1="13.081" x2="29.845" y2="12.192" width="0.6096" layer="16"/>
<wire x1="26.67" y1="13.205" x2="28.832" y2="13.205" width="0.6096" layer="16"/>
<wire x1="33.02" y1="15.24" x2="29.997" y2="15.24" width="0.6096" layer="16"/>
<wire x1="29.997" y1="15.24" x2="29.845" y2="15.088" width="0.6096" layer="16"/>
<wire x1="29.845" y1="15.088" x2="29.845" y2="13.97" width="0.6096" layer="16"/>
<wire x1="29.845" y1="13.97" x2="28.956" y2="13.081" width="0.6096" layer="16"/>
<wire x1="29.845" y1="12.192" x2="29.845" y2="12.195" width="0" layer="19" extent="16-16"/>
<wire x1="13.335" y1="16.51" x2="13.335" y2="16.21" width="0" layer="19" extent="1-16"/>
</signal>
<signal name="GND">
<contactref element="U2" pad="14"/>
<contactref element="C1" pad="2"/>
<contactref element="JP1" pad="1"/>
<contactref element="JP2" pad="2"/>
<contactref element="C2" pad="2"/>
<contactref element="U1" pad="15"/>
<contactref element="C4" pad="1"/>
<polygon width="0.4064" layer="16" isolate="0.3048">
<vertex x="0" y="0"/>
<vertex x="37.465" y="0"/>
<vertex x="37.465" y="47.625"/>
<vertex x="0" y="47.625"/>
</polygon>
<contactref element="JP3" pad="3"/>
<contactref element="JP4" pad="4"/>
<contactref element="U3" pad="6"/>
<contactref element="C7" pad="-"/>
<contactref element="U3" pad="7"/>
<contactref element="U3" pad="2"/>
<contactref element="U3" pad="3"/>
<contactref element="C8" pad="-"/>
<contactref element="JP5" pad="2"/>
<contactref element="R5" pad="1"/>
<wire x1="22.86" y1="12.065" x2="22.86" y2="14.605" width="0.6096" layer="16"/>
<wire x1="10.795" y1="4.445" x2="10.795" y2="6.35" width="0.8128" layer="16"/>
<wire x1="10.795" y1="4.445" x2="10.795" y2="2.54" width="0.8128" layer="16"/>
<wire x1="10.795" y1="4.445" x2="12.065" y2="4.445" width="0.8128" layer="16"/>
<wire x1="4.445" y1="31.115" x2="4.445" y2="32.385" width="0.8128" layer="16"/>
<wire x1="4.445" y1="31.115" x2="2.54" y2="31.115" width="0.8128" layer="16"/>
<wire x1="4.445" y1="31.115" x2="6.35" y2="31.115" width="0.8128" layer="16"/>
<wire x1="4.445" y1="40.64" x2="2.54" y2="40.64" width="0.8128" layer="16"/>
<wire x1="4.445" y1="40.64" x2="6.35" y2="40.64" width="0.8128" layer="16"/>
<wire x1="4.445" y1="40.64" x2="4.445" y2="41.275" width="0.8128" layer="16"/>
<wire x1="4.445" y1="40.64" x2="4.445" y2="40.005" width="0.8128" layer="16"/>
<wire x1="21.59" y1="43.815" x2="22.86" y2="43.815" width="0.8128" layer="16"/>
<wire x1="21.59" y1="43.815" x2="21.59" y2="45.72" width="0.8128" layer="16"/>
<wire x1="21.59" y1="43.815" x2="21.59" y2="41.91" width="0.8128" layer="16"/>
<wire x1="21.59" y1="43.815" x2="20.955" y2="43.815" width="0.8128" layer="16"/>
<wire x1="29.845" y1="35.56" x2="27.94" y2="35.56" width="0.8128" layer="16"/>
<wire x1="29.845" y1="35.56" x2="31.75" y2="35.56" width="0.8128" layer="16"/>
<wire x1="29.845" y1="35.56" x2="29.845" y2="36.195" width="0.8128" layer="16"/>
<wire x1="29.845" y1="35.56" x2="29.845" y2="34.925" width="0.8128" layer="16"/>
<wire x1="10.795" y1="4.445" x2="10.16" y2="4.445" width="0.8128" layer="16"/>
<wire x1="24.13" y1="25.654" x2="24.13" y2="27.3685" width="0.6096" layer="16"/>
<wire x1="24.13" y1="27.3685" x2="24.13" y2="28.8925" width="0.6096" layer="16"/>
<wire x1="25.2095" y1="27.3685" x2="24.13" y2="27.3685" width="0.6096" layer="16"/>
<wire x1="7.62" y1="12.7" x2="7.62" y2="11.43" width="0.6096" layer="16"/>
<wire x1="7.62" y1="11.43" x2="7.62" y2="10.16" width="0.6096" layer="16"/>
<wire x1="8.89" y1="12.7" x2="8.89" y2="11.43" width="0.6096" layer="16"/>
<wire x1="8.89" y1="11.43" x2="8.89" y2="10.16" width="0.6096" layer="16"/>
<wire x1="8.89" y1="15.24" x2="8.89" y2="16.51" width="0.6096" layer="16"/>
<wire x1="8.89" y1="16.51" x2="8.89" y2="17.78" width="0.6096" layer="16"/>
<wire x1="7.62" y1="17.78" x2="7.62" y2="16.51" width="0.6096" layer="16"/>
<wire x1="7.62" y1="16.51" x2="7.62" y2="15.24" width="0.6096" layer="16"/>
<wire x1="8.89" y1="16.51" x2="7.62" y2="16.51" width="0.6096" layer="16"/>
<wire x1="8.89" y1="11.43" x2="7.62" y2="11.43" width="0.6096" layer="16"/>
<wire x1="4.445" y1="31.115" x2="4.445" y2="30.48" width="0.8128" layer="16"/>
<contactref element="JP6" pad="3"/>
</signal>
<signal name="1WIRE_DQ">
<contactref element="JP1" pad="2"/>
<contactref element="R1" pad="2"/>
<contactref element="U2" pad="8"/>
<wire x1="4.445" y1="28.575" x2="8.103" y2="28.575" width="0.6096" layer="16"/>
<wire x1="8.103" y1="28.575" x2="8.255" y2="28.727" width="0.4064" layer="16"/>
<wire x1="8.255" y1="28.727" x2="15.215" y2="28.727" width="0.4064" layer="16"/>
<wire x1="15.215" y1="28.727" x2="16.5735" y2="27.3685" width="0.4064" layer="16"/>
<wire x1="16.5735" y1="27.3685" x2="16.51" y2="27.365" width="0" layer="19" extent="16-16"/>
</signal>
<signal name="I2C_SCL">
<contactref element="JP2" pad="3"/>
<contactref element="U2" pad="10"/>
<contactref element="R3" pad="1"/>
<wire x1="9.525" y1="33.401" x2="9.525" y2="36.83" width="0.4064" layer="16"/>
<wire x1="9.525" y1="36.83" x2="8.255" y2="38.1" width="0.4064" layer="16"/>
<wire x1="4.445" y1="38.1" x2="8.103" y2="38.1" width="0.6096" layer="16"/>
<wire x1="9.525" y1="33.401" x2="10.541" y2="32.385" width="0.4064" layer="16"/>
<wire x1="10.541" y1="32.385" x2="14.986" y2="32.385" width="0.4064" layer="16"/>
<wire x1="14.986" y1="32.385" x2="19.05" y2="28.321" width="0.4064" layer="16"/>
<wire x1="19.05" y1="28.321" x2="19.05" y2="27.365" width="0.4064" layer="16"/>
<wire x1="8.255" y1="38.1" x2="8.103" y2="38.1" width="0" layer="19" extent="16-16"/>
</signal>
<signal name="I2C_SDA">
<contactref element="JP2" pad="4"/>
<contactref element="U2" pad="9"/>
<contactref element="R4" pad="1"/>
<wire x1="8.255" y1="33.655" x2="8.255" y2="35.408" width="0.4064" layer="16"/>
<wire x1="8.255" y1="35.408" x2="8.103" y2="35.56" width="0.4064" layer="16"/>
<wire x1="4.445" y1="35.56" x2="8.103" y2="35.56" width="0.6096" layer="16"/>
<wire x1="17.78" y1="27.365" x2="17.78" y2="28.575" width="0.4064" layer="16"/>
<wire x1="17.78" y1="28.575" x2="14.6685" y2="31.6865" width="0.4064" layer="16"/>
<wire x1="14.6685" y1="31.6865" x2="10.2235" y2="31.6865" width="0.4064" layer="16"/>
<wire x1="10.2235" y1="31.6865" x2="8.255" y2="33.655" width="0.4064" layer="16"/>
</signal>
<signal name="N$1">
<contactref element="U1" pad="1"/>
<contactref element="C3" pad="2"/>
<wire x1="26.67" y1="7.115" x2="25.3462" y2="7.115" width="0.4064" layer="16"/>
<wire x1="25.3462" y1="7.115" x2="24.13" y2="8.3312" width="0.4064" layer="16"/>
</signal>
<signal name="N$2">
<contactref element="C3" pad="1"/>
<contactref element="U1" pad="3"/>
<wire x1="21.59" y1="8.3312" x2="21.59" y2="6.985" width="0.4064" layer="16"/>
<wire x1="21.59" y1="6.985" x2="22.225" y2="6.35" width="0.4064" layer="16"/>
<wire x1="22.225" y1="6.35" x2="24.13" y2="6.35" width="0.4064" layer="16"/>
<wire x1="24.13" y1="6.35" x2="26.035" y2="4.445" width="0.4064" layer="16"/>
<wire x1="26.035" y1="4.445" x2="26.67" y2="4.445" width="0.4064" layer="16"/>
<wire x1="26.67" y1="4.315" x2="26.67" y2="4.445" width="0.4064" layer="16"/>
</signal>
<signal name="N$3">
<contactref element="U1" pad="4"/>
<contactref element="C5" pad="1"/>
<wire x1="22.355" y1="4.445" x2="22.355" y2="4.95" width="0.4064" layer="16"/>
<wire x1="22.355" y1="4.95" x2="20.32" y2="6.985" width="0.4064" layer="16"/>
<wire x1="20.32" y1="6.985" x2="20.32" y2="8.3312" width="0.4064" layer="16"/>
</signal>
<signal name="N$4">
<contactref element="C5" pad="2"/>
<contactref element="U1" pad="5"/>
<wire x1="19.05" y1="8.3312" x2="19.05" y2="4.95" width="0.4064" layer="16"/>
<wire x1="19.05" y1="4.95" x2="19.555" y2="4.445" width="0.4064" layer="16"/>
</signal>
<signal name="N$6">
<contactref element="U1" pad="6"/>
<contactref element="C4" pad="2"/>
<wire x1="17.78" y1="8.3312" x2="17.78" y2="6.5405" width="0.4064" layer="16"/>
<wire x1="17.78" y1="6.5405" x2="16.637" y2="5.3975" width="0.4064" layer="16"/>
<wire x1="16.637" y1="5.3975" x2="16.637" y2="4.445" width="0.4064" layer="16"/>
<wire x1="16.637" y1="4.445" x2="16.64" y2="4.445" width="0" layer="19" extent="16-16"/>
</signal>
<signal name="N$7">
<contactref element="U1" pad="2"/>
<contactref element="C6" pad="2"/>
<wire x1="22.86" y1="8.3312" x2="22.86" y2="9.525" width="0.4064" layer="16"/>
<wire x1="22.86" y1="9.525" x2="23.495" y2="10.16" width="0.4064" layer="16"/>
<wire x1="29.21" y1="9.525" x2="29.845" y2="9.525" width="0.4064" layer="16"/>
<wire x1="29.715" y1="9.525" x2="29.845" y2="9.395" width="0.4064" layer="16"/>
<wire x1="23.495" y1="10.16" x2="25.4" y2="10.16" width="0.4064" layer="16"/>
<wire x1="25.4" y1="10.16" x2="26.035" y2="9.525" width="0.4064" layer="16"/>
<wire x1="26.035" y1="9.525" x2="29.715" y2="9.525" width="0.4064" layer="16"/>
<wire x1="29.845" y1="9.525" x2="29.845" y2="9.395" width="0.4064" layer="16"/>
</signal>
<signal name="UART_TX">
<contactref element="U1" pad="11"/>
<contactref element="U2" pad="6"/>
<wire x1="17.78" y1="13.2588" x2="17.78" y2="22.225" width="0.4064" layer="16"/>
<wire x1="17.78" y1="22.225" x2="17.78" y2="22.165" width="0" layer="19" extent="16-16"/>
</signal>
<signal name="RS232_RX">
<contactref element="U1" pad="13"/>
<contactref element="JP4" pad="2"/>
<wire x1="5.715" y1="4.445" x2="5.715" y2="5.588" width="0.4064" layer="16"/>
<wire x1="5.715" y1="5.588" x2="8.763" y2="8.636" width="0.4064" layer="16"/>
<wire x1="8.763" y1="8.636" x2="11.2395" y2="8.636" width="0.4064" layer="16"/>
<wire x1="11.2395" y1="8.636" x2="14.224" y2="11.6205" width="0.4064" layer="16"/>
<wire x1="14.224" y1="11.6205" x2="19.8755" y2="11.6205" width="0.4064" layer="16"/>
<wire x1="19.8755" y1="11.6205" x2="20.32" y2="12.065" width="0.4064" layer="16"/>
<wire x1="20.32" y1="12.065" x2="20.32" y2="13.2588" width="0.4064" layer="16"/>
</signal>
<signal name="UART_RX">
<contactref element="U2" pad="5"/>
<contactref element="U1" pad="12"/>
<wire x1="19.05" y1="13.2588" x2="19.05" y2="22.165" width="0.4064" layer="16"/>
</signal>
<signal name="RS232_TX">
<contactref element="U1" pad="14"/>
<contactref element="JP4" pad="3"/>
<wire x1="8.255" y1="4.445" x2="8.255" y2="7.112" width="0.4064" layer="16"/>
<wire x1="8.255" y1="7.112" x2="9.0805" y2="7.9375" width="0.4064" layer="16"/>
<wire x1="9.0805" y1="7.9375" x2="11.557" y2="7.9375" width="0.4064" layer="16"/>
<wire x1="11.557" y1="7.9375" x2="14.5415" y2="10.922" width="0.4064" layer="16"/>
<wire x1="14.5415" y1="10.922" x2="20.701" y2="10.922" width="0.4064" layer="16"/>
<wire x1="20.701" y1="10.922" x2="21.59" y2="11.811" width="0.4064" layer="16"/>
<wire x1="21.59" y1="11.811" x2="21.59" y2="13.2715" width="0.4064" layer="16"/>
<wire x1="21.59" y1="13.2715" x2="21.59" y2="13.2588" width="0" layer="19" extent="16-16"/>
</signal>
<signal name="ICSP_PGD">
<contactref element="U2" pad="13"/>
<contactref element="JP3" pad="4"/>
<wire x1="22.86" y1="27.365" x2="22.86" y2="29.845" width="0.4064" layer="16"/>
<wire x1="22.86" y1="29.845" x2="26.035" y2="33.02" width="0.4064" layer="16"/>
<wire x1="26.035" y1="33.02" x2="26.035" y2="36.195" width="0.4064" layer="16"/>
<wire x1="26.035" y1="36.195" x2="27.94" y2="38.1" width="0.4064" layer="16"/>
<wire x1="27.94" y1="38.1" x2="29.845" y2="38.1" width="0.4064" layer="16"/>
</signal>
<signal name="ICSP_PGC">
<contactref element="U2" pad="12"/>
<contactref element="JP3" pad="5"/>
<wire x1="28.575" y1="40.64" x2="29.845" y2="40.64" width="0.4064" layer="16"/>
<wire x1="21.59" y1="27.365" x2="21.59" y2="29.845" width="0.4064" layer="16"/>
<wire x1="21.59" y1="29.845" x2="24.765" y2="33.02" width="0.4064" layer="16"/>
<wire x1="24.765" y1="33.02" x2="24.765" y2="36.83" width="0.4064" layer="16"/>
<wire x1="24.765" y1="36.83" x2="28.575" y2="40.64" width="0.4064" layer="16"/>
</signal>
<signal name="ICSP_!MCLR!">
<contactref element="U2" pad="4"/>
<contactref element="JP3" pad="1"/>
<wire x1="20.32" y1="22.165" x2="20.32" y2="23.6855" width="0.4064" layer="16"/>
<wire x1="20.32" y1="23.6855" x2="20.701" y2="24.0665" width="0.4064" layer="16"/>
<wire x1="20.701" y1="24.0665" x2="25.273" y2="24.0665" width="0.4064" layer="16"/>
<wire x1="25.273" y1="24.0665" x2="25.9715" y2="24.765" width="0.4064" layer="16"/>
<wire x1="25.9715" y1="24.765" x2="29.845" y2="24.765" width="0.4064" layer="16"/>
<wire x1="29.845" y1="24.765" x2="30.48" y2="25.4" width="0.4064" layer="16"/>
<wire x1="30.48" y1="25.4" x2="30.48" y2="29.845" width="0.4064" layer="16"/>
<wire x1="30.48" y1="29.845" x2="29.845" y2="30.48" width="0.4064" layer="16"/>
</signal>
<signal name="+12V">
<contactref element="JP4" pad="1"/>
<contactref element="C7" pad="+"/>
<contactref element="U3" pad="8"/>
<wire x1="3.175" y1="4.445" x2="3.175" y2="8.255" width="0.8128" layer="16"/>
<wire x1="3.175" y1="8.255" x2="3.81" y2="8.89" width="0.8128" layer="16"/>
<wire x1="3.81" y1="8.89" x2="5.715" y2="8.89" width="0.8128" layer="16"/>
<wire x1="5.715" y1="8.89" x2="6.35" y2="9.525" width="0.8128" layer="16"/>
<wire x1="6.35" y1="9.525" x2="6.35" y2="11.43" width="0.8128" layer="16"/>
<wire x1="6.35" y1="11.43" x2="6.35" y2="11.3792" width="0" layer="19" extent="16-16"/>
<wire x1="3.81" y1="8.685" x2="3.81" y2="8.89" width="0" layer="19" extent="16-16"/>
</signal>
<signal name="WDM_MS">
<contactref element="R2" pad="A"/>
<contactref element="R2" pad="S"/>
<contactref element="U2" pad="11"/>
<wire x1="20.32" y1="27.365" x2="20.32" y2="31.115" width="0.6096" layer="16"/>
<wire x1="20.32" y1="31.115" x2="19.05" y2="32.385" width="0.6096" layer="16"/>
<wire x1="19.05" y1="32.385" x2="19.05" y2="33.655" width="0.6096" layer="16"/>
<wire x1="21.59" y1="38.735" x2="21.59" y2="34.925" width="0.6096" layer="16"/>
<wire x1="21.59" y1="34.925" x2="20.32" y2="33.655" width="0.6096" layer="16"/>
<wire x1="20.32" y1="33.655" x2="19.05" y2="33.655" width="0.6096" layer="16"/>
</signal>
<signal name="WDM_PIN">
<contactref element="R2" pad="E"/>
<contactref element="C9" pad="1"/>
<contactref element="U2" pad="7"/>
<via x="13.97" y="24.1935" extent="1-16" drill="1" shape="square"/>
<wire x1="13.97" y1="24.1935" x2="13.97" y2="35.56" width="0.4064" layer="1"/>
<via x="13.97" y="35.56" extent="1-16" drill="1" shape="square"/>
<contactref element="R5" pad="2"/>
<wire x1="13.97" y1="24.1935" x2="14.478" y2="24.1935" width="0.4064" layer="16"/>
<wire x1="14.478" y1="24.1935" x2="16.51" y2="22.1615" width="0.4064" layer="16"/>
<wire x1="13.9065" y1="41.9125" x2="16.5075" y2="41.9125" width="0.6096" layer="16"/>
<wire x1="16.5075" y1="41.9125" x2="16.51" y2="41.91" width="0.6096" layer="16"/>
<wire x1="16.51" y1="41.91" x2="16.51" y2="38.735" width="0.6096" layer="16"/>
<wire x1="13.97" y1="35.56" x2="13.97" y2="36.195" width="0.6096" layer="16"/>
<wire x1="13.97" y1="36.195" x2="16.51" y2="38.735" width="0.6096" layer="16"/>
<wire x1="16.5075" y1="41.9125" x2="16.51" y2="41.9125" width="0" layer="19" extent="16-16"/>
<wire x1="16.51" y1="22.165" x2="16.51" y2="22.1615" width="0" layer="19" extent="16-16"/>
</signal>
<signal name="N$9">
<contactref element="JP5" pad="1"/>
<contactref element="C9" pad="2"/>
<wire x1="16.51" y1="43.8125" x2="19.0475" y2="43.8125" width="0.8128" layer="16"/>
<wire x1="19.0475" y1="43.8125" x2="19.05" y2="43.815" width="0.6096" layer="16"/>
</signal>
<signal name="WFS_SIG">
<contactref element="JP6" pad="2"/>
<contactref element="R6" pad="1"/>
<contactref element="U2" pad="3"/>
<wire x1="21.59" y1="22.165" x2="21.59" y2="19.685" width="0.4064" layer="16"/>
<wire x1="21.59" y1="19.685" x2="22.225" y2="19.05" width="0.4064" layer="16"/>
<via x="22.225" y="19.05" extent="1-16" drill="0.9" diameter="1.4224" shape="square"/>
<wire x1="22.225" y1="19.05" x2="27.305" y2="19.05" width="0.4064" layer="1"/>
<via x="27.305" y="19.05" extent="1-16" drill="0.9" diameter="1.4224" shape="square"/>
<wire x1="27.305" y1="19.05" x2="28.727" y2="19.05" width="0.6096" layer="16"/>
<wire x1="28.727" y1="19.05" x2="29.845" y2="17.932" width="0.6096" layer="16"/>
<wire x1="33.02" y1="17.78" x2="29.997" y2="17.78" width="0.6096" layer="16"/>
<wire x1="29.997" y1="17.78" x2="29.845" y2="17.932" width="0.6096" layer="16"/>
</signal>
</signals>
</board>
</drawing>
</eagle>
