<?xml version="1.0" encoding="utf-8"?>
<!DOCTYPE eagle SYSTEM "eagle.dtd">
<eagle version="6.1">
<drawing>
<settings>
<setting alwaysvectorfont="no"/>
<setting verticaltext="up"/>
</settings>
<grid distance="0.1" unitdist="inch" unit="inch" style="lines" multiple="1" display="no" altdistance="0.01" altunitdist="inch" altunit="inch"/>
<layers>
<layer number="1" name="Top" color="4" fill="1" visible="no" active="no"/>
<layer number="2" name="Route2" color="1" fill="3" visible="no" active="no"/>
<layer number="3" name="Route3" color="4" fill="3" visible="no" active="no"/>
<layer number="4" name="Route4" color="1" fill="4" visible="no" active="no"/>
<layer number="5" name="Route5" color="4" fill="4" visible="no" active="no"/>
<layer number="6" name="Route6" color="1" fill="8" visible="no" active="no"/>
<layer number="7" name="Route7" color="4" fill="8" visible="no" active="no"/>
<layer number="8" name="Route8" color="1" fill="2" visible="no" active="no"/>
<layer number="9" name="Route9" color="4" fill="2" visible="no" active="no"/>
<layer number="10" name="Route10" color="1" fill="7" visible="no" active="no"/>
<layer number="11" name="Route11" color="4" fill="7" visible="no" active="no"/>
<layer number="12" name="Route12" color="1" fill="5" visible="no" active="no"/>
<layer number="13" name="Route13" color="4" fill="5" visible="no" active="no"/>
<layer number="14" name="Route14" color="1" fill="6" visible="no" active="no"/>
<layer number="15" name="Route15" color="4" fill="6" visible="no" active="no"/>
<layer number="16" name="Bottom" color="1" fill="1" visible="no" active="no"/>
<layer number="17" name="Pads" color="2" fill="1" visible="no" active="no"/>
<layer number="18" name="Vias" color="2" fill="1" visible="no" active="no"/>
<layer number="19" name="Unrouted" color="6" fill="1" visible="no" active="no"/>
<layer number="20" name="Dimension" color="15" fill="1" visible="no" active="no"/>
<layer number="21" name="tPlace" color="7" fill="1" visible="no" active="no"/>
<layer number="22" name="bPlace" color="7" fill="1" visible="no" active="no"/>
<layer number="23" name="tOrigins" color="15" fill="1" visible="no" active="no"/>
<layer number="24" name="bOrigins" color="15" fill="1" visible="no" active="no"/>
<layer number="25" name="tNames" color="7" fill="1" visible="no" active="no"/>
<layer number="26" name="bNames" color="7" fill="1" visible="no" active="no"/>
<layer number="27" name="tValues" color="7" fill="1" visible="no" active="no"/>
<layer number="28" name="bValues" color="7" fill="1" visible="no" active="no"/>
<layer number="29" name="tStop" color="7" fill="3" visible="no" active="no"/>
<layer number="30" name="bStop" color="7" fill="6" visible="no" active="no"/>
<layer number="31" name="tCream" color="7" fill="4" visible="no" active="no"/>
<layer number="32" name="bCream" color="7" fill="5" visible="no" active="no"/>
<layer number="33" name="tFinish" color="6" fill="3" visible="no" active="no"/>
<layer number="34" name="bFinish" color="6" fill="6" visible="no" active="no"/>
<layer number="35" name="tGlue" color="7" fill="4" visible="no" active="no"/>
<layer number="36" name="bGlue" color="7" fill="5" visible="no" active="no"/>
<layer number="37" name="tTest" color="7" fill="1" visible="no" active="no"/>
<layer number="38" name="bTest" color="7" fill="1" visible="no" active="no"/>
<layer number="39" name="tKeepout" color="4" fill="11" visible="no" active="no"/>
<layer number="40" name="bKeepout" color="1" fill="11" visible="no" active="no"/>
<layer number="41" name="tRestrict" color="4" fill="10" visible="no" active="no"/>
<layer number="42" name="bRestrict" color="1" fill="10" visible="no" active="no"/>
<layer number="43" name="vRestrict" color="2" fill="10" visible="no" active="no"/>
<layer number="44" name="Drills" color="7" fill="1" visible="no" active="no"/>
<layer number="45" name="Holes" color="7" fill="1" visible="no" active="no"/>
<layer number="46" name="Milling" color="3" fill="1" visible="no" active="no"/>
<layer number="47" name="Measures" color="7" fill="1" visible="no" active="no"/>
<layer number="48" name="Document" color="7" fill="1" visible="no" active="no"/>
<layer number="49" name="Reference" color="7" fill="1" visible="no" active="no"/>
<layer number="51" name="tDocu" color="6" fill="1" visible="no" active="no"/>
<layer number="52" name="bDocu" color="7" fill="1" visible="no" active="no"/>
<layer number="91" name="Nets" color="2" fill="1" visible="yes" active="yes"/>
<layer number="92" name="Busses" color="1" fill="1" visible="yes" active="yes"/>
<layer number="93" name="Pins" color="2" fill="1" visible="no" active="yes"/>
<layer number="94" name="Symbols" color="4" fill="1" visible="yes" active="yes"/>
<layer number="95" name="Names" color="7" fill="1" visible="yes" active="yes"/>
<layer number="96" name="Values" color="7" fill="1" visible="yes" active="yes"/>
<layer number="97" name="Info" color="7" fill="1" visible="yes" active="yes"/>
<layer number="98" name="Guide" color="6" fill="1" visible="yes" active="yes"/>
</layers>
<schematic xreflabel="%F%N/%S.%C%R" xrefpart="/%S.%C%R">
<libraries>
<library name="tomikaa-diode">
<description>&lt;b&gt;Diodes&lt;/b&gt;&lt;p&gt;
Based on the following sources:
&lt;ul&gt;
&lt;li&gt;Motorola : www.onsemi.com
&lt;li&gt;Fairchild : www.fairchildsemi.com
&lt;li&gt;Philips : www.semiconductors.com
&lt;li&gt;Vishay : www.vishay.de
&lt;/ul&gt;
&lt;author&gt;Created by librarian@cadsoft.de&lt;/author&gt;</description>
<packages>
<package name="SMC">
<description>&lt;b&gt;DIODE&lt;/b&gt;</description>
<wire x1="-3.5606" y1="3.105" x2="3.5606" y2="3.105" width="0.1016" layer="21"/>
<wire x1="-3.5606" y1="-3.105" x2="3.5606" y2="-3.105" width="0.1016" layer="21"/>
<wire x1="-3.5606" y1="-3.105" x2="-3.5606" y2="3.105" width="0.1016" layer="51"/>
<wire x1="3.5606" y1="-3.105" x2="3.5606" y2="3.105" width="0.1016" layer="51"/>
<wire x1="0.543" y1="1" x2="-0.83" y2="0" width="0.2032" layer="21"/>
<wire x1="-0.83" y1="0" x2="0.543" y2="-1" width="0.2032" layer="21"/>
<wire x1="0.543" y1="-1" x2="0.543" y2="1" width="0.2032" layer="21"/>
<smd name="C" x="-3.7" y="0" dx="2.8" dy="3.8" layer="1"/>
<smd name="A" x="3.7" y="0" dx="2.8" dy="3.8" layer="1"/>
<text x="-3.459" y="3.359" size="1.27" layer="25">&gt;NAME</text>
<text x="-3.459" y="-4.629" size="1.27" layer="27">&gt;VALUE</text>
<rectangle x1="-4.094" y1="-1.0922" x2="-3.5606" y2="1.0922" layer="51"/>
<rectangle x1="3.5606" y1="-1.0922" x2="4.094" y2="1.0922" layer="51"/>
<rectangle x1="-2.1" y1="-3.1" x2="-0.85" y2="3.1" layer="21"/>
</package>
</packages>
<symbols>
<symbol name="SCHOTTKY-BIDIR">
<wire x1="-1.27" y1="-1.27" x2="1.27" y2="0" width="0.254" layer="94"/>
<wire x1="1.27" y1="0" x2="-1.27" y2="1.27" width="0.254" layer="94"/>
<wire x1="1.905" y1="1.27" x2="1.27" y2="1.27" width="0.254" layer="94"/>
<wire x1="1.27" y1="1.27" x2="1.27" y2="0" width="0.254" layer="94"/>
<wire x1="0" y1="0" x2="1.27" y2="0" width="0.1524" layer="94"/>
<wire x1="-1.27" y1="1.27" x2="-1.27" y2="-1.27" width="0.254" layer="94"/>
<wire x1="1.27" y1="0" x2="1.27" y2="-1.27" width="0.254" layer="94"/>
<wire x1="1.27" y1="-1.27" x2="0.635" y2="-1.27" width="0.254" layer="94"/>
<wire x1="3.81" y1="1.27" x2="3.81" y2="-1.27" width="0.254" layer="94"/>
<wire x1="3.81" y1="-1.27" x2="1.27" y2="0" width="0.254" layer="94"/>
<wire x1="1.27" y1="0" x2="3.81" y2="1.27" width="0.254" layer="94"/>
<wire x1="1.27" y1="0" x2="2.54" y2="0" width="0.1524" layer="94"/>
<wire x1="1.905" y1="1.27" x2="1.905" y2="1.016" width="0.254" layer="94"/>
<wire x1="0.635" y1="-1.016" x2="0.635" y2="-1.27" width="0.254" layer="94"/>
<text x="-1.27" y="1.905" size="1.778" layer="95">&gt;NAME</text>
<text x="-1.27" y="-3.429" size="1.778" layer="96">&gt;VALUE</text>
<pin name="1" x="-2.54" y="0" visible="off" length="short" direction="pas"/>
<pin name="2" x="5.08" y="0" visible="off" length="short" direction="pas" rot="R180"/>
</symbol>
</symbols>
<devicesets>
<deviceset name="SMCJXXXCA" prefix="D">
<description>Bi-directional Transient Voltage Suppressor</description>
<gates>
<gate name="G$1" symbol="SCHOTTKY-BIDIR" x="5.08" y="5.08"/>
</gates>
<devices>
<device name="" package="SMC">
<connects>
<connect gate="G$1" pin="1" pad="A"/>
<connect gate="G$1" pin="2" pad="C"/>
</connects>
<technologies>
<technology name=""/>
</technologies>
</device>
</devices>
</deviceset>
</devicesets>
</library>
<library name="pinhead">
<description>&lt;b&gt;Pin Header Connectors&lt;/b&gt;&lt;p&gt;
&lt;author&gt;Created by librarian@cadsoft.de&lt;/author&gt;</description>
<packages>
<package name="1X04">
<description>&lt;b&gt;PIN HEADER&lt;/b&gt;</description>
<wire x1="0" y1="0.635" x2="0.635" y2="1.27" width="0.1524" layer="21"/>
<wire x1="0.635" y1="1.27" x2="1.905" y2="1.27" width="0.1524" layer="21"/>
<wire x1="1.905" y1="1.27" x2="2.54" y2="0.635" width="0.1524" layer="21"/>
<wire x1="2.54" y1="0.635" x2="2.54" y2="-0.635" width="0.1524" layer="21"/>
<wire x1="2.54" y1="-0.635" x2="1.905" y2="-1.27" width="0.1524" layer="21"/>
<wire x1="1.905" y1="-1.27" x2="0.635" y2="-1.27" width="0.1524" layer="21"/>
<wire x1="0.635" y1="-1.27" x2="0" y2="-0.635" width="0.1524" layer="21"/>
<wire x1="-4.445" y1="1.27" x2="-3.175" y2="1.27" width="0.1524" layer="21"/>
<wire x1="-3.175" y1="1.27" x2="-2.54" y2="0.635" width="0.1524" layer="21"/>
<wire x1="-2.54" y1="0.635" x2="-2.54" y2="-0.635" width="0.1524" layer="21"/>
<wire x1="-2.54" y1="-0.635" x2="-3.175" y2="-1.27" width="0.1524" layer="21"/>
<wire x1="-2.54" y1="0.635" x2="-1.905" y2="1.27" width="0.1524" layer="21"/>
<wire x1="-1.905" y1="1.27" x2="-0.635" y2="1.27" width="0.1524" layer="21"/>
<wire x1="-0.635" y1="1.27" x2="0" y2="0.635" width="0.1524" layer="21"/>
<wire x1="0" y1="0.635" x2="0" y2="-0.635" width="0.1524" layer="21"/>
<wire x1="0" y1="-0.635" x2="-0.635" y2="-1.27" width="0.1524" layer="21"/>
<wire x1="-0.635" y1="-1.27" x2="-1.905" y2="-1.27" width="0.1524" layer="21"/>
<wire x1="-1.905" y1="-1.27" x2="-2.54" y2="-0.635" width="0.1524" layer="21"/>
<wire x1="-5.08" y1="0.635" x2="-5.08" y2="-0.635" width="0.1524" layer="21"/>
<wire x1="-4.445" y1="1.27" x2="-5.08" y2="0.635" width="0.1524" layer="21"/>
<wire x1="-5.08" y1="-0.635" x2="-4.445" y2="-1.27" width="0.1524" layer="21"/>
<wire x1="-3.175" y1="-1.27" x2="-4.445" y2="-1.27" width="0.1524" layer="21"/>
<wire x1="3.175" y1="1.27" x2="4.445" y2="1.27" width="0.1524" layer="21"/>
<wire x1="4.445" y1="1.27" x2="5.08" y2="0.635" width="0.1524" layer="21"/>
<wire x1="5.08" y1="0.635" x2="5.08" y2="-0.635" width="0.1524" layer="21"/>
<wire x1="5.08" y1="-0.635" x2="4.445" y2="-1.27" width="0.1524" layer="21"/>
<wire x1="3.175" y1="1.27" x2="2.54" y2="0.635" width="0.1524" layer="21"/>
<wire x1="2.54" y1="-0.635" x2="3.175" y2="-1.27" width="0.1524" layer="21"/>
<wire x1="4.445" y1="-1.27" x2="3.175" y2="-1.27" width="0.1524" layer="21"/>
<pad name="1" x="-3.81" y="0" drill="1.016" shape="long" rot="R90"/>
<pad name="2" x="-1.27" y="0" drill="1.016" shape="long" rot="R90"/>
<pad name="3" x="1.27" y="0" drill="1.016" shape="long" rot="R90"/>
<pad name="4" x="3.81" y="0" drill="1.016" shape="long" rot="R90"/>
<text x="-5.1562" y="1.8288" size="1.27" layer="25" ratio="10">&gt;NAME</text>
<text x="-5.08" y="-3.175" size="1.27" layer="27">&gt;VALUE</text>
<rectangle x1="1.016" y1="-0.254" x2="1.524" y2="0.254" layer="51"/>
<rectangle x1="-1.524" y1="-0.254" x2="-1.016" y2="0.254" layer="51"/>
<rectangle x1="-4.064" y1="-0.254" x2="-3.556" y2="0.254" layer="51"/>
<rectangle x1="3.556" y1="-0.254" x2="4.064" y2="0.254" layer="51"/>
</package>
<package name="1X04/90">
<description>&lt;b&gt;PIN HEADER&lt;/b&gt;</description>
<wire x1="-5.08" y1="-1.905" x2="-2.54" y2="-1.905" width="0.1524" layer="21"/>
<wire x1="-2.54" y1="-1.905" x2="-2.54" y2="0.635" width="0.1524" layer="21"/>
<wire x1="-2.54" y1="0.635" x2="-5.08" y2="0.635" width="0.1524" layer="21"/>
<wire x1="-5.08" y1="0.635" x2="-5.08" y2="-1.905" width="0.1524" layer="21"/>
<wire x1="-3.81" y1="6.985" x2="-3.81" y2="1.27" width="0.762" layer="21"/>
<wire x1="-2.54" y1="-1.905" x2="0" y2="-1.905" width="0.1524" layer="21"/>
<wire x1="0" y1="-1.905" x2="0" y2="0.635" width="0.1524" layer="21"/>
<wire x1="0" y1="0.635" x2="-2.54" y2="0.635" width="0.1524" layer="21"/>
<wire x1="-1.27" y1="6.985" x2="-1.27" y2="1.27" width="0.762" layer="21"/>
<wire x1="0" y1="-1.905" x2="2.54" y2="-1.905" width="0.1524" layer="21"/>
<wire x1="2.54" y1="-1.905" x2="2.54" y2="0.635" width="0.1524" layer="21"/>
<wire x1="2.54" y1="0.635" x2="0" y2="0.635" width="0.1524" layer="21"/>
<wire x1="1.27" y1="6.985" x2="1.27" y2="1.27" width="0.762" layer="21"/>
<wire x1="2.54" y1="-1.905" x2="5.08" y2="-1.905" width="0.1524" layer="21"/>
<wire x1="5.08" y1="-1.905" x2="5.08" y2="0.635" width="0.1524" layer="21"/>
<wire x1="5.08" y1="0.635" x2="2.54" y2="0.635" width="0.1524" layer="21"/>
<wire x1="3.81" y1="6.985" x2="3.81" y2="1.27" width="0.762" layer="21"/>
<pad name="1" x="-3.81" y="-3.81" drill="1.016" shape="long" rot="R90"/>
<pad name="2" x="-1.27" y="-3.81" drill="1.016" shape="long" rot="R90"/>
<pad name="3" x="1.27" y="-3.81" drill="1.016" shape="long" rot="R90"/>
<pad name="4" x="3.81" y="-3.81" drill="1.016" shape="long" rot="R90"/>
<text x="-5.715" y="-3.81" size="1.27" layer="25" ratio="10" rot="R90">&gt;NAME</text>
<text x="6.985" y="-4.445" size="1.27" layer="27" rot="R90">&gt;VALUE</text>
<rectangle x1="-4.191" y1="0.635" x2="-3.429" y2="1.143" layer="21"/>
<rectangle x1="-1.651" y1="0.635" x2="-0.889" y2="1.143" layer="21"/>
<rectangle x1="0.889" y1="0.635" x2="1.651" y2="1.143" layer="21"/>
<rectangle x1="3.429" y1="0.635" x2="4.191" y2="1.143" layer="21"/>
<rectangle x1="-4.191" y1="-2.921" x2="-3.429" y2="-1.905" layer="21"/>
<rectangle x1="-1.651" y1="-2.921" x2="-0.889" y2="-1.905" layer="21"/>
<rectangle x1="0.889" y1="-2.921" x2="1.651" y2="-1.905" layer="21"/>
<rectangle x1="3.429" y1="-2.921" x2="4.191" y2="-1.905" layer="21"/>
</package>
</packages>
<symbols>
<symbol name="PINHD4">
<wire x1="-6.35" y1="-5.08" x2="1.27" y2="-5.08" width="0.4064" layer="94"/>
<wire x1="1.27" y1="-5.08" x2="1.27" y2="7.62" width="0.4064" layer="94"/>
<wire x1="1.27" y1="7.62" x2="-6.35" y2="7.62" width="0.4064" layer="94"/>
<wire x1="-6.35" y1="7.62" x2="-6.35" y2="-5.08" width="0.4064" layer="94"/>
<text x="-6.35" y="8.255" size="1.778" layer="95">&gt;NAME</text>
<text x="-6.35" y="-7.62" size="1.778" layer="96">&gt;VALUE</text>
<pin name="1" x="-2.54" y="5.08" visible="pad" length="short" direction="pas" function="dot"/>
<pin name="2" x="-2.54" y="2.54" visible="pad" length="short" direction="pas" function="dot"/>
<pin name="3" x="-2.54" y="0" visible="pad" length="short" direction="pas" function="dot"/>
<pin name="4" x="-2.54" y="-2.54" visible="pad" length="short" direction="pas" function="dot"/>
</symbol>
</symbols>
<devicesets>
<deviceset name="PINHD-1X4" prefix="JP" uservalue="yes">
<description>&lt;b&gt;PIN HEADER&lt;/b&gt;</description>
<gates>
<gate name="A" symbol="PINHD4" x="0" y="0"/>
</gates>
<devices>
<device name="" package="1X04">
<connects>
<connect gate="A" pin="1" pad="1"/>
<connect gate="A" pin="2" pad="2"/>
<connect gate="A" pin="3" pad="3"/>
<connect gate="A" pin="4" pad="4"/>
</connects>
<technologies>
<technology name=""/>
</technologies>
</device>
<device name="/90" package="1X04/90">
<connects>
<connect gate="A" pin="1" pad="1"/>
<connect gate="A" pin="2" pad="2"/>
<connect gate="A" pin="3" pad="3"/>
<connect gate="A" pin="4" pad="4"/>
</connects>
<technologies>
<technology name=""/>
</technologies>
</device>
</devices>
</deviceset>
</devicesets>
</library>
</libraries>
<attributes>
</attributes>
<variantdefs>
</variantdefs>
<classes>
<class number="0" name="default" width="0" drill="0">
</class>
</classes>
<parts>
<part name="D1" library="tomikaa-diode" deviceset="SMCJXXXCA" device="" value="SMCJ15CA"/>
<part name="D2" library="tomikaa-diode" deviceset="SMCJXXXCA" device="" value="SMCJ15CA"/>
<part name="JP1" library="pinhead" deviceset="PINHD-1X4" device="" value="INPUT"/>
<part name="JP2" library="pinhead" deviceset="PINHD-1X4" device="" value="OUTPUT"/>
</parts>
<sheets>
<sheet>
<plain>
</plain>
<instances>
<instance part="D1" gate="G$1" x="5.08" y="17.78" rot="R90"/>
<instance part="D2" gate="G$1" x="12.7" y="17.78" rot="R90"/>
<instance part="JP1" gate="A" x="33.02" y="27.94"/>
<instance part="JP2" gate="A" x="33.02" y="7.62"/>
</instances>
<busses>
</busses>
<nets>
<net name="+12V" class="0">
<segment>
<pinref part="JP1" gate="A" pin="3"/>
<wire x1="30.48" y1="27.94" x2="25.4" y2="27.94" width="0.1524" layer="91"/>
<wire x1="25.4" y1="27.94" x2="25.4" y2="25.4" width="0.1524" layer="91"/>
<pinref part="JP1" gate="A" pin="4"/>
<wire x1="25.4" y1="25.4" x2="30.48" y2="25.4" width="0.1524" layer="91"/>
<wire x1="25.4" y1="25.4" x2="25.4" y2="7.62" width="0.1524" layer="91"/>
<pinref part="JP2" gate="A" pin="3"/>
<wire x1="25.4" y1="7.62" x2="30.48" y2="7.62" width="0.1524" layer="91"/>
<wire x1="25.4" y1="7.62" x2="25.4" y2="5.08" width="0.1524" layer="91"/>
<pinref part="JP2" gate="A" pin="4"/>
<wire x1="25.4" y1="5.08" x2="30.48" y2="5.08" width="0.1524" layer="91"/>
<junction x="25.4" y="7.62"/>
<junction x="25.4" y="25.4"/>
<pinref part="D1" gate="G$1" pin="1"/>
<wire x1="5.08" y1="15.24" x2="5.08" y2="7.62" width="0.1524" layer="91"/>
<wire x1="5.08" y1="7.62" x2="12.7" y2="7.62" width="0.1524" layer="91"/>
<pinref part="D2" gate="G$1" pin="1"/>
<wire x1="12.7" y1="7.62" x2="25.4" y2="7.62" width="0.1524" layer="91"/>
<wire x1="12.7" y1="15.24" x2="12.7" y2="7.62" width="0.1524" layer="91"/>
<junction x="12.7" y="7.62"/>
</segment>
</net>
<net name="N$2" class="0">
<segment>
<pinref part="JP1" gate="A" pin="2"/>
<wire x1="30.48" y1="30.48" x2="20.32" y2="30.48" width="0.1524" layer="91"/>
<wire x1="20.32" y1="30.48" x2="20.32" y2="25.4" width="0.1524" layer="91"/>
<pinref part="JP2" gate="A" pin="2"/>
<wire x1="20.32" y1="25.4" x2="20.32" y2="10.16" width="0.1524" layer="91"/>
<wire x1="20.32" y1="10.16" x2="30.48" y2="10.16" width="0.1524" layer="91"/>
<pinref part="D2" gate="G$1" pin="2"/>
<wire x1="20.32" y1="25.4" x2="12.7" y2="25.4" width="0.1524" layer="91"/>
<wire x1="12.7" y1="25.4" x2="12.7" y2="22.86" width="0.1524" layer="91"/>
<junction x="20.32" y="25.4"/>
</segment>
</net>
<net name="N$3" class="0">
<segment>
<pinref part="JP1" gate="A" pin="1"/>
<wire x1="30.48" y1="33.02" x2="17.78" y2="33.02" width="0.1524" layer="91"/>
<wire x1="17.78" y1="33.02" x2="17.78" y2="27.94" width="0.1524" layer="91"/>
<pinref part="JP2" gate="A" pin="1"/>
<wire x1="17.78" y1="27.94" x2="17.78" y2="12.7" width="0.1524" layer="91"/>
<wire x1="17.78" y1="12.7" x2="30.48" y2="12.7" width="0.1524" layer="91"/>
<pinref part="D1" gate="G$1" pin="2"/>
<wire x1="17.78" y1="27.94" x2="5.08" y2="27.94" width="0.1524" layer="91"/>
<wire x1="5.08" y1="27.94" x2="5.08" y2="22.86" width="0.1524" layer="91"/>
<junction x="17.78" y="27.94"/>
</segment>
</net>
</nets>
</sheet>
</sheets>
</schematic>
</drawing>
</eagle>
