<?xml version="1.0" encoding="utf-8"?>
<!DOCTYPE eagle SYSTEM "eagle.dtd">
<eagle version="6.5.0">
<drawing>
<settings>
<setting alwaysvectorfont="no"/>
<setting verticaltext="up"/>
</settings>
<grid distance="0.05" unitdist="inch" unit="mm" style="lines" multiple="1" display="no" altdistance="0.025" altunitdist="inch" altunit="inch"/>
<layers>
<layer number="1" name="Top" color="4" fill="1" visible="yes" active="yes"/>
<layer number="2" name="Route2" color="1" fill="3" visible="no" active="no"/>
<layer number="3" name="Route3" color="4" fill="3" visible="no" active="no"/>
<layer number="4" name="Route4" color="1" fill="4" visible="no" active="no"/>
<layer number="5" name="Route5" color="4" fill="4" visible="no" active="no"/>
<layer number="6" name="Route6" color="1" fill="8" visible="no" active="no"/>
<layer number="7" name="Route7" color="4" fill="8" visible="no" active="no"/>
<layer number="8" name="Route8" color="1" fill="2" visible="no" active="no"/>
<layer number="9" name="Route9" color="4" fill="2" visible="no" active="no"/>
<layer number="10" name="Route10" color="1" fill="7" visible="no" active="no"/>
<layer number="11" name="Route11" color="4" fill="7" visible="no" active="no"/>
<layer number="12" name="Route12" color="1" fill="5" visible="no" active="no"/>
<layer number="13" name="Route13" color="4" fill="5" visible="no" active="no"/>
<layer number="14" name="Route14" color="1" fill="6" visible="no" active="no"/>
<layer number="15" name="Route15" color="4" fill="6" visible="no" active="no"/>
<layer number="16" name="Bottom" color="1" fill="1" visible="yes" active="yes"/>
<layer number="17" name="Pads" color="2" fill="1" visible="yes" active="yes"/>
<layer number="18" name="Vias" color="2" fill="1" visible="yes" active="yes"/>
<layer number="19" name="Unrouted" color="6" fill="1" visible="yes" active="yes"/>
<layer number="20" name="Dimension" color="15" fill="1" visible="yes" active="yes"/>
<layer number="21" name="tPlace" color="7" fill="1" visible="yes" active="yes"/>
<layer number="22" name="bPlace" color="7" fill="1" visible="yes" active="yes"/>
<layer number="23" name="tOrigins" color="15" fill="1" visible="yes" active="yes"/>
<layer number="24" name="bOrigins" color="15" fill="1" visible="yes" active="yes"/>
<layer number="25" name="tNames" color="7" fill="1" visible="yes" active="yes"/>
<layer number="26" name="bNames" color="7" fill="1" visible="yes" active="yes"/>
<layer number="27" name="tValues" color="7" fill="1" visible="yes" active="yes"/>
<layer number="28" name="bValues" color="7" fill="1" visible="yes" active="yes"/>
<layer number="29" name="tStop" color="7" fill="3" visible="no" active="yes"/>
<layer number="30" name="bStop" color="7" fill="6" visible="no" active="yes"/>
<layer number="31" name="tCream" color="7" fill="4" visible="no" active="yes"/>
<layer number="32" name="bCream" color="7" fill="5" visible="no" active="yes"/>
<layer number="33" name="tFinish" color="6" fill="3" visible="no" active="yes"/>
<layer number="34" name="bFinish" color="6" fill="6" visible="no" active="yes"/>
<layer number="35" name="tGlue" color="7" fill="4" visible="no" active="yes"/>
<layer number="36" name="bGlue" color="7" fill="5" visible="no" active="yes"/>
<layer number="37" name="tTest" color="7" fill="1" visible="no" active="yes"/>
<layer number="38" name="bTest" color="7" fill="1" visible="no" active="yes"/>
<layer number="39" name="tKeepout" color="4" fill="11" visible="yes" active="yes"/>
<layer number="40" name="bKeepout" color="1" fill="11" visible="yes" active="yes"/>
<layer number="41" name="tRestrict" color="4" fill="10" visible="yes" active="yes"/>
<layer number="42" name="bRestrict" color="1" fill="10" visible="yes" active="yes"/>
<layer number="43" name="vRestrict" color="2" fill="10" visible="yes" active="yes"/>
<layer number="44" name="Drills" color="7" fill="1" visible="no" active="yes"/>
<layer number="45" name="Holes" color="7" fill="1" visible="no" active="yes"/>
<layer number="46" name="Milling" color="3" fill="1" visible="no" active="yes"/>
<layer number="47" name="Measures" color="7" fill="1" visible="no" active="yes"/>
<layer number="48" name="Document" color="7" fill="1" visible="yes" active="yes"/>
<layer number="49" name="Reference" color="7" fill="1" visible="yes" active="yes"/>
<layer number="51" name="tDocu" color="7" fill="1" visible="yes" active="yes"/>
<layer number="52" name="bDocu" color="7" fill="1" visible="yes" active="yes"/>
<layer number="91" name="Nets" color="2" fill="1" visible="no" active="no"/>
<layer number="92" name="Busses" color="1" fill="1" visible="no" active="no"/>
<layer number="93" name="Pins" color="2" fill="1" visible="no" active="no"/>
<layer number="94" name="Symbols" color="4" fill="1" visible="no" active="no"/>
<layer number="95" name="Names" color="7" fill="1" visible="no" active="no"/>
<layer number="96" name="Values" color="7" fill="1" visible="no" active="no"/>
<layer number="97" name="Info" color="7" fill="1" visible="no" active="no"/>
<layer number="98" name="Guide" color="6" fill="1" visible="no" active="no"/>
</layers>
<board>
<plain>
<wire x1="0" y1="0" x2="99.04" y2="0" width="0" layer="20"/>
<wire x1="99.04" y1="0" x2="99.04" y2="70.79" width="0" layer="20"/>
<wire x1="99.04" y1="70.79" x2="0" y2="70.79" width="0" layer="20"/>
<wire x1="0" y1="70.79" x2="0" y2="0" width="0" layer="20"/>
<rectangle x1="44.45" y1="3.81" x2="92.71" y2="58.42" layer="42"/>
<rectangle x1="92.71" y1="3.81" x2="93.98" y2="58.42" layer="42"/>
</plain>
<libraries>
<library name="relay">
<description>&lt;b&gt;Relays&lt;/b&gt;&lt;p&gt;
&lt;ul&gt;
&lt;li&gt;Eichhoff
&lt;li&gt;Finder
&lt;li&gt;Fujitsu
&lt;li&gt;HAMLIN
&lt;li&gt;OMRON
&lt;li&gt;Matsushita
&lt;li&gt;NAiS
&lt;li&gt;Siemens
&lt;li&gt;Schrack
&lt;/ul&gt;
&lt;author&gt;Created by librarian@cadsoft.de&lt;/author&gt;</description>
<packages>
<package name="G2R">
<description>&lt;b&gt;RELAY&lt;/b&gt;&lt;p&gt;
1 x switch, Omron</description>
<wire x1="-4.699" y1="-6.604" x2="24.384" y2="-6.604" width="0.1524" layer="21"/>
<wire x1="24.384" y1="6.477" x2="24.384" y2="-6.604" width="0.1524" layer="21"/>
<wire x1="24.384" y1="6.477" x2="-4.699" y2="6.477" width="0.1524" layer="21"/>
<wire x1="-4.699" y1="-6.604" x2="-4.699" y2="6.477" width="0.1524" layer="21"/>
<wire x1="-2.54" y1="2.0574" x2="-2.54" y2="1.1938" width="0.1524" layer="21"/>
<wire x1="-0.6604" y1="1.1938" x2="-0.6604" y2="-1.3208" width="0.254" layer="21"/>
<wire x1="-4.4196" y1="-1.3208" x2="-4.4196" y2="1.1938" width="0.254" layer="21"/>
<wire x1="-4.4196" y1="1.1938" x2="-2.54" y2="1.1938" width="0.254" layer="21"/>
<wire x1="-2.54" y1="1.1938" x2="-1.2954" y2="1.1938" width="0.254" layer="21"/>
<wire x1="-3.7846" y1="-1.3208" x2="-4.4196" y2="-1.3208" width="0.254" layer="21"/>
<wire x1="-1.2954" y1="1.1938" x2="-3.7846" y2="-1.3208" width="0.1524" layer="21"/>
<wire x1="-1.2954" y1="1.1938" x2="-0.6604" y2="1.1938" width="0.254" layer="21"/>
<wire x1="-0.6604" y1="-1.3208" x2="-2.54" y2="-1.3208" width="0.254" layer="21"/>
<wire x1="-2.54" y1="-1.3208" x2="-2.54" y2="-1.9304" width="0.1524" layer="21"/>
<wire x1="-2.54" y1="-1.3208" x2="-3.7846" y2="-1.3208" width="0.254" layer="21"/>
<wire x1="16.256" y1="-0.508" x2="16.5862" y2="-0.1778" width="0.254" layer="21"/>
<wire x1="16.5862" y1="-0.1778" x2="13.97" y2="-0.1778" width="0.1524" layer="21"/>
<wire x1="16.5862" y1="-0.1778" x2="17.526" y2="0.762" width="0.254" layer="21"/>
<wire x1="13.97" y1="-0.1778" x2="13.97" y2="-1.8288" width="0.1524" layer="21"/>
<wire x1="18.4912" y1="-0.1778" x2="20.955" y2="-0.1778" width="0.1524" layer="21"/>
<wire x1="20.955" y1="-0.1778" x2="20.955" y2="-1.8288" width="0.1524" layer="21"/>
<wire x1="17.526" y1="1.905" x2="17.526" y2="0.762" width="0.1524" layer="21"/>
<pad name="2" x="-2.54" y="3.81" drill="1.3208" shape="long"/>
<pad name="1" x="-2.54" y="-3.683" drill="1.3208" shape="long"/>
<pad name="P" x="17.4498" y="3.81" drill="1.3208" shape="long"/>
<pad name="O" x="13.97" y="-3.683" drill="1.3208" shape="long"/>
<pad name="S" x="20.955" y="-3.683" drill="1.3208" shape="long"/>
<text x="26.6446" y="-6.2992" size="1.778" layer="25" ratio="10" rot="R90">&gt;NAME</text>
<text x="3.81" y="-5.08" size="1.778" layer="27" ratio="10" rot="R90">&gt;VALUE</text>
</package>
</packages>
</library>
<library name="diode">
<description>&lt;b&gt;Diodes&lt;/b&gt;&lt;p&gt;
Based on the following sources:
&lt;ul&gt;
&lt;li&gt;Motorola : www.onsemi.com
&lt;li&gt;Fairchild : www.fairchildsemi.com
&lt;li&gt;Philips : www.semiconductors.com
&lt;li&gt;Vishay : www.vishay.de
&lt;/ul&gt;
&lt;author&gt;Created by librarian@cadsoft.de&lt;/author&gt;</description>
<packages>
<package name="DO41-10">
<description>&lt;B&gt;DIODE&lt;/B&gt;&lt;p&gt;
diameter 2.54 mm, horizontal, grid 10.16 mm</description>
<wire x1="2.032" y1="-1.27" x2="-2.032" y2="-1.27" width="0.1524" layer="21"/>
<wire x1="2.032" y1="-1.27" x2="2.032" y2="1.27" width="0.1524" layer="21"/>
<wire x1="-2.032" y1="1.27" x2="2.032" y2="1.27" width="0.1524" layer="21"/>
<wire x1="-2.032" y1="1.27" x2="-2.032" y2="-1.27" width="0.1524" layer="21"/>
<wire x1="5.08" y1="0" x2="4.064" y2="0" width="0.762" layer="51"/>
<wire x1="-5.08" y1="0" x2="-4.064" y2="0" width="0.762" layer="51"/>
<wire x1="-0.635" y1="0" x2="0" y2="0" width="0.1524" layer="21"/>
<wire x1="1.016" y1="0.635" x2="1.016" y2="-0.635" width="0.1524" layer="21"/>
<wire x1="1.016" y1="-0.635" x2="0" y2="0" width="0.1524" layer="21"/>
<wire x1="0" y1="0" x2="1.524" y2="0" width="0.1524" layer="21"/>
<wire x1="0" y1="0" x2="1.016" y2="0.635" width="0.1524" layer="21"/>
<wire x1="0" y1="0.635" x2="0" y2="0" width="0.1524" layer="21"/>
<wire x1="0" y1="0" x2="0" y2="-0.635" width="0.1524" layer="21"/>
<pad name="A" x="5.08" y="0" drill="1.1176"/>
<pad name="C" x="-5.08" y="0" drill="1.1176"/>
<text x="-2.032" y="1.651" size="1.27" layer="25" ratio="10">&gt;NAME</text>
<text x="-2.032" y="-2.794" size="1.27" layer="27" ratio="10">&gt;VALUE</text>
<rectangle x1="-1.651" y1="-1.27" x2="-1.143" y2="1.27" layer="21"/>
<rectangle x1="2.032" y1="-0.381" x2="3.937" y2="0.381" layer="21"/>
<rectangle x1="-3.937" y1="-0.381" x2="-2.032" y2="0.381" layer="21"/>
</package>
</packages>
</library>
<library name="optocoupler">
<description>&lt;b&gt;Opto Couplers&lt;/b&gt;&lt;p&gt;
Siemens, Hewlett-Packard, Texas Instuments, Sharp, Motorola&lt;p&gt;
&lt;author&gt;Created by librarian@cadsoft.de&lt;/author&gt;</description>
<packages>
<package name="DIL04">
<description>&lt;b&gt;Dual In Line Package&lt;/b&gt;</description>
<wire x1="2.54" y1="2.921" x2="-2.54" y2="2.921" width="0.1524" layer="21"/>
<wire x1="-2.54" y1="-2.921" x2="2.54" y2="-2.921" width="0.1524" layer="21"/>
<wire x1="2.54" y1="2.921" x2="2.54" y2="-2.921" width="0.1524" layer="21"/>
<wire x1="-2.54" y1="2.921" x2="-2.54" y2="1.016" width="0.1524" layer="21"/>
<wire x1="-2.54" y1="-2.921" x2="-2.54" y2="-1.016" width="0.1524" layer="21"/>
<wire x1="-2.54" y1="1.016" x2="-2.54" y2="-1.016" width="0.1524" layer="21" curve="-180"/>
<pad name="1" x="-1.27" y="-3.81" drill="0.8128" shape="offset" rot="R270"/>
<pad name="2" x="1.27" y="-3.81" drill="0.8128" shape="offset" rot="R270"/>
<pad name="3" x="1.27" y="3.81" drill="0.8128" shape="offset" rot="R90"/>
<pad name="4" x="-1.27" y="3.81" drill="0.8128" shape="offset" rot="R90"/>
<text x="4.191" y="-2.921" size="1.27" layer="27" ratio="10" rot="R90">&gt;VALUE</text>
<text x="-2.921" y="-2.667" size="1.27" layer="25" ratio="10" rot="R90">&gt;NAME</text>
</package>
</packages>
</library>
<library name="rcl">
<description>&lt;b&gt;Resistors, Capacitors, Inductors&lt;/b&gt;&lt;p&gt;
Based on the previous libraries:
&lt;ul&gt;
&lt;li&gt;r.lbr
&lt;li&gt;cap.lbr 
&lt;li&gt;cap-fe.lbr
&lt;li&gt;captant.lbr
&lt;li&gt;polcap.lbr
&lt;li&gt;ipc-smd.lbr
&lt;/ul&gt;
All SMD packages are defined according to the IPC specifications and  CECC&lt;p&gt;
&lt;author&gt;Created by librarian@cadsoft.de&lt;/author&gt;&lt;p&gt;
&lt;p&gt;
for Electrolyt Capacitors see also :&lt;p&gt;
www.bccomponents.com &lt;p&gt;
www.panasonic.com&lt;p&gt;
www.kemet.com&lt;p&gt;
http://www.secc.co.jp/pdf/os_e/2004/e_os_all.pdf &lt;b&gt;(SANYO)&lt;/b&gt;
&lt;p&gt;
for trimmer refence see : &lt;u&gt;www.electrospec-inc.com/cross_references/trimpotcrossref.asp&lt;/u&gt;&lt;p&gt;

&lt;table border=0 cellspacing=0 cellpadding=0 width="100%" cellpaddding=0&gt;
&lt;tr valign="top"&gt;

&lt;! &lt;td width="10"&gt;&amp;nbsp;&lt;/td&gt;
&lt;td width="90%"&gt;

&lt;b&gt;&lt;font color="#0000FF" size="4"&gt;TRIM-POT CROSS REFERENCE&lt;/font&gt;&lt;/b&gt;
&lt;P&gt;
&lt;TABLE BORDER=0 CELLSPACING=1 CELLPADDING=2&gt;
  &lt;TR&gt;
    &lt;TD COLSPAN=8&gt;
      &lt;FONT SIZE=3 FACE=ARIAL&gt;&lt;B&gt;RECTANGULAR MULTI-TURN&lt;/B&gt;&lt;/FONT&gt;
    &lt;/TD&gt;
  &lt;/TR&gt;
  &lt;TR&gt;
    &lt;TD ALIGN=CENTER&gt;
      &lt;B&gt;
      &lt;FONT SIZE=3 FACE=ARIAL color="#FF0000"&gt;BOURNS&lt;/FONT&gt;
      &lt;/B&gt;
    &lt;/TD&gt;
    &lt;TD ALIGN=CENTER&gt;
      &lt;B&gt;
      &lt;FONT SIZE=3 FACE=ARIAL color="#FF0000"&gt;BI&amp;nbsp;TECH&lt;/FONT&gt;
      &lt;/B&gt;
    &lt;/TD&gt;
    &lt;TD ALIGN=CENTER&gt;
      &lt;B&gt;
      &lt;FONT SIZE=3 FACE=ARIAL color="#FF0000"&gt;DALE-VISHAY&lt;/FONT&gt;
      &lt;/B&gt;
    &lt;/TD&gt;
    &lt;TD ALIGN=CENTER&gt;
      &lt;B&gt;
      &lt;FONT SIZE=3 FACE=ARIAL color="#FF0000"&gt;PHILIPS/MEPCO&lt;/FONT&gt;
      &lt;/B&gt;
    &lt;/TD&gt;
    &lt;TD ALIGN=CENTER&gt;
      &lt;B&gt;
      &lt;FONT SIZE=3 FACE=ARIAL color="#FF0000"&gt;MURATA&lt;/FONT&gt;
      &lt;/B&gt;
    &lt;/TD&gt;
    &lt;TD ALIGN=CENTER&gt;
      &lt;B&gt;
      &lt;FONT SIZE=3 FACE=ARIAL color="#FF0000"&gt;PANASONIC&lt;/FONT&gt;
      &lt;/B&gt;
    &lt;/TD&gt;
    &lt;TD ALIGN=CENTER&gt;
      &lt;B&gt;
      &lt;FONT SIZE=3 FACE=ARIAL color="#FF0000"&gt;SPECTROL&lt;/FONT&gt;
      &lt;/B&gt;
    &lt;/TD&gt;
    &lt;TD ALIGN=CENTER&gt;
      &lt;B&gt;
      &lt;FONT SIZE=3 FACE=ARIAL color="#FF0000"&gt;MILSPEC&lt;/FONT&gt;
      &lt;/B&gt;
    &lt;/TD&gt;&lt;TD&gt;&amp;nbsp;&lt;/TD&gt;
  &lt;/TR&gt;
  &lt;TR&gt;
    &lt;TD BGCOLOR="#cccccc" ALIGN=CENTER&gt;&lt;FONT FACE=ARIAL SIZE=3 &gt;
      3005P&lt;BR&gt;
      3006P&lt;BR&gt;
      3006W&lt;BR&gt;
      3006Y&lt;BR&gt;
      3009P&lt;BR&gt;
      3009W&lt;BR&gt;
      3009Y&lt;BR&gt;
      3057J&lt;BR&gt;
      3057L&lt;BR&gt;
      3057P&lt;BR&gt;
      3057Y&lt;BR&gt;
      3059J&lt;BR&gt;
      3059L&lt;BR&gt;
      3059P&lt;BR&gt;
      3059Y&lt;BR&gt;&lt;/FONT&gt;
    &lt;/TD&gt;
    &lt;TD BGCOLOR="#cccccc" ALIGN=CENTER&gt;&lt;FONT FACE=ARIAL SIZE=3&gt;
      -&lt;BR&gt;
      89P&lt;BR&gt;
      89W&lt;BR&gt;
      89X&lt;BR&gt;
      89PH&lt;BR&gt;
      76P&lt;BR&gt;
      89XH&lt;BR&gt;
      78SLT&lt;BR&gt;
      78L&amp;nbsp;ALT&lt;BR&gt;
      56P&amp;nbsp;ALT&lt;BR&gt;
      78P&amp;nbsp;ALT&lt;BR&gt;
      T8S&lt;BR&gt;
      78L&lt;BR&gt;
      56P&lt;BR&gt;
      78P&lt;BR&gt;&lt;/FONT&gt;
    &lt;/TD&gt;
    &lt;TD BGCOLOR="#cccccc" ALIGN=CENTER&gt;&lt;FONT FACE=ARIAL SIZE=3&gt;
      -&lt;BR&gt;
      T18/784&lt;BR&gt;
      783&lt;BR&gt;
      781&lt;BR&gt;
      -&lt;BR&gt;
      -&lt;BR&gt;
      -&lt;BR&gt;
      2199&lt;BR&gt;
      1697/1897&lt;BR&gt;
      1680/1880&lt;BR&gt;
      2187&lt;BR&gt;
      -&lt;BR&gt;
      -&lt;BR&gt;
      -&lt;BR&gt;
      -&lt;BR&gt;&lt;/FONT&gt;
    &lt;/TD&gt;
    &lt;TD BGCOLOR="#cccccc" ALIGN=CENTER&gt;&lt;FONT FACE=ARIAL SIZE=3&gt;
      -&lt;BR&gt;
      8035EKP/CT20/RJ-20P&lt;BR&gt;
      -&lt;BR&gt;
      RJ-20X&lt;BR&gt;
      -&lt;BR&gt;
      -&lt;BR&gt;
      -&lt;BR&gt;
      1211L&lt;BR&gt;
      8012EKQ&amp;nbsp;ALT&lt;BR&gt;
      8012EKR&amp;nbsp;ALT&lt;BR&gt;
      1211P&lt;BR&gt;
      8012EKJ&lt;BR&gt;
      8012EKL&lt;BR&gt;
      8012EKQ&lt;BR&gt;
      8012EKR&lt;BR&gt;&lt;/FONT&gt;
    &lt;/TD&gt;
    &lt;TD BGCOLOR="#cccccc" ALIGN=CENTER&gt;&lt;FONT FACE=ARIAL SIZE=3&gt;
      -&lt;BR&gt;
      2101P&lt;BR&gt;
      2101W&lt;BR&gt;
      2101Y&lt;BR&gt;
      -&lt;BR&gt;
      -&lt;BR&gt;
      -&lt;BR&gt;
      -&lt;BR&gt;
      -&lt;BR&gt;
      -&lt;BR&gt;
      -&lt;BR&gt;
      -&lt;BR&gt;
      2102L&lt;BR&gt;
      2102S&lt;BR&gt;
      2102Y&lt;BR&gt;&lt;/FONT&gt;
    &lt;/TD&gt;
    &lt;TD BGCOLOR="#cccccc" ALIGN=CENTER&gt;&lt;FONT FACE=ARIAL SIZE=3&gt;
      -&lt;BR&gt;
      EVMCOG&lt;BR&gt;
      -&lt;BR&gt;
      -&lt;BR&gt;
      -&lt;BR&gt;
      -&lt;BR&gt;
      -&lt;BR&gt;
      -&lt;BR&gt;
      -&lt;BR&gt;
      -&lt;BR&gt;
      -&lt;BR&gt;
      -&lt;BR&gt;
      -&lt;BR&gt;
      -&lt;BR&gt;
      -&lt;BR&gt;&lt;/FONT&gt;
    &lt;/TD&gt;
    &lt;TD BGCOLOR="#cccccc" ALIGN=CENTER&gt;&lt;FONT FACE=ARIAL SIZE=3&gt;
      -&lt;BR&gt;
      43P&lt;BR&gt;
      43W&lt;BR&gt;
      43Y&lt;BR&gt;
      -&lt;BR&gt;
      -&lt;BR&gt;
      -&lt;BR&gt;
      -&lt;BR&gt;
      40L&lt;BR&gt;
      40P&lt;BR&gt;
      40Y&lt;BR&gt;
      70Y-T602&lt;BR&gt;
      70L&lt;BR&gt;
      70P&lt;BR&gt;
      70Y&lt;BR&gt;&lt;/FONT&gt;
    &lt;/TD&gt;
    &lt;TD BGCOLOR="#cccccc" ALIGN=CENTER&gt;&lt;FONT FACE=ARIAL SIZE=3&gt;
      -&lt;BR&gt;
      -&lt;BR&gt;
      -&lt;BR&gt;
      -&lt;BR&gt;
      -&lt;BR&gt;
      -&lt;BR&gt;
      -&lt;BR&gt;
      -&lt;BR&gt;
      RT/RTR12&lt;BR&gt;
      RT/RTR12&lt;BR&gt;
      RT/RTR12&lt;BR&gt;
      -&lt;BR&gt;
      RJ/RJR12&lt;BR&gt;
      RJ/RJR12&lt;BR&gt;
      RJ/RJR12&lt;BR&gt;&lt;/FONT&gt;
    &lt;/TD&gt;
  &lt;/TR&gt;
  &lt;TR&gt;
    &lt;TD COLSPAN=8&gt;&amp;nbsp;
    &lt;/TD&gt;
  &lt;/TR&gt;
  &lt;TR&gt;
    &lt;TD COLSPAN=8&gt;
      &lt;FONT SIZE=4 FACE=ARIAL&gt;&lt;B&gt;SQUARE MULTI-TURN&lt;/B&gt;&lt;/FONT&gt;
    &lt;/TD&gt;
  &lt;/TR&gt;
  &lt;TR&gt;
   &lt;TD ALIGN=CENTER&gt;
      &lt;FONT SIZE=3 FACE=ARIAL&gt;&lt;B&gt;BOURN&lt;/B&gt;&lt;/FONT&gt;
    &lt;/TD&gt;
    &lt;TD ALIGN=CENTER&gt;
      &lt;FONT SIZE=3 FACE=ARIAL&gt;&lt;B&gt;BI&amp;nbsp;TECH&lt;/B&gt;&lt;/FONT&gt;
    &lt;/TD&gt;
    &lt;TD ALIGN=CENTER&gt;
      &lt;FONT SIZE=3 FACE=ARIAL&gt;&lt;B&gt;DALE-VISHAY&lt;/B&gt;&lt;/FONT&gt;
    &lt;/TD&gt;
    &lt;TD ALIGN=CENTER&gt;
      &lt;FONT SIZE=3 FACE=ARIAL&gt;&lt;B&gt;PHILIPS/MEPCO&lt;/B&gt;&lt;/FONT&gt;
    &lt;/TD&gt;
    &lt;TD ALIGN=CENTER&gt;
      &lt;FONT SIZE=3 FACE=ARIAL&gt;&lt;B&gt;MURATA&lt;/B&gt;&lt;/FONT&gt;
    &lt;/TD&gt;
    &lt;TD ALIGN=CENTER&gt;
      &lt;FONT SIZE=3 FACE=ARIAL&gt;&lt;B&gt;PANASONIC&lt;/B&gt;&lt;/FONT&gt;
    &lt;/TD&gt;
    &lt;TD ALIGN=CENTER&gt;
      &lt;FONT SIZE=3 FACE=ARIAL&gt;&lt;B&gt;SPECTROL&lt;/B&gt;&lt;/FONT&gt;
    &lt;/TD&gt;
    &lt;TD ALIGN=CENTER&gt;
      &lt;FONT SIZE=3 FACE=ARIAL&gt;&lt;B&gt;MILSPEC&lt;/B&gt;&lt;/FONT&gt;
    &lt;/TD&gt;
  &lt;/TR&gt;
  &lt;TR&gt;
    &lt;TD BGCOLOR="#cccccc" ALIGN=CENTER&gt;&lt;FONT FACE=ARIAL SIZE=3&gt;
      3250L&lt;BR&gt;
      3250P&lt;BR&gt;
      3250W&lt;BR&gt;
      3250X&lt;BR&gt;
      3252P&lt;BR&gt;
      3252W&lt;BR&gt;
      3252X&lt;BR&gt;
      3260P&lt;BR&gt;
      3260W&lt;BR&gt;
      3260X&lt;BR&gt;
      3262P&lt;BR&gt;
      3262W&lt;BR&gt;
      3262X&lt;BR&gt;
      3266P&lt;BR&gt;
      3266W&lt;BR&gt;
      3266X&lt;BR&gt;
      3290H&lt;BR&gt;
      3290P&lt;BR&gt;
      3290W&lt;BR&gt;
      3292P&lt;BR&gt;
      3292W&lt;BR&gt;
      3292X&lt;BR&gt;
      3296P&lt;BR&gt;
      3296W&lt;BR&gt;
      3296X&lt;BR&gt;
      3296Y&lt;BR&gt;
      3296Z&lt;BR&gt;
      3299P&lt;BR&gt;
      3299W&lt;BR&gt;
      3299X&lt;BR&gt;
      3299Y&lt;BR&gt;
      3299Z&lt;BR&gt;&lt;/FONT&gt;
    &lt;/TD&gt;
    &lt;TD BGCOLOR="#cccccc" ALIGN=CENTER&gt;&lt;FONT FACE=ARIAL SIZE=3&gt;
      -&lt;BR&gt;
      66P&amp;nbsp;ALT&lt;BR&gt;
      66W&amp;nbsp;ALT&lt;BR&gt;
      66X&amp;nbsp;ALT&lt;BR&gt;
      66P&amp;nbsp;ALT&lt;BR&gt;
      66W&amp;nbsp;ALT&lt;BR&gt;
      66X&amp;nbsp;ALT&lt;BR&gt;
      -&lt;BR&gt;
      64W&amp;nbsp;ALT&lt;BR&gt;
      -&lt;BR&gt;
      64P&amp;nbsp;ALT&lt;BR&gt;
      64W&amp;nbsp;ALT&lt;BR&gt;
      64X&amp;nbsp;ALT&lt;BR&gt;
      64P&lt;BR&gt;
      64W&lt;BR&gt;
      64X&lt;BR&gt;
      66X&amp;nbsp;ALT&lt;BR&gt;
      66P&amp;nbsp;ALT&lt;BR&gt;
      66W&amp;nbsp;ALT&lt;BR&gt;
      66P&lt;BR&gt;
      66W&lt;BR&gt;
      66X&lt;BR&gt;
      67P&lt;BR&gt;
      67W&lt;BR&gt;
      67X&lt;BR&gt;
      67Y&lt;BR&gt;
      67Z&lt;BR&gt;
      68P&lt;BR&gt;
      68W&lt;BR&gt;
      68X&lt;BR&gt;
      67Y&amp;nbsp;ALT&lt;BR&gt;
      67Z&amp;nbsp;ALT&lt;BR&gt;&lt;/FONT&gt;
    &lt;/TD&gt;
    &lt;TD BGCOLOR="#cccccc" ALIGN=CENTER&gt;&lt;FONT FACE=ARIAL SIZE=3&gt;
      5050&lt;BR&gt;
      5091&lt;BR&gt;
      5080&lt;BR&gt;
      5087&lt;BR&gt;
      -&lt;BR&gt;
      -&lt;BR&gt;
      -&lt;BR&gt;
      -&lt;BR&gt;
      -&lt;BR&gt;
      -&lt;BR&gt;
      -&lt;BR&gt;
      T63YB&lt;BR&gt;
      T63XB&lt;BR&gt;
      -&lt;BR&gt;
      -&lt;BR&gt;
      -&lt;BR&gt;
      5887&lt;BR&gt;
      5891&lt;BR&gt;
      5880&lt;BR&gt;
      -&lt;BR&gt;
      -&lt;BR&gt;
      -&lt;BR&gt;
      T93Z&lt;BR&gt;
      T93YA&lt;BR&gt;
      T93XA&lt;BR&gt;
      T93YB&lt;BR&gt;
      T93XB&lt;BR&gt;
      -&lt;BR&gt;
      -&lt;BR&gt;
      -&lt;BR&gt;
      -&lt;BR&gt;
      -&lt;BR&gt;&lt;/FONT&gt;
    &lt;/TD&gt;
    &lt;TD BGCOLOR="#cccccc" ALIGN=CENTER&gt;&lt;FONT FACE=ARIAL SIZE=3&gt;
      -&lt;BR&gt;
      -&lt;BR&gt;
      -&lt;BR&gt;
      -&lt;BR&gt;
      -&lt;BR&gt;
      -&lt;BR&gt;
      -&lt;BR&gt;
      -&lt;BR&gt;
      -&lt;BR&gt;
      -&lt;BR&gt;
      8026EKP&lt;BR&gt;
      8026EKW&lt;BR&gt;
      8026EKM&lt;BR&gt;
      8026EKP&lt;BR&gt;
      8026EKB&lt;BR&gt;
      8026EKM&lt;BR&gt;
      1309X&lt;BR&gt;
      1309P&lt;BR&gt;
      1309W&lt;BR&gt;
      8024EKP&lt;BR&gt;
      8024EKW&lt;BR&gt;
      8024EKN&lt;BR&gt;
      RJ-9P/CT9P&lt;BR&gt;
      RJ-9W&lt;BR&gt;
      RJ-9X&lt;BR&gt;
      -&lt;BR&gt;
      -&lt;BR&gt;
      -&lt;BR&gt;
      -&lt;BR&gt;
      -&lt;BR&gt;
      -&lt;BR&gt;
      -&lt;BR&gt;&lt;/FONT&gt;
    &lt;/TD&gt;
    &lt;TD BGCOLOR="#cccccc" ALIGN=CENTER&gt;&lt;FONT FACE=ARIAL SIZE=3&gt;
      -&lt;BR&gt;
      -&lt;BR&gt;
      -&lt;BR&gt;
      -&lt;BR&gt;
      -&lt;BR&gt;
      -&lt;BR&gt;
      -&lt;BR&gt;
      -&lt;BR&gt;
      -&lt;BR&gt;
      -&lt;BR&gt;
      3103P&lt;BR&gt;
      3103Y&lt;BR&gt;
      3103Z&lt;BR&gt;
      3103P&lt;BR&gt;
      3103Y&lt;BR&gt;
      3103Z&lt;BR&gt;
      -&lt;BR&gt;
      -&lt;BR&gt;
      -&lt;BR&gt;
      -&lt;BR&gt;
      -&lt;BR&gt;
      -&lt;BR&gt;
      3105P/3106P&lt;BR&gt;
      3105W/3106W&lt;BR&gt;
      3105X/3106X&lt;BR&gt;
      3105Y/3106Y&lt;BR&gt;
      3105Z/3105Z&lt;BR&gt;
      3102P&lt;BR&gt;
      3102W&lt;BR&gt;
      3102X&lt;BR&gt;
      3102Y&lt;BR&gt;
      3102Z&lt;BR&gt;&lt;/FONT&gt;
    &lt;/TD&gt;
    &lt;TD BGCOLOR="#cccccc" ALIGN=CENTER&gt;&lt;FONT FACE=ARIAL SIZE=3&gt;
      -&lt;BR&gt;
      -&lt;BR&gt;
      -&lt;BR&gt;
      -&lt;BR&gt;
      -&lt;BR&gt;
      -&lt;BR&gt;
      -&lt;BR&gt;
      -&lt;BR&gt;
      -&lt;BR&gt;
      -&lt;BR&gt;
      -&lt;BR&gt;
      -&lt;BR&gt;
      -&lt;BR&gt;
      -&lt;BR&gt;
      -&lt;BR&gt;
      -&lt;BR&gt;
      -&lt;BR&gt;
      -&lt;BR&gt;
      -&lt;BR&gt;
      -&lt;BR&gt;
      -&lt;BR&gt;
      -&lt;BR&gt;
      EVMCBG&lt;BR&gt;
      EVMCCG&lt;BR&gt;
      -&lt;BR&gt;
      -&lt;BR&gt;
      -&lt;BR&gt;
      -&lt;BR&gt;
      -&lt;BR&gt;
      -&lt;BR&gt;
      -&lt;BR&gt;
      -&lt;BR&gt;&lt;/FONT&gt;
    &lt;/TD&gt;
    &lt;TD BGCOLOR="#cccccc" ALIGN=CENTER&gt;&lt;FONT FACE=ARIAL SIZE=3&gt;
      55-1-X&lt;BR&gt;
      55-4-X&lt;BR&gt;
      55-3-X&lt;BR&gt;
      55-2-X&lt;BR&gt;
      -&lt;BR&gt;
      -&lt;BR&gt;
      -&lt;BR&gt;
      -&lt;BR&gt;
      -&lt;BR&gt;
      -&lt;BR&gt;
      -&lt;BR&gt;
      -&lt;BR&gt;
      -&lt;BR&gt;
      -&lt;BR&gt;
      -&lt;BR&gt;
      -&lt;BR&gt;
      50-2-X&lt;BR&gt;
      50-4-X&lt;BR&gt;
      50-3-X&lt;BR&gt;
      -&lt;BR&gt;
      -&lt;BR&gt;
      -&lt;BR&gt;
      64P&lt;BR&gt;
      64W&lt;BR&gt;
      64X&lt;BR&gt;
      64Y&lt;BR&gt;
      64Z&lt;BR&gt;
      -&lt;BR&gt;
      -&lt;BR&gt;
      -&lt;BR&gt;
      -&lt;BR&gt;
      -&lt;BR&gt;&lt;/FONT&gt;
    &lt;/TD&gt;
    &lt;TD BGCOLOR="#cccccc" ALIGN=CENTER&gt;&lt;FONT FACE=ARIAL SIZE=3&gt;
      RT/RTR22&lt;BR&gt;
      RT/RTR22&lt;BR&gt;
      RT/RTR22&lt;BR&gt;
      RT/RTR22&lt;BR&gt;
      RJ/RJR22&lt;BR&gt;
      RJ/RJR22&lt;BR&gt;
      RJ/RJR22&lt;BR&gt;
      RT/RTR26&lt;BR&gt;
      RT/RTR26&lt;BR&gt;
      RT/RTR26&lt;BR&gt;
      RJ/RJR26&lt;BR&gt;
      RJ/RJR26&lt;BR&gt;
      RJ/RJR26&lt;BR&gt;
      RJ/RJR26&lt;BR&gt;
      RJ/RJR26&lt;BR&gt;
      RJ/RJR26&lt;BR&gt;
      RT/RTR24&lt;BR&gt;
      RT/RTR24&lt;BR&gt;
      RT/RTR24&lt;BR&gt;
      RJ/RJR24&lt;BR&gt;
      RJ/RJR24&lt;BR&gt;
      RJ/RJR24&lt;BR&gt;
      RJ/RJR24&lt;BR&gt;
      RJ/RJR24&lt;BR&gt;
      RJ/RJR24&lt;BR&gt;
      -&lt;BR&gt;
      -&lt;BR&gt;
      -&lt;BR&gt;
      -&lt;BR&gt;
      -&lt;BR&gt;
      -&lt;BR&gt;
      -&lt;BR&gt;&lt;/FONT&gt;
    &lt;/TD&gt;
  &lt;/TR&gt;
  &lt;TR&gt;
    &lt;TD COLSPAN=8&gt;&amp;nbsp;
    &lt;/TD&gt;
  &lt;/TR&gt;
  &lt;TR&gt;
    &lt;TD COLSPAN=8&gt;
      &lt;FONT SIZE=4 FACE=ARIAL&gt;&lt;B&gt;SINGLE TURN&lt;/B&gt;&lt;/FONT&gt;
    &lt;/TD&gt;
  &lt;/TR&gt;
  &lt;TR&gt;
    &lt;TD ALIGN=CENTER&gt;
      &lt;FONT SIZE=3 FACE=ARIAL&gt;&lt;B&gt;BOURN&lt;/B&gt;&lt;/FONT&gt;
    &lt;/TD&gt;
    &lt;TD ALIGN=CENTER&gt;
      &lt;FONT SIZE=3 FACE=ARIAL&gt;&lt;B&gt;BI&amp;nbsp;TECH&lt;/B&gt;&lt;/FONT&gt;
    &lt;/TD&gt;
    &lt;TD ALIGN=CENTER&gt;
      &lt;FONT SIZE=3 FACE=ARIAL&gt;&lt;B&gt;DALE-VISHAY&lt;/B&gt;&lt;/FONT&gt;
    &lt;/TD&gt;
    &lt;TD ALIGN=CENTER&gt;
      &lt;FONT SIZE=3 FACE=ARIAL&gt;&lt;B&gt;PHILIPS/MEPCO&lt;/B&gt;&lt;/FONT&gt;
    &lt;/TD&gt;
    &lt;TD ALIGN=CENTER&gt;
      &lt;FONT SIZE=3 FACE=ARIAL&gt;&lt;B&gt;MURATA&lt;/B&gt;&lt;/FONT&gt;
    &lt;/TD&gt;
    &lt;TD ALIGN=CENTER&gt;
      &lt;FONT SIZE=3 FACE=ARIAL&gt;&lt;B&gt;PANASONIC&lt;/B&gt;&lt;/FONT&gt;
    &lt;/TD&gt;
    &lt;TD ALIGN=CENTER&gt;
      &lt;FONT SIZE=3 FACE=ARIAL&gt;&lt;B&gt;SPECTROL&lt;/B&gt;&lt;/FONT&gt;
    &lt;/TD&gt;
    &lt;TD ALIGN=CENTER&gt;
      &lt;FONT SIZE=3 FACE=ARIAL&gt;&lt;B&gt;MILSPEC&lt;/B&gt;&lt;/FONT&gt;
    &lt;/TD&gt;
  &lt;/TR&gt;
  &lt;TR&gt;
    &lt;TD BGCOLOR="#cccccc" ALIGN=CENTER&gt;&lt;FONT FACE=ARIAL SIZE=3&gt;
      3323P&lt;BR&gt;
      3323S&lt;BR&gt;
      3323W&lt;BR&gt;
      3329H&lt;BR&gt;
      3329P&lt;BR&gt;
      3329W&lt;BR&gt;
      3339H&lt;BR&gt;
      3339P&lt;BR&gt;
      3339W&lt;BR&gt;
      3352E&lt;BR&gt;
      3352H&lt;BR&gt;
      3352K&lt;BR&gt;
      3352P&lt;BR&gt;
      3352T&lt;BR&gt;
      3352V&lt;BR&gt;
      3352W&lt;BR&gt;
      3362H&lt;BR&gt;
      3362M&lt;BR&gt;
      3362P&lt;BR&gt;
      3362R&lt;BR&gt;
      3362S&lt;BR&gt;
      3362U&lt;BR&gt;
      3362W&lt;BR&gt;
      3362X&lt;BR&gt;
      3386B&lt;BR&gt;
      3386C&lt;BR&gt;
      3386F&lt;BR&gt;
      3386H&lt;BR&gt;
      3386K&lt;BR&gt;
      3386M&lt;BR&gt;
      3386P&lt;BR&gt;
      3386S&lt;BR&gt;
      3386W&lt;BR&gt;
      3386X&lt;BR&gt;&lt;/FONT&gt;
    &lt;/TD&gt;
    &lt;TD BGCOLOR="#cccccc" ALIGN=CENTER&gt;&lt;FONT FACE=ARIAL SIZE=3&gt;
      25P&lt;BR&gt;
      25S&lt;BR&gt;
      25RX&lt;BR&gt;
      82P&lt;BR&gt;
      82M&lt;BR&gt;
      82PA&lt;BR&gt;
      -&lt;BR&gt;
      -&lt;BR&gt;
      -&lt;BR&gt;
      91E&lt;BR&gt;
      91X&lt;BR&gt;
      91T&lt;BR&gt;
      91B&lt;BR&gt;
      91A&lt;BR&gt;
      91V&lt;BR&gt;
      91W&lt;BR&gt;
      25W&lt;BR&gt;
      25V&lt;BR&gt;
      25P&lt;BR&gt;
      -&lt;BR&gt;
      25S&lt;BR&gt;
      25U&lt;BR&gt;
      25RX&lt;BR&gt;
      25X&lt;BR&gt;
      72XW&lt;BR&gt;
      72XL&lt;BR&gt;
      72PM&lt;BR&gt;
      72RX&lt;BR&gt;
      -&lt;BR&gt;
      72PX&lt;BR&gt;
      72P&lt;BR&gt;
      72RXW&lt;BR&gt;
      72RXL&lt;BR&gt;
      72X&lt;BR&gt;&lt;/FONT&gt;
    &lt;/TD&gt;
    &lt;TD BGCOLOR="#cccccc" ALIGN=CENTER&gt;&lt;FONT FACE=ARIAL SIZE=3&gt;
      -&lt;BR&gt;
      -&lt;BR&gt;
      -&lt;BR&gt;
      T7YB&lt;BR&gt;
      T7YA&lt;BR&gt;
      -&lt;BR&gt;
      -&lt;BR&gt;
      -&lt;BR&gt;
      -&lt;BR&gt;
      -&lt;BR&gt;
      -&lt;BR&gt;
      -&lt;BR&gt;
      -&lt;BR&gt;
      -&lt;BR&gt;
      -&lt;BR&gt;
      -&lt;BR&gt;
      -&lt;BR&gt;
      TXD&lt;BR&gt;
      TYA&lt;BR&gt;
      TYP&lt;BR&gt;
      -&lt;BR&gt;
      TYD&lt;BR&gt;
      TX&lt;BR&gt;
      -&lt;BR&gt;
      150SX&lt;BR&gt;
      100SX&lt;BR&gt;
      102T&lt;BR&gt;
      101S&lt;BR&gt;
      190T&lt;BR&gt;
      150TX&lt;BR&gt;
      101&lt;BR&gt;
      -&lt;BR&gt;
      -&lt;BR&gt;
      101SX&lt;BR&gt;&lt;/FONT&gt;
    &lt;/TD&gt;
    &lt;TD BGCOLOR="#cccccc" ALIGN=CENTER&gt;&lt;FONT FACE=ARIAL SIZE=3&gt;
      ET6P&lt;BR&gt;
      ET6S&lt;BR&gt;
      ET6X&lt;BR&gt;
      RJ-6W/8014EMW&lt;BR&gt;
      RJ-6P/8014EMP&lt;BR&gt;
      RJ-6X/8014EMX&lt;BR&gt;
      TM7W&lt;BR&gt;
      TM7P&lt;BR&gt;
      TM7X&lt;BR&gt;
      -&lt;BR&gt;
      8017SMS&lt;BR&gt;
      -&lt;BR&gt;
      8017SMB&lt;BR&gt;
      8017SMA&lt;BR&gt;
      -&lt;BR&gt;
      -&lt;BR&gt;
      CT-6W&lt;BR&gt;
      CT-6H&lt;BR&gt;
      CT-6P&lt;BR&gt;
      CT-6R&lt;BR&gt;
      -&lt;BR&gt;
      CT-6V&lt;BR&gt;
      CT-6X&lt;BR&gt;
      -&lt;BR&gt;
      -&lt;BR&gt;
      8038EKV&lt;BR&gt;
      -&lt;BR&gt;
      8038EKX&lt;BR&gt;
      -&lt;BR&gt;
      -&lt;BR&gt;
      8038EKP&lt;BR&gt;
      8038EKZ&lt;BR&gt;
      8038EKW&lt;BR&gt;
      -&lt;BR&gt;&lt;/FONT&gt;
    &lt;/TD&gt;
    &lt;TD BGCOLOR="#cccccc" ALIGN=CENTER&gt;&lt;FONT FACE=ARIAL SIZE=3&gt;
      -&lt;BR&gt;
      -&lt;BR&gt;
      -&lt;BR&gt;
      3321H&lt;BR&gt;
      3321P&lt;BR&gt;
      3321N&lt;BR&gt;
      1102H&lt;BR&gt;
      1102P&lt;BR&gt;
      1102T&lt;BR&gt;
      RVA0911V304A&lt;BR&gt;
      -&lt;BR&gt;
      RVA0911H413A&lt;BR&gt;
      RVG0707V100A&lt;BR&gt;
      RVA0607V(H)306A&lt;BR&gt;
      RVA1214H213A&lt;BR&gt;
      -&lt;BR&gt;
      -&lt;BR&gt;
      -&lt;BR&gt;
      -&lt;BR&gt;
      -&lt;BR&gt;
      -&lt;BR&gt;
      -&lt;BR&gt;
      -&lt;BR&gt;
      -&lt;BR&gt;
      3104B&lt;BR&gt;
      3104C&lt;BR&gt;
      3104F&lt;BR&gt;
      3104H&lt;BR&gt;
      -&lt;BR&gt;
      3104M&lt;BR&gt;
      3104P&lt;BR&gt;
      3104S&lt;BR&gt;
      3104W&lt;BR&gt;
      3104X&lt;BR&gt;&lt;/FONT&gt;
    &lt;/TD&gt;
    &lt;TD BGCOLOR="#cccccc" ALIGN=CENTER&gt;&lt;FONT FACE=ARIAL SIZE=3&gt;
      EVMQ0G&lt;BR&gt;
      EVMQIG&lt;BR&gt;
      EVMQ3G&lt;BR&gt;
      EVMS0G&lt;BR&gt;
      EVMQ0G&lt;BR&gt;
      EVMG0G&lt;BR&gt;
      -&lt;BR&gt;
      -&lt;BR&gt;
      -&lt;BR&gt;
      EVMK4GA00B&lt;BR&gt;
      EVM30GA00B&lt;BR&gt;
      EVMK0GA00B&lt;BR&gt;
      EVM38GA00B&lt;BR&gt;
      EVMB6&lt;BR&gt;
      EVLQ0&lt;BR&gt;
      -&lt;BR&gt;
      EVMMSG&lt;BR&gt;
      EVMMBG&lt;BR&gt;
      EVMMAG&lt;BR&gt;
      -&lt;BR&gt;
      -&lt;BR&gt;
      EVMMCS&lt;BR&gt;
      -&lt;BR&gt;
      -&lt;BR&gt;
      -&lt;BR&gt;
      -&lt;BR&gt;
      -&lt;BR&gt;
      EVMM1&lt;BR&gt;
      -&lt;BR&gt;
      -&lt;BR&gt;
      EVMM0&lt;BR&gt;
      -&lt;BR&gt;
      -&lt;BR&gt;
      EVMM3&lt;BR&gt;&lt;/FONT&gt;
    &lt;/TD&gt;
    &lt;TD BGCOLOR="#cccccc" ALIGN=CENTER&gt;&lt;FONT FACE=ARIAL SIZE=3&gt;
      -&lt;BR&gt;
      -&lt;BR&gt;
      -&lt;BR&gt;
      62-3-1&lt;BR&gt;
      62-1-2&lt;BR&gt;
      -&lt;BR&gt;
      -&lt;BR&gt;
      -&lt;BR&gt;
      -&lt;BR&gt;
      -&lt;BR&gt;
      -&lt;BR&gt;
      -&lt;BR&gt;
      -&lt;BR&gt;
      -&lt;BR&gt;
      -&lt;BR&gt;
      -&lt;BR&gt;
      67R&lt;BR&gt;
      -&lt;BR&gt;
      67P&lt;BR&gt;
      -&lt;BR&gt;
      -&lt;BR&gt;
      -&lt;BR&gt;
      -&lt;BR&gt;
      67X&lt;BR&gt;
      63V&lt;BR&gt;
      63S&lt;BR&gt;
      63M&lt;BR&gt;
      -&lt;BR&gt;
      -&lt;BR&gt;
      63H&lt;BR&gt;
      63P&lt;BR&gt;
      -&lt;BR&gt;
      -&lt;BR&gt;
      63X&lt;BR&gt;&lt;/FONT&gt;
    &lt;/TD&gt;
    &lt;TD BGCOLOR="#cccccc" ALIGN=CENTER&gt;&lt;FONT FACE=ARIAL SIZE=3&gt;
      -&lt;BR&gt;
      -&lt;BR&gt;
      -&lt;BR&gt;
      RJ/RJR50&lt;BR&gt;
      RJ/RJR50&lt;BR&gt;
      RJ/RJR50&lt;BR&gt;
      -&lt;BR&gt;
      -&lt;BR&gt;
      -&lt;BR&gt;
      -&lt;BR&gt;
      -&lt;BR&gt;
      -&lt;BR&gt;
      -&lt;BR&gt;
      -&lt;BR&gt;
      -&lt;BR&gt;
      -&lt;BR&gt;
      -&lt;BR&gt;
      -&lt;BR&gt;
      -&lt;BR&gt;
      -&lt;BR&gt;
      -&lt;BR&gt;
      -&lt;BR&gt;
      -&lt;BR&gt;
      -&lt;BR&gt;
      -&lt;BR&gt;
      -&lt;BR&gt;
      -&lt;BR&gt;
      -&lt;BR&gt;
      -&lt;BR&gt;
      -&lt;BR&gt;
      -&lt;BR&gt;
      -&lt;BR&gt;
      -&lt;BR&gt;
      -&lt;BR&gt;&lt;/FONT&gt;
    &lt;/TD&gt;
  &lt;/TR&gt;
&lt;/TABLE&gt;
&lt;P&gt;&amp;nbsp;&lt;P&gt;
&lt;TABLE BORDER=0 CELLSPACING=1 CELLPADDING=3&gt;
  &lt;TR&gt;
    &lt;TD COLSPAN=7&gt;
      &lt;FONT color="#0000FF" SIZE=4 FACE=ARIAL&gt;&lt;B&gt;SMD TRIM-POT CROSS REFERENCE&lt;/B&gt;&lt;/FONT&gt;
      &lt;P&gt;
      &lt;FONT SIZE=4 FACE=ARIAL&gt;&lt;B&gt;MULTI-TURN&lt;/B&gt;&lt;/FONT&gt;
    &lt;/TD&gt;
  &lt;/TR&gt;
  &lt;TR&gt;
    &lt;TD&gt;
      &lt;FONT SIZE=3 FACE=ARIAL&gt;&lt;B&gt;BOURNS&lt;/B&gt;&lt;/FONT&gt;
    &lt;/TD&gt;
    &lt;TD&gt;
      &lt;FONT SIZE=3 FACE=ARIAL&gt;&lt;B&gt;BI&amp;nbsp;TECH&lt;/B&gt;&lt;/FONT&gt;
    &lt;/TD&gt;
    &lt;TD&gt;
      &lt;FONT SIZE=3 FACE=ARIAL&gt;&lt;B&gt;DALE-VISHAY&lt;/B&gt;&lt;/FONT&gt;
    &lt;/TD&gt;
    &lt;TD&gt;
      &lt;FONT SIZE=3 FACE=ARIAL&gt;&lt;B&gt;PHILIPS/MEPCO&lt;/B&gt;&lt;/FONT&gt;
    &lt;/TD&gt;
    &lt;TD&gt;
      &lt;FONT SIZE=3 FACE=ARIAL&gt;&lt;B&gt;PANASONIC&lt;/B&gt;&lt;/FONT&gt;
    &lt;/TD&gt;
    &lt;TD&gt;
      &lt;FONT SIZE=3 FACE=ARIAL&gt;&lt;B&gt;TOCOS&lt;/B&gt;&lt;/FONT&gt;
    &lt;/TD&gt;
    &lt;TD&gt;
      &lt;FONT SIZE=3 FACE=ARIAL&gt;&lt;B&gt;AUX/KYOCERA&lt;/B&gt;&lt;/FONT&gt;
    &lt;/TD&gt;
  &lt;/TR&gt;
  &lt;TR&gt;
    &lt;TD BGCOLOR="#cccccc" ALIGN=CENTER&gt;&lt;FONT FACE=ARIAL SIZE=3&gt;
      3224G&lt;BR&gt;
      3224J&lt;BR&gt;
      3224W&lt;BR&gt;
      3269P&lt;BR&gt;
      3269W&lt;BR&gt;
      3269X&lt;BR&gt;&lt;/FONT&gt;
    &lt;/TD&gt;
    &lt;TD BGCOLOR="#cccccc" ALIGN=CENTER&gt;&lt;FONT FACE=ARIAL SIZE=3&gt;
      44G&lt;BR&gt;
      44J&lt;BR&gt;
      44W&lt;BR&gt;
      84P&lt;BR&gt;
      84W&lt;BR&gt;
      84X&lt;BR&gt;&lt;/FONT&gt;
    &lt;/TD&gt;
    &lt;TD BGCOLOR="#cccccc" ALIGN=CENTER&gt;&lt;FONT FACE=ARIAL SIZE=3&gt;
      -&lt;BR&gt;
      -&lt;BR&gt;
      -&lt;BR&gt;
      ST63Z&lt;BR&gt;
      ST63Y&lt;BR&gt;
      -&lt;BR&gt;&lt;/FONT&gt;
    &lt;/TD&gt;
    &lt;TD BGCOLOR="#cccccc" ALIGN=CENTER&gt;&lt;FONT FACE=ARIAL SIZE=3&gt;
      -&lt;BR&gt;
      -&lt;BR&gt;
      -&lt;BR&gt;
      ST5P&lt;BR&gt;
      ST5W&lt;BR&gt;
      ST5X&lt;BR&gt;&lt;/FONT&gt;
    &lt;/TD&gt;
    &lt;TD BGCOLOR="#cccccc" ALIGN=CENTER&gt;&lt;FONT FACE=ARIAL SIZE=3&gt;
      -&lt;BR&gt;
      -&lt;BR&gt;
      -&lt;BR&gt;
      -&lt;BR&gt;
      -&lt;BR&gt;
      -&lt;BR&gt;&lt;/FONT&gt;
    &lt;/TD&gt;
    &lt;TD BGCOLOR="#cccccc" ALIGN=CENTER&gt;&lt;FONT FACE=ARIAL SIZE=3&gt;
      -&lt;BR&gt;
      -&lt;BR&gt;
      -&lt;BR&gt;
      -&lt;BR&gt;
      -&lt;BR&gt;
      -&lt;BR&gt;&lt;/FONT&gt;
    &lt;/TD&gt;
    &lt;TD BGCOLOR="#cccccc" ALIGN=CENTER&gt;&lt;FONT FACE=ARIAL SIZE=3&gt;
      -&lt;BR&gt;
      -&lt;BR&gt;
      -&lt;BR&gt;
      -&lt;BR&gt;
      -&lt;BR&gt;
      -&lt;BR&gt;&lt;/FONT&gt;
    &lt;/TD&gt;
  &lt;/TR&gt;
  &lt;TR&gt;
    &lt;TD COLSPAN=7&gt;&amp;nbsp;
    &lt;/TD&gt;
  &lt;/TR&gt;
  &lt;TR&gt;
    &lt;TD COLSPAN=7&gt;
      &lt;FONT SIZE=4 FACE=ARIAL&gt;&lt;B&gt;SINGLE TURN&lt;/B&gt;&lt;/FONT&gt;
    &lt;/TD&gt;
  &lt;/TR&gt;
  &lt;TR&gt;
    &lt;TD&gt;
      &lt;FONT SIZE=3 FACE=ARIAL&gt;&lt;B&gt;BOURNS&lt;/B&gt;&lt;/FONT&gt;
    &lt;/TD&gt;
    &lt;TD&gt;
      &lt;FONT SIZE=3 FACE=ARIAL&gt;&lt;B&gt;BI&amp;nbsp;TECH&lt;/B&gt;&lt;/FONT&gt;
    &lt;/TD&gt;
    &lt;TD&gt;
      &lt;FONT SIZE=3 FACE=ARIAL&gt;&lt;B&gt;DALE-VISHAY&lt;/B&gt;&lt;/FONT&gt;
    &lt;/TD&gt;
    &lt;TD&gt;
      &lt;FONT SIZE=3 FACE=ARIAL&gt;&lt;B&gt;PHILIPS/MEPCO&lt;/B&gt;&lt;/FONT&gt;
    &lt;/TD&gt;
    &lt;TD&gt;
      &lt;FONT SIZE=3 FACE=ARIAL&gt;&lt;B&gt;PANASONIC&lt;/B&gt;&lt;/FONT&gt;
    &lt;/TD&gt;
    &lt;TD&gt;
      &lt;FONT SIZE=3 FACE=ARIAL&gt;&lt;B&gt;TOCOS&lt;/B&gt;&lt;/FONT&gt;
    &lt;/TD&gt;
    &lt;TD&gt;
      &lt;FONT SIZE=3 FACE=ARIAL&gt;&lt;B&gt;AUX/KYOCERA&lt;/B&gt;&lt;/FONT&gt;
    &lt;/TD&gt;
  &lt;/TR&gt;
  &lt;TR&gt;
    &lt;TD BGCOLOR="#cccccc" ALIGN=CENTER&gt;&lt;FONT FACE=ARIAL SIZE=3&gt;
      3314G&lt;BR&gt;
      3314J&lt;BR&gt;
      3364A/B&lt;BR&gt;
      3364C/D&lt;BR&gt;
      3364W/X&lt;BR&gt;
      3313G&lt;BR&gt;
      3313J&lt;BR&gt;&lt;/FONT&gt;
    &lt;/TD&gt;
    &lt;TD BGCOLOR="#cccccc" ALIGN=CENTER&gt;&lt;FONT FACE=ARIAL SIZE=3&gt;
      23B&lt;BR&gt;
      23A&lt;BR&gt;
      21X&lt;BR&gt;
      21W&lt;BR&gt;
      -&lt;BR&gt;
      22B&lt;BR&gt;
      22A&lt;BR&gt;&lt;/FONT&gt;
    &lt;/TD&gt;
    &lt;TD BGCOLOR="#cccccc" ALIGN=CENTER&gt;&lt;FONT FACE=ARIAL SIZE=3&gt;
      ST5YL/ST53YL&lt;BR&gt;
      ST5YJ/5T53YJ&lt;BR&gt;
      ST-23A&lt;BR&gt;
      ST-22B&lt;BR&gt;
      ST-22&lt;BR&gt;
      -&lt;BR&gt;
      -&lt;BR&gt;&lt;/FONT&gt;
    &lt;/TD&gt;
    &lt;TD BGCOLOR="#cccccc" ALIGN=CENTER&gt;&lt;FONT FACE=ARIAL SIZE=3&gt;
      ST-4B&lt;BR&gt;
      ST-4A&lt;BR&gt;
      -&lt;BR&gt;
      -&lt;BR&gt;
      -&lt;BR&gt;
      ST-3B&lt;BR&gt;
      ST-3A&lt;BR&gt;&lt;/FONT&gt;
    &lt;/TD&gt;
    &lt;TD BGCOLOR="#cccccc" ALIGN=CENTER&gt;&lt;FONT FACE=ARIAL SIZE=3&gt;
      -&lt;BR&gt;
      EVM-6YS&lt;BR&gt;
      EVM-1E&lt;BR&gt;
      EVM-1G&lt;BR&gt;
      EVM-1D&lt;BR&gt;
      -&lt;BR&gt;
      -&lt;BR&gt;&lt;/FONT&gt;
    &lt;/TD&gt;
    &lt;TD BGCOLOR="#cccccc" ALIGN=CENTER&gt;&lt;FONT FACE=ARIAL SIZE=3&gt;
      G4B&lt;BR&gt;
      G4A&lt;BR&gt;
      TR04-3S1&lt;BR&gt;
      TRG04-2S1&lt;BR&gt;
      -&lt;BR&gt;
      -&lt;BR&gt;
      -&lt;BR&gt;&lt;/FONT&gt;
    &lt;/TD&gt;
    &lt;TD BGCOLOR="#cccccc" ALIGN=CENTER&gt;&lt;FONT FACE=ARIAL SIZE=3&gt;
      -&lt;BR&gt;
      -&lt;BR&gt;
      DVR-43A&lt;BR&gt;
      CVR-42C&lt;BR&gt;
      CVR-42A/C&lt;BR&gt;
      -&lt;BR&gt;
      -&lt;BR&gt;&lt;/FONT&gt;
    &lt;/TD&gt;
  &lt;/TR&gt;
&lt;/TABLE&gt;
&lt;P&gt;
&lt;FONT SIZE=4 FACE=ARIAL&gt;&lt;B&gt;ALT =&amp;nbsp;ALTERNATE&lt;/B&gt;&lt;/FONT&gt;
&lt;P&gt;

&amp;nbsp;
&lt;P&gt;
&lt;/td&gt;
&lt;/tr&gt;
&lt;/table&gt;</description>
<packages>
<package name="0204/5">
<description>&lt;b&gt;RESISTOR&lt;/b&gt;&lt;p&gt;
type 0204, grid 5 mm</description>
<wire x1="2.54" y1="0" x2="2.032" y2="0" width="0.508" layer="51"/>
<wire x1="-2.54" y1="0" x2="-2.032" y2="0" width="0.508" layer="51"/>
<wire x1="-1.778" y1="0.635" x2="-1.524" y2="0.889" width="0.1524" layer="21" curve="-90"/>
<wire x1="-1.778" y1="-0.635" x2="-1.524" y2="-0.889" width="0.1524" layer="21" curve="90"/>
<wire x1="1.524" y1="-0.889" x2="1.778" y2="-0.635" width="0.1524" layer="21" curve="90"/>
<wire x1="1.524" y1="0.889" x2="1.778" y2="0.635" width="0.1524" layer="21" curve="-90"/>
<wire x1="-1.778" y1="-0.635" x2="-1.778" y2="0.635" width="0.1524" layer="51"/>
<wire x1="-1.524" y1="0.889" x2="-1.27" y2="0.889" width="0.1524" layer="21"/>
<wire x1="-1.143" y1="0.762" x2="-1.27" y2="0.889" width="0.1524" layer="21"/>
<wire x1="-1.524" y1="-0.889" x2="-1.27" y2="-0.889" width="0.1524" layer="21"/>
<wire x1="-1.143" y1="-0.762" x2="-1.27" y2="-0.889" width="0.1524" layer="21"/>
<wire x1="1.143" y1="0.762" x2="1.27" y2="0.889" width="0.1524" layer="21"/>
<wire x1="1.143" y1="0.762" x2="-1.143" y2="0.762" width="0.1524" layer="21"/>
<wire x1="1.143" y1="-0.762" x2="1.27" y2="-0.889" width="0.1524" layer="21"/>
<wire x1="1.143" y1="-0.762" x2="-1.143" y2="-0.762" width="0.1524" layer="21"/>
<wire x1="1.524" y1="0.889" x2="1.27" y2="0.889" width="0.1524" layer="21"/>
<wire x1="1.524" y1="-0.889" x2="1.27" y2="-0.889" width="0.1524" layer="21"/>
<wire x1="1.778" y1="-0.635" x2="1.778" y2="0.635" width="0.1524" layer="51"/>
<pad name="1" x="-2.54" y="0" drill="0.8128" shape="octagon"/>
<pad name="2" x="2.54" y="0" drill="0.8128" shape="octagon"/>
<text x="-2.0066" y="1.1684" size="0.9906" layer="25" ratio="10">&gt;NAME</text>
<text x="-2.1336" y="-2.3114" size="0.9906" layer="27" ratio="10">&gt;VALUE</text>
<rectangle x1="-2.032" y1="-0.254" x2="-1.778" y2="0.254" layer="51"/>
<rectangle x1="1.778" y1="-0.254" x2="2.032" y2="0.254" layer="51"/>
</package>
<package name="C025-025X050">
<description>&lt;b&gt;CAPACITOR&lt;/b&gt;&lt;p&gt;
grid 2.5 mm, outline 2.5 x 5 mm</description>
<wire x1="-2.159" y1="1.27" x2="2.159" y2="1.27" width="0.1524" layer="21"/>
<wire x1="2.159" y1="-1.27" x2="-2.159" y2="-1.27" width="0.1524" layer="21"/>
<wire x1="2.413" y1="1.016" x2="2.413" y2="-1.016" width="0.1524" layer="21"/>
<wire x1="-2.413" y1="1.016" x2="-2.413" y2="-1.016" width="0.1524" layer="21"/>
<wire x1="2.159" y1="1.27" x2="2.413" y2="1.016" width="0.1524" layer="21" curve="-90"/>
<wire x1="-2.413" y1="1.016" x2="-2.159" y2="1.27" width="0.1524" layer="21" curve="-90"/>
<wire x1="2.159" y1="-1.27" x2="2.413" y2="-1.016" width="0.1524" layer="21" curve="90"/>
<wire x1="-2.413" y1="-1.016" x2="-2.159" y2="-1.27" width="0.1524" layer="21" curve="90"/>
<wire x1="0.762" y1="0" x2="0.381" y2="0" width="0.1524" layer="51"/>
<wire x1="0.381" y1="0" x2="0.254" y2="0" width="0.1524" layer="21"/>
<wire x1="0.254" y1="0" x2="0.254" y2="0.762" width="0.254" layer="21"/>
<wire x1="0.254" y1="0" x2="0.254" y2="-0.762" width="0.254" layer="21"/>
<wire x1="-0.254" y1="0.762" x2="-0.254" y2="0" width="0.254" layer="21"/>
<wire x1="-0.254" y1="0" x2="-0.254" y2="-0.762" width="0.254" layer="21"/>
<wire x1="-0.254" y1="0" x2="-0.381" y2="0" width="0.1524" layer="21"/>
<wire x1="-0.381" y1="0" x2="-0.762" y2="0" width="0.1524" layer="51"/>
<pad name="1" x="-1.27" y="0" drill="0.8128" shape="octagon"/>
<pad name="2" x="1.27" y="0" drill="0.8128" shape="octagon"/>
<text x="-2.286" y="1.524" size="1.27" layer="25" ratio="10">&gt;NAME</text>
<text x="-2.286" y="-2.794" size="1.27" layer="27" ratio="10">&gt;VALUE</text>
</package>
<package name="E2,5-5">
<description>&lt;b&gt;ELECTROLYTIC CAPACITOR&lt;/b&gt;&lt;p&gt;
grid 2.54 mm, diameter 5 mm</description>
<wire x1="-1.651" y1="1.27" x2="-1.397" y2="1.27" width="0.1524" layer="21"/>
<wire x1="-1.397" y1="1.016" x2="-1.397" y2="1.27" width="0.1524" layer="21"/>
<wire x1="-1.397" y1="1.27" x2="-1.143" y2="1.27" width="0.1524" layer="21"/>
<wire x1="-1.397" y1="1.27" x2="-1.397" y2="1.524" width="0.1524" layer="21"/>
<wire x1="-1.651" y1="0" x2="-0.762" y2="0" width="0.1524" layer="51"/>
<wire x1="-0.762" y1="0" x2="-0.762" y2="-1.27" width="0.1524" layer="51"/>
<wire x1="-0.762" y1="-1.27" x2="-0.254" y2="-1.27" width="0.1524" layer="51"/>
<wire x1="-0.254" y1="-1.27" x2="-0.254" y2="1.27" width="0.1524" layer="51"/>
<wire x1="-0.254" y1="1.27" x2="-0.762" y2="1.27" width="0.1524" layer="51"/>
<wire x1="-0.762" y1="1.27" x2="-0.762" y2="0" width="0.1524" layer="51"/>
<wire x1="0.635" y1="0" x2="1.651" y2="0" width="0.1524" layer="51"/>
<circle x="0" y="0" radius="2.54" width="0.1524" layer="21"/>
<pad name="-" x="1.27" y="0" drill="0.8128" diameter="1.6002" shape="octagon"/>
<pad name="+" x="-1.27" y="0" drill="0.8128" diameter="1.6002"/>
<text x="2.413" y="1.27" size="1.27" layer="25" ratio="10">&gt;NAME</text>
<text x="2.413" y="-2.413" size="1.27" layer="27" ratio="10">&gt;VALUE</text>
<rectangle x1="0.254" y1="-1.27" x2="0.762" y2="1.27" layer="51"/>
</package>
</packages>
</library>
<library name="transistor">
<description>&lt;b&gt;Transistors&lt;/b&gt;&lt;p&gt;
&lt;author&gt;Created by librarian@cadsoft.de&lt;/author&gt;</description>
<packages>
<package name="TO92">
<description>&lt;b&gt;TO 92&lt;/b&gt;</description>
<wire x1="-2.0946" y1="-1.651" x2="-2.6549" y2="-0.254" width="0.127" layer="21" curve="-32.781"/>
<wire x1="-2.6549" y1="-0.254" x2="-0.7863" y2="2.5485" width="0.127" layer="21" curve="-78.3185"/>
<wire x1="0.7863" y1="2.5484" x2="2.0945" y2="-1.651" width="0.127" layer="21" curve="-111.1"/>
<wire x1="-2.0945" y1="-1.651" x2="2.0945" y2="-1.651" width="0.127" layer="21"/>
<wire x1="-2.2537" y1="-0.254" x2="-0.2863" y2="-0.254" width="0.127" layer="51"/>
<wire x1="-2.6549" y1="-0.254" x2="-2.2537" y2="-0.254" width="0.127" layer="21"/>
<wire x1="-0.2863" y1="-0.254" x2="0.2863" y2="-0.254" width="0.127" layer="21"/>
<wire x1="2.2537" y1="-0.254" x2="2.6549" y2="-0.254" width="0.127" layer="21"/>
<wire x1="0.2863" y1="-0.254" x2="2.2537" y2="-0.254" width="0.127" layer="51"/>
<wire x1="-0.7863" y1="2.5485" x2="0.7863" y2="2.5485" width="0.127" layer="51" curve="-34.2936"/>
<pad name="1" x="1.27" y="0" drill="0.8128" shape="octagon"/>
<pad name="2" x="0" y="1.905" drill="0.8128" shape="octagon"/>
<pad name="3" x="-1.27" y="0" drill="0.8128" shape="octagon"/>
<text x="3.175" y="0.635" size="1.27" layer="25" ratio="10">&gt;NAME</text>
<text x="3.175" y="-1.27" size="1.27" layer="27" ratio="10">&gt;VALUE</text>
<text x="-0.635" y="0.635" size="1.27" layer="51" ratio="10">2</text>
<text x="-2.159" y="0" size="1.27" layer="51" ratio="10">3</text>
<text x="1.143" y="0" size="1.27" layer="51" ratio="10">1</text>
</package>
</packages>
</library>
<library name="led">
<description>&lt;b&gt;LEDs&lt;/b&gt;&lt;p&gt;
&lt;author&gt;Created by librarian@cadsoft.de&lt;/author&gt;&lt;br&gt;
Extended by Federico Battaglin &lt;author&gt;&amp;lt;federico.rd@fdpinternational.com&amp;gt;&lt;/author&gt; with DUOLED</description>
<packages>
<package name="LED5MM">
<description>&lt;B&gt;LED&lt;/B&gt;&lt;p&gt;
5 mm, round</description>
<wire x1="2.54" y1="-1.905" x2="2.54" y2="1.905" width="0.2032" layer="21"/>
<wire x1="2.54" y1="-1.905" x2="2.54" y2="1.905" width="0.254" layer="21" curve="-286.260205"/>
<wire x1="-1.143" y1="0" x2="0" y2="1.143" width="0.1524" layer="51" curve="-90"/>
<wire x1="0" y1="-1.143" x2="1.143" y2="0" width="0.1524" layer="51" curve="90"/>
<wire x1="-1.651" y1="0" x2="0" y2="1.651" width="0.1524" layer="51" curve="-90"/>
<wire x1="0" y1="-1.651" x2="1.651" y2="0" width="0.1524" layer="51" curve="90"/>
<wire x1="-2.159" y1="0" x2="0" y2="2.159" width="0.1524" layer="51" curve="-90"/>
<wire x1="0" y1="-2.159" x2="2.159" y2="0" width="0.1524" layer="51" curve="90"/>
<circle x="0" y="0" radius="2.54" width="0.1524" layer="21"/>
<pad name="A" x="-1.27" y="0" drill="0.8128" shape="octagon"/>
<pad name="K" x="1.27" y="0" drill="0.8128" shape="octagon"/>
<text x="3.175" y="0.5334" size="1.27" layer="25" ratio="10">&gt;NAME</text>
<text x="3.2004" y="-1.8034" size="1.27" layer="27" ratio="10">&gt;VALUE</text>
</package>
</packages>
</library>
<library name="con-wago-500">
<description>&lt;b&gt;Wago Screw Clamps&lt;/b&gt;&lt;p&gt;
Grid 5.00 mm&lt;p&gt;
&lt;author&gt;Created by librarian@cadsoft.de&lt;/author&gt;</description>
<packages>
<package name="W237-102">
<description>&lt;b&gt;WAGO SCREW CLAMP&lt;/b&gt;</description>
<wire x1="-3.491" y1="-2.286" x2="-1.484" y2="-0.279" width="0.254" layer="51"/>
<wire x1="1.488" y1="-2.261" x2="3.469" y2="-0.254" width="0.254" layer="51"/>
<wire x1="-4.989" y1="-5.461" x2="4.993" y2="-5.461" width="0.1524" layer="21"/>
<wire x1="4.993" y1="3.734" x2="4.993" y2="3.531" width="0.1524" layer="21"/>
<wire x1="4.993" y1="3.734" x2="-4.989" y2="3.734" width="0.1524" layer="21"/>
<wire x1="-4.989" y1="-5.461" x2="-4.989" y2="-3.073" width="0.1524" layer="21"/>
<wire x1="-4.989" y1="-3.073" x2="-3.389" y2="-3.073" width="0.1524" layer="21"/>
<wire x1="-3.389" y1="-3.073" x2="-1.611" y2="-3.073" width="0.1524" layer="51"/>
<wire x1="-1.611" y1="-3.073" x2="1.615" y2="-3.073" width="0.1524" layer="21"/>
<wire x1="3.393" y1="-3.073" x2="4.993" y2="-3.073" width="0.1524" layer="21"/>
<wire x1="-4.989" y1="-3.073" x2="-4.989" y2="3.531" width="0.1524" layer="21"/>
<wire x1="4.993" y1="-3.073" x2="4.993" y2="-5.461" width="0.1524" layer="21"/>
<wire x1="-4.989" y1="3.531" x2="4.993" y2="3.531" width="0.1524" layer="21"/>
<wire x1="-4.989" y1="3.531" x2="-4.989" y2="3.734" width="0.1524" layer="21"/>
<wire x1="4.993" y1="3.531" x2="4.993" y2="-3.073" width="0.1524" layer="21"/>
<wire x1="1.615" y1="-3.073" x2="3.393" y2="-3.073" width="0.1524" layer="51"/>
<circle x="-2.5" y="-1.27" radius="1.4986" width="0.1524" layer="51"/>
<circle x="-2.5" y="2.2098" radius="0.508" width="0.1524" layer="21"/>
<circle x="2.5038" y="-1.27" radius="1.4986" width="0.1524" layer="51"/>
<circle x="2.5038" y="2.2098" radius="0.508" width="0.1524" layer="21"/>
<pad name="1" x="-2.5" y="-1.27" drill="1.1938" shape="long" rot="R90"/>
<pad name="2" x="2.5" y="-1.27" drill="1.1938" shape="long" rot="R90"/>
<text x="-5.04" y="-7.62" size="1.27" layer="27" ratio="10">&gt;VALUE</text>
<text x="-3.8462" y="-5.0038" size="1.27" layer="25" ratio="10">&gt;NAME</text>
<text x="-4.532" y="0.635" size="1.27" layer="21" ratio="10">1</text>
<text x="0.421" y="0.635" size="1.27" layer="21" ratio="10">2</text>
</package>
</packages>
</library>
<library name="linear">
<description>&lt;b&gt;Linear Devices&lt;/b&gt;&lt;p&gt;
Operational amplifiers,  comparators, voltage regulators, ADCs, DACs, etc.&lt;p&gt;
&lt;author&gt;Created by librarian@cadsoft.de&lt;/author&gt;</description>
<packages>
<package name="TO92">
<description>&lt;b&gt;TO-92&lt;/b&gt;</description>
<wire x1="-2.095" y1="-1.651" x2="-0.7869" y2="2.5484" width="0.1524" layer="21" curve="-111.097684"/>
<wire x1="0.7869" y1="2.5484" x2="2.095" y2="-1.651" width="0.1524" layer="21" curve="-111.097684"/>
<wire x1="-2.095" y1="-1.651" x2="2.095" y2="-1.651" width="0.1524" layer="21"/>
<wire x1="-2.254" y1="-0.254" x2="-0.286" y2="-0.254" width="0.1524" layer="51"/>
<wire x1="-2.655" y1="-0.254" x2="-2.254" y2="-0.254" width="0.1524" layer="21"/>
<wire x1="-0.286" y1="-0.254" x2="0.286" y2="-0.254" width="0.1524" layer="21"/>
<wire x1="2.254" y1="-0.254" x2="2.655" y2="-0.254" width="0.1524" layer="21"/>
<wire x1="0.286" y1="-0.254" x2="2.254" y2="-0.254" width="0.1524" layer="51"/>
<wire x1="-0.7864" y1="2.5484" x2="0.7864" y2="2.5484" width="0.1524" layer="51" curve="-34.298964"/>
<pad name="1" x="-1.27" y="0" drill="0.8128" shape="octagon"/>
<pad name="2" x="0" y="1.905" drill="0.8128" shape="octagon"/>
<pad name="3" x="1.27" y="0" drill="0.8128" shape="octagon"/>
<text x="2.413" y="1.651" size="1.27" layer="25" ratio="10">&gt;NAME</text>
<text x="2.921" y="-1.27" size="1.27" layer="27" ratio="10">&gt;VALUE</text>
</package>
</packages>
</library>
<library name="v-reg">
<description>&lt;b&gt;Voltage Regulators&lt;/b&gt;&lt;p&gt;
&lt;author&gt;Created by librarian@cadsoft.de&lt;/author&gt;</description>
<packages>
<package name="78LXX">
<description>&lt;b&gt;VOLTAGE REGULATOR&lt;/b&gt;</description>
<wire x1="-2.0946" y1="-1.651" x2="-0.7863" y2="2.5485" width="0.1524" layer="21" curve="-111.098957"/>
<wire x1="0.7868" y1="2.5484" x2="2.095" y2="-1.651" width="0.1524" layer="21" curve="-111.09954"/>
<wire x1="-2.095" y1="-1.651" x2="2.095" y2="-1.651" width="0.1524" layer="21"/>
<wire x1="-2.655" y1="-0.254" x2="-2.254" y2="-0.254" width="0.1524" layer="21"/>
<wire x1="2.254" y1="-0.254" x2="2.655" y2="-0.254" width="0.1524" layer="21"/>
<wire x1="-0.7863" y1="2.5485" x2="0.7863" y2="2.5485" width="0.1524" layer="51" curve="-34.293591"/>
<pad name="OUT" x="-1.27" y="0" drill="0.8128" shape="octagon"/>
<pad name="GND" x="0" y="1.905" drill="0.8128" shape="octagon"/>
<pad name="IN" x="1.27" y="0" drill="0.8128" shape="octagon"/>
<text x="-0.635" y="0.889" size="1.27" layer="51" ratio="10">-</text>
<text x="3.175" y="0.635" size="1.27" layer="25" ratio="10">&gt;NAME</text>
<text x="3.175" y="-1.27" size="1.27" layer="27" ratio="10">&gt;VALUE</text>
<text x="-1.778" y="-0.635" size="1.27" layer="51" ratio="10">O</text>
<text x="0.635" y="-0.635" size="1.27" layer="51" ratio="10">I</text>
</package>
</packages>
</library>
</libraries>
<attributes>
</attributes>
<variantdefs>
</variantdefs>
<classes>
<class number="0" name="default" width="0" drill="0">
</class>
</classes>
<designrules name="default">
<description language="de">&lt;b&gt;EAGLE Design Rules&lt;/b&gt;
&lt;p&gt;
Die Standard-Design-Rules sind so gewählt, dass sie für 
die meisten Anwendungen passen. Sollte ihre Platine 
besondere Anforderungen haben, treffen Sie die erforderlichen
Einstellungen hier und speichern die Design Rules unter 
einem neuen Namen ab.</description>
<description language="en">&lt;b&gt;EAGLE Design Rules&lt;/b&gt;
&lt;p&gt;
The default Design Rules have been set to cover
a wide range of applications. Your particular design
may have different requirements, so please make the
necessary adjustments and save your customized
design rules under a new name.</description>
<param name="layerSetup" value="(1*16)"/>
<param name="mtCopper" value="0.035mm 0.035mm 0.035mm 0.035mm 0.035mm 0.035mm 0.035mm 0.035mm 0.035mm 0.035mm 0.035mm 0.035mm 0.035mm 0.035mm 0.035mm 0.035mm"/>
<param name="mtIsolate" value="1.5mm 0.15mm 0.2mm 0.15mm 0.2mm 0.15mm 0.2mm 0.15mm 0.2mm 0.15mm 0.2mm 0.15mm 0.2mm 0.15mm 0.2mm"/>
<param name="mdWireWire" value="8mil"/>
<param name="mdWirePad" value="8mil"/>
<param name="mdWireVia" value="8mil"/>
<param name="mdPadPad" value="8mil"/>
<param name="mdPadVia" value="8mil"/>
<param name="mdViaVia" value="8mil"/>
<param name="mdSmdPad" value="8mil"/>
<param name="mdSmdVia" value="8mil"/>
<param name="mdSmdSmd" value="8mil"/>
<param name="mdViaViaSameLayer" value="8mil"/>
<param name="mnLayersViaInSmd" value="2"/>
<param name="mdCopperDimension" value="40mil"/>
<param name="mdDrill" value="8mil"/>
<param name="mdSmdStop" value="0mil"/>
<param name="msWidth" value="10mil"/>
<param name="msDrill" value="24mil"/>
<param name="msMicroVia" value="9.99mm"/>
<param name="msBlindViaRatio" value="0.5"/>
<param name="rvPadTop" value="0.25"/>
<param name="rvPadInner" value="0.25"/>
<param name="rvPadBottom" value="0.25"/>
<param name="rvViaOuter" value="0.25"/>
<param name="rvViaInner" value="0.25"/>
<param name="rvMicroViaOuter" value="0.25"/>
<param name="rvMicroViaInner" value="0.25"/>
<param name="rlMinPadTop" value="10mil"/>
<param name="rlMaxPadTop" value="20mil"/>
<param name="rlMinPadInner" value="10mil"/>
<param name="rlMaxPadInner" value="20mil"/>
<param name="rlMinPadBottom" value="10mil"/>
<param name="rlMaxPadBottom" value="20mil"/>
<param name="rlMinViaOuter" value="8mil"/>
<param name="rlMaxViaOuter" value="20mil"/>
<param name="rlMinViaInner" value="8mil"/>
<param name="rlMaxViaInner" value="20mil"/>
<param name="rlMinMicroViaOuter" value="4mil"/>
<param name="rlMaxMicroViaOuter" value="20mil"/>
<param name="rlMinMicroViaInner" value="4mil"/>
<param name="rlMaxMicroViaInner" value="20mil"/>
<param name="psTop" value="-1"/>
<param name="psBottom" value="-1"/>
<param name="psFirst" value="-1"/>
<param name="psElongationLong" value="100"/>
<param name="psElongationOffset" value="100"/>
<param name="mvStopFrame" value="1"/>
<param name="mvCreamFrame" value="0"/>
<param name="mlMinStopFrame" value="4mil"/>
<param name="mlMaxStopFrame" value="4mil"/>
<param name="mlMinCreamFrame" value="0mil"/>
<param name="mlMaxCreamFrame" value="0mil"/>
<param name="mlViaStopLimit" value="0mil"/>
<param name="srRoundness" value="0"/>
<param name="srMinRoundness" value="0mil"/>
<param name="srMaxRoundness" value="0mil"/>
<param name="slThermalIsolate" value="10mil"/>
<param name="slThermalsForVias" value="0"/>
<param name="dpMaxLengthDifference" value="10mm"/>
<param name="dpGapFactor" value="2.5"/>
<param name="checkGrid" value="0"/>
<param name="checkAngle" value="0"/>
<param name="checkFont" value="1"/>
<param name="checkRestrict" value="1"/>
<param name="useDiameter" value="13"/>
<param name="maxErrors" value="50"/>
</designrules>
<autorouter>
<pass name="Default">
<param name="RoutingGrid" value="50mil"/>
<param name="tpViaShape" value="round"/>
<param name="PrefDir.1" value="|"/>
<param name="PrefDir.2" value="0"/>
<param name="PrefDir.3" value="0"/>
<param name="PrefDir.4" value="0"/>
<param name="PrefDir.5" value="0"/>
<param name="PrefDir.6" value="0"/>
<param name="PrefDir.7" value="0"/>
<param name="PrefDir.8" value="0"/>
<param name="PrefDir.9" value="0"/>
<param name="PrefDir.10" value="0"/>
<param name="PrefDir.11" value="0"/>
<param name="PrefDir.12" value="0"/>
<param name="PrefDir.13" value="0"/>
<param name="PrefDir.14" value="0"/>
<param name="PrefDir.15" value="0"/>
<param name="PrefDir.16" value="-"/>
<param name="cfVia" value="8"/>
<param name="cfNonPref" value="5"/>
<param name="cfChangeDir" value="2"/>
<param name="cfOrthStep" value="2"/>
<param name="cfDiagStep" value="3"/>
<param name="cfExtdStep" value="0"/>
<param name="cfBonusStep" value="1"/>
<param name="cfMalusStep" value="1"/>
<param name="cfPadImpact" value="4"/>
<param name="cfSmdImpact" value="4"/>
<param name="cfBusImpact" value="0"/>
<param name="cfHugging" value="3"/>
<param name="cfAvoid" value="4"/>
<param name="cfPolygon" value="10"/>
<param name="cfBase.1" value="0"/>
<param name="cfBase.2" value="1"/>
<param name="cfBase.3" value="1"/>
<param name="cfBase.4" value="1"/>
<param name="cfBase.5" value="1"/>
<param name="cfBase.6" value="1"/>
<param name="cfBase.7" value="1"/>
<param name="cfBase.8" value="1"/>
<param name="cfBase.9" value="1"/>
<param name="cfBase.10" value="1"/>
<param name="cfBase.11" value="1"/>
<param name="cfBase.12" value="1"/>
<param name="cfBase.13" value="1"/>
<param name="cfBase.14" value="1"/>
<param name="cfBase.15" value="1"/>
<param name="cfBase.16" value="0"/>
<param name="mnVias" value="20"/>
<param name="mnSegments" value="9999"/>
<param name="mnExtdSteps" value="9999"/>
<param name="mnRipupLevel" value="10"/>
<param name="mnRipupSteps" value="100"/>
<param name="mnRipupTotal" value="100"/>
</pass>
<pass name="Follow-me" refer="Default" active="yes">
</pass>
<pass name="Busses" refer="Default" active="yes">
<param name="cfNonPref" value="4"/>
<param name="cfBusImpact" value="4"/>
<param name="cfHugging" value="0"/>
<param name="mnVias" value="0"/>
</pass>
<pass name="Route" refer="Default" active="yes">
</pass>
<pass name="Optimize1" refer="Default" active="yes">
<param name="cfVia" value="99"/>
<param name="cfExtdStep" value="10"/>
<param name="cfHugging" value="1"/>
<param name="mnExtdSteps" value="1"/>
<param name="mnRipupLevel" value="0"/>
</pass>
<pass name="Optimize2" refer="Optimize1" active="yes">
<param name="cfNonPref" value="0"/>
<param name="cfChangeDir" value="6"/>
<param name="cfExtdStep" value="0"/>
<param name="cfBonusStep" value="2"/>
<param name="cfMalusStep" value="2"/>
<param name="cfPadImpact" value="2"/>
<param name="cfSmdImpact" value="2"/>
<param name="cfHugging" value="0"/>
</pass>
<pass name="Optimize3" refer="Optimize2" active="yes">
<param name="cfChangeDir" value="8"/>
<param name="cfPadImpact" value="0"/>
<param name="cfSmdImpact" value="0"/>
</pass>
<pass name="Optimize4" refer="Optimize3" active="yes">
<param name="cfChangeDir" value="25"/>
</pass>
</autorouter>
<elements>
<element name="K1" library="relay" package="G2R" value="G2R" x="49.53" y="10.16">
<attribute name="OC_NEWARK" value="unknown" x="90.17" y="-11.43" size="1.778" layer="27" display="off"/>
<attribute name="MPN" value="" x="90.17" y="-11.43" size="1.778" layer="27" display="off"/>
<attribute name="MF" value="" x="90.17" y="-11.43" size="1.778" layer="27" display="off"/>
<attribute name="OC_FARNELL" value="1569185" x="90.17" y="-11.43" size="1.778" layer="27" display="off"/>
</element>
<element name="D1" library="diode" package="DO41-10" value="1N4004" x="43.18" y="10.16" rot="R90"/>
<element name="OK1" library="optocoupler" package="DIL04" value="PC817" x="33.02" y="7.62" rot="R270">
<attribute name="OC_NEWARK" value="97K7059" x="25.4" y="-10.16" size="1.778" layer="27" rot="R270" display="off"/>
<attribute name="MPN" value="PC817X4J000F" x="25.4" y="-10.16" size="1.778" layer="27" rot="R270" display="off"/>
<attribute name="MF" value="" x="25.4" y="-10.16" size="1.778" layer="27" rot="R270" display="off"/>
<attribute name="OC_FARNELL" value="9707727" x="25.4" y="-10.16" size="1.778" layer="27" rot="R270" display="off"/>
</element>
<element name="R1" library="rcl" package="0204/5" value="330" x="30.48" y="13.97"/>
<element name="T1" library="transistor" package="TO92" value="BC337" x="39.37" y="13.97" rot="R180"/>
<element name="R2" library="rcl" package="0204/5" value="220" x="40.64" y="7.62" rot="R90"/>
<element name="R3" library="rcl" package="0204/5" value="10k" x="34.29" y="11.43"/>
<element name="LED1" library="led" package="LED5MM" value="PUMP_ON" x="81.28" y="13.97" rot="R270"/>
<element name="R4" library="rcl" package="0204/5" value="1k" x="76.2" y="13.97" rot="R270"/>
<element name="X1" library="con-wago-500" package="W237-102" value="PUMP1" x="88.9" y="16.51" rot="R90">
<attribute name="OC_NEWARK" value="70K9898" x="88.9" y="16.51" size="1.778" layer="27" rot="R90" display="off"/>
<attribute name="MPN" value="237-102" x="88.9" y="16.51" size="1.778" layer="27" rot="R90" display="off"/>
<attribute name="MF" value="" x="88.9" y="16.51" size="1.778" layer="27" rot="R90" display="off"/>
<attribute name="OC_FARNELL" value="unknown" x="88.9" y="16.51" size="1.778" layer="27" rot="R90" display="off"/>
</element>
<element name="K2" library="relay" package="G2R" value="G2R" x="49.53" y="24.13">
<attribute name="OC_NEWARK" value="unknown" x="49.53" y="38.1" size="1.778" layer="27" display="off"/>
<attribute name="MPN" value="" x="49.53" y="38.1" size="1.778" layer="27" display="off"/>
<attribute name="MF" value="" x="49.53" y="38.1" size="1.778" layer="27" display="off"/>
<attribute name="OC_FARNELL" value="1569185" x="49.53" y="38.1" size="1.778" layer="27" display="off"/>
</element>
<element name="D2" library="diode" package="DO41-10" value="1N4004" x="43.18" y="24.13" rot="R90"/>
<element name="OK2" library="optocoupler" package="DIL04" value="PC817" x="33.02" y="21.59" rot="R270">
<attribute name="OC_NEWARK" value="97K7059" x="25.4" y="31.75" size="1.778" layer="27" rot="R270" display="off"/>
<attribute name="MPN" value="PC817X4J000F" x="25.4" y="31.75" size="1.778" layer="27" rot="R270" display="off"/>
<attribute name="MF" value="" x="25.4" y="31.75" size="1.778" layer="27" rot="R270" display="off"/>
<attribute name="OC_FARNELL" value="9707727" x="25.4" y="31.75" size="1.778" layer="27" rot="R270" display="off"/>
</element>
<element name="R5" library="rcl" package="0204/5" value="330" x="30.48" y="27.94"/>
<element name="T2" library="transistor" package="TO92" value="BC337" x="39.37" y="27.94" rot="R180"/>
<element name="R6" library="rcl" package="0204/5" value="220" x="40.64" y="21.59" rot="R90"/>
<element name="R7" library="rcl" package="0204/5" value="10k" x="34.29" y="25.4"/>
<element name="LED2" library="led" package="LED5MM" value="PUMP_ON" x="81.28" y="24.13" rot="R270"/>
<element name="R8" library="rcl" package="0204/5" value="1k" x="76.2" y="24.13" rot="R270"/>
<element name="X2" library="con-wago-500" package="W237-102" value="PUMP2" x="88.9" y="26.67" rot="R90">
<attribute name="OC_NEWARK" value="70K9898" x="105.41" y="5.08" size="1.778" layer="27" rot="R90" display="off"/>
<attribute name="MPN" value="237-102" x="105.41" y="5.08" size="1.778" layer="27" rot="R90" display="off"/>
<attribute name="MF" value="" x="105.41" y="5.08" size="1.778" layer="27" rot="R90" display="off"/>
<attribute name="OC_FARNELL" value="unknown" x="105.41" y="5.08" size="1.778" layer="27" rot="R90" display="off"/>
</element>
<element name="K3" library="relay" package="G2R" value="G2R" x="49.53" y="38.1">
<attribute name="OC_NEWARK" value="unknown" x="49.53" y="52.07" size="1.778" layer="27" display="off"/>
<attribute name="MPN" value="" x="49.53" y="52.07" size="1.778" layer="27" display="off"/>
<attribute name="MF" value="" x="49.53" y="52.07" size="1.778" layer="27" display="off"/>
<attribute name="OC_FARNELL" value="1569185" x="49.53" y="52.07" size="1.778" layer="27" display="off"/>
</element>
<element name="D3" library="diode" package="DO41-10" value="1N4004" x="43.18" y="38.1" rot="R90"/>
<element name="OK3" library="optocoupler" package="DIL04" value="PC817" x="33.02" y="35.56" rot="R270">
<attribute name="OC_NEWARK" value="97K7059" x="25.4" y="45.72" size="1.778" layer="27" rot="R270" display="off"/>
<attribute name="MPN" value="PC817X4J000F" x="25.4" y="45.72" size="1.778" layer="27" rot="R270" display="off"/>
<attribute name="MF" value="" x="25.4" y="45.72" size="1.778" layer="27" rot="R270" display="off"/>
<attribute name="OC_FARNELL" value="9707727" x="25.4" y="45.72" size="1.778" layer="27" rot="R270" display="off"/>
</element>
<element name="R9" library="rcl" package="0204/5" value="330" x="30.48" y="41.91"/>
<element name="T3" library="transistor" package="TO92" value="BC337" x="39.37" y="41.91" rot="R180"/>
<element name="R10" library="rcl" package="0204/5" value="220" x="40.64" y="35.56" rot="R90"/>
<element name="R11" library="rcl" package="0204/5" value="10k" x="34.29" y="39.37"/>
<element name="LED3" library="led" package="LED5MM" value="PUMP_ON" x="81.28" y="34.29" rot="R270"/>
<element name="R12" library="rcl" package="0204/5" value="1k" x="76.2" y="34.29" rot="R270"/>
<element name="X3" library="con-wago-500" package="W237-102" value="PUMP3" x="88.9" y="36.83" rot="R90">
<attribute name="OC_NEWARK" value="70K9898" x="105.41" y="-16.51" size="1.778" layer="27" rot="R90" display="off"/>
<attribute name="MPN" value="237-102" x="105.41" y="-16.51" size="1.778" layer="27" rot="R90" display="off"/>
<attribute name="MF" value="" x="105.41" y="-16.51" size="1.778" layer="27" rot="R90" display="off"/>
<attribute name="OC_FARNELL" value="unknown" x="105.41" y="-16.51" size="1.778" layer="27" rot="R90" display="off"/>
</element>
<element name="K4" library="relay" package="G2R" value="G2R" x="49.53" y="52.07">
<attribute name="OC_NEWARK" value="unknown" x="29.21" y="21.59" size="1.778" layer="27" display="off"/>
<attribute name="MPN" value="" x="29.21" y="21.59" size="1.778" layer="27" display="off"/>
<attribute name="MF" value="" x="29.21" y="21.59" size="1.778" layer="27" display="off"/>
<attribute name="OC_FARNELL" value="1569185" x="29.21" y="21.59" size="1.778" layer="27" display="off"/>
</element>
<element name="D4" library="diode" package="DO41-10" value="1N4004" x="43.18" y="52.07" rot="R90"/>
<element name="OK4" library="optocoupler" package="DIL04" value="PC817" x="33.02" y="49.53" rot="R270">
<attribute name="OC_NEWARK" value="97K7059" x="-33.02" y="91.44" size="1.778" layer="27" rot="R270" display="off"/>
<attribute name="MPN" value="PC817X4J000F" x="-33.02" y="91.44" size="1.778" layer="27" rot="R270" display="off"/>
<attribute name="MF" value="" x="-33.02" y="91.44" size="1.778" layer="27" rot="R270" display="off"/>
<attribute name="OC_FARNELL" value="9707727" x="-33.02" y="91.44" size="1.778" layer="27" rot="R270" display="off"/>
</element>
<element name="R13" library="rcl" package="0204/5" value="330" x="30.48" y="55.88"/>
<element name="T4" library="transistor" package="TO92" value="BC337" x="39.37" y="55.88" rot="R180"/>
<element name="R14" library="rcl" package="0204/5" value="220" x="40.64" y="49.53" rot="R90"/>
<element name="R15" library="rcl" package="0204/5" value="10k" x="34.29" y="53.34"/>
<element name="LED4" library="led" package="LED5MM" value="PUMP_ON" x="81.28" y="44.45" rot="R270"/>
<element name="R16" library="rcl" package="0204/5" value="1k" x="76.2" y="44.45" rot="R270"/>
<element name="X4" library="con-wago-500" package="W237-102" value="PUMP4" x="88.9" y="46.99" rot="R90">
<attribute name="OC_NEWARK" value="70K9898" x="149.86" y="3.81" size="1.778" layer="27" rot="R90" display="off"/>
<attribute name="MPN" value="237-102" x="149.86" y="3.81" size="1.778" layer="27" rot="R90" display="off"/>
<attribute name="MF" value="" x="149.86" y="3.81" size="1.778" layer="27" rot="R90" display="off"/>
<attribute name="OC_FARNELL" value="unknown" x="149.86" y="3.81" size="1.778" layer="27" rot="R90" display="off"/>
</element>
<element name="X5" library="con-wago-500" package="W237-102" value="12V_DC" x="88.9" y="60.96" rot="R90">
<attribute name="OC_NEWARK" value="70K9898" x="88.9" y="60.96" size="1.778" layer="27" rot="R90" display="off"/>
<attribute name="MPN" value="237-102" x="88.9" y="60.96" size="1.778" layer="27" rot="R90" display="off"/>
<attribute name="MF" value="" x="88.9" y="60.96" size="1.778" layer="27" rot="R90" display="off"/>
<attribute name="OC_FARNELL" value="unknown" x="88.9" y="60.96" size="1.778" layer="27" rot="R90" display="off"/>
</element>
<element name="IC1" library="linear" package="TO92" value="78L05Z" x="48.26" y="63.5"/>
<element name="IC2" library="v-reg" package="78LXX" value="LE33" x="33.02" y="63.5"/>
<element name="C1" library="rcl" package="C025-025X050" value="100n" x="53.34" y="63.5" rot="R90"/>
<element name="C2" library="rcl" package="E2,5-5" value="100u" x="41.91" y="63.5" rot="R90"/>
<element name="C3" library="rcl" package="C025-025X050" value="100n" x="38.1" y="63.5" rot="R90"/>
<element name="C4" library="rcl" package="C025-025X050" value="100n" x="27.94" y="63.5" rot="R90"/>
<element name="C5" library="rcl" package="E2,5-5" value="100u" x="57.15" y="63.5" rot="R90"/>
<element name="D5" library="diode" package="DO41-10" value="1N4004" x="68.58" y="64.77"/>
</elements>
<signals>
<signal name="N$4">
<contactref element="K1" pad="2"/>
<contactref element="D1" pad="A"/>
<contactref element="T1" pad="3"/>
<wire x1="46.99" y1="13.97" x2="43.18" y2="13.97" width="1.27" layer="16"/>
<wire x1="43.18" y1="13.97" x2="40.64" y2="13.97" width="1.27" layer="16"/>
<wire x1="43.18" y1="15.24" x2="43.18" y2="13.97" width="1.27" layer="16"/>
</signal>
<signal name="N$1">
<contactref element="R1" pad="2"/>
<contactref element="OK1" pad="1"/>
<wire x1="33.02" y1="13.97" x2="30.48" y2="13.97" width="0.6096" layer="16"/>
<wire x1="30.48" y1="13.97" x2="29.21" y2="12.7" width="0.6096" layer="16"/>
<wire x1="29.21" y1="12.7" x2="29.21" y2="8.89" width="0.6096" layer="16"/>
</signal>
<signal name="GND">
<contactref element="X5" pad="2"/>
<contactref element="R3" pad="1"/>
<contactref element="T1" pad="1"/>
<contactref element="LED1" pad="K"/>
<contactref element="X1" pad="1"/>
<wire x1="88.94" y1="24.17" x2="88.9" y2="24.13" width="2.54" layer="16"/>
<wire x1="88.9" y1="24.13" x2="96.52" y2="24.13" width="2.54" layer="16"/>
<wire x1="96.52" y1="24.13" x2="96.52" y2="13.97" width="2.54" layer="16"/>
<wire x1="96.52" y1="13.97" x2="90.13" y2="13.97" width="2.54" layer="16"/>
<wire x1="88.9" y1="13.97" x2="90.13" y2="13.97" width="2.54" layer="16"/>
<wire x1="90.13" y1="13.97" x2="90.17" y2="14.01" width="2.54" layer="16"/>
<wire x1="88.94" y1="34.33" x2="88.9" y2="34.29" width="2.54" layer="16"/>
<wire x1="88.9" y1="34.29" x2="96.52" y2="34.29" width="2.54" layer="16"/>
<wire x1="96.52" y1="34.29" x2="96.52" y2="24.13" width="2.54" layer="16"/>
<wire x1="88.94" y1="44.49" x2="88.9" y2="44.45" width="2.54" layer="16"/>
<wire x1="88.9" y1="44.45" x2="96.52" y2="44.45" width="2.54" layer="16"/>
<wire x1="96.52" y1="44.45" x2="96.52" y2="34.29" width="2.54" layer="16"/>
<wire x1="81.28" y1="12.7" x2="83.82" y2="12.7" width="0.8128" layer="16"/>
<wire x1="83.82" y1="12.7" x2="85.09" y2="13.97" width="0.8128" layer="16"/>
<wire x1="85.09" y1="13.97" x2="90.13" y2="13.97" width="0.8128" layer="16"/>
<wire x1="36.83" y1="13.97" x2="34.29" y2="11.43" width="1.27" layer="16"/>
<wire x1="34.29" y1="11.43" x2="31.75" y2="11.43" width="1.27" layer="16"/>
<wire x1="38.1" y1="13.97" x2="36.83" y2="13.97" width="1.27" layer="16"/>
<wire x1="36.83" y1="13.97" x2="31.75" y2="19.05" width="1.27" layer="16"/>
<wire x1="31.75" y1="5.08" x2="31.75" y2="6.35" width="1.27" layer="16"/>
<contactref element="R7" pad="1"/>
<contactref element="T2" pad="1"/>
<contactref element="LED2" pad="K"/>
<contactref element="X2" pad="1"/>
<wire x1="81.28" y1="22.86" x2="83.82" y2="22.86" width="0.8128" layer="16"/>
<wire x1="83.82" y1="22.86" x2="85.09" y2="24.13" width="0.8128" layer="16"/>
<wire x1="85.09" y1="24.13" x2="90.13" y2="24.13" width="0.8128" layer="16"/>
<wire x1="90.13" y1="24.13" x2="90.17" y2="24.17" width="0.8128" layer="16"/>
<wire x1="36.83" y1="27.94" x2="34.29" y2="25.4" width="1.27" layer="16"/>
<wire x1="34.29" y1="25.4" x2="31.75" y2="25.4" width="1.27" layer="16"/>
<wire x1="38.1" y1="27.94" x2="36.83" y2="27.94" width="1.27" layer="16"/>
<wire x1="36.83" y1="27.94" x2="31.75" y2="33.02" width="1.27" layer="16"/>
<contactref element="R11" pad="1"/>
<contactref element="T3" pad="1"/>
<contactref element="LED3" pad="K"/>
<contactref element="X3" pad="1"/>
<wire x1="81.28" y1="33.02" x2="83.82" y2="33.02" width="0.8128" layer="16"/>
<wire x1="83.82" y1="33.02" x2="85.09" y2="34.29" width="0.8128" layer="16"/>
<wire x1="85.09" y1="34.29" x2="90.13" y2="34.29" width="0.8128" layer="16"/>
<wire x1="90.13" y1="34.29" x2="90.17" y2="34.33" width="0.8128" layer="16"/>
<contactref element="R15" pad="1"/>
<contactref element="T4" pad="1"/>
<contactref element="LED4" pad="K"/>
<contactref element="X4" pad="1"/>
<wire x1="81.28" y1="43.18" x2="83.82" y2="43.18" width="0.8128" layer="16"/>
<wire x1="83.82" y1="43.18" x2="85.09" y2="44.45" width="0.8128" layer="16"/>
<wire x1="85.09" y1="44.45" x2="90.13" y2="44.45" width="0.8128" layer="16"/>
<wire x1="90.13" y1="44.45" x2="90.17" y2="44.49" width="0.8128" layer="16"/>
<wire x1="38.1" y1="55.88" x2="36.83" y2="55.88" width="1.27" layer="16"/>
<wire x1="36.83" y1="55.88" x2="34.29" y2="53.34" width="1.27" layer="16"/>
<wire x1="34.29" y1="53.34" x2="31.75" y2="53.34" width="1.27" layer="16"/>
<wire x1="36.83" y1="41.91" x2="34.29" y2="39.37" width="1.27" layer="16"/>
<wire x1="36.83" y1="41.91" x2="31.75" y2="46.99" width="1.27" layer="16"/>
<wire x1="31.75" y1="46.99" x2="31.75" y2="48.26" width="1.27" layer="16"/>
<contactref element="OK1" pad="2"/>
<contactref element="OK2" pad="2"/>
<contactref element="OK3" pad="2"/>
<contactref element="OK4" pad="2"/>
<wire x1="31.75" y1="48.26" x2="31.75" y2="53.34" width="1.27" layer="16"/>
<wire x1="31.75" y1="33.02" x2="31.75" y2="34.29" width="1.27" layer="16"/>
<wire x1="31.75" y1="34.29" x2="31.75" y2="39.37" width="1.27" layer="16"/>
<wire x1="31.75" y1="39.37" x2="34.29" y2="39.37" width="1.27" layer="16"/>
<wire x1="29.21" y1="48.26" x2="31.75" y2="48.26" width="1.27" layer="16"/>
<wire x1="29.21" y1="34.29" x2="31.75" y2="34.29" width="1.27" layer="16"/>
<wire x1="31.75" y1="19.05" x2="31.75" y2="20.32" width="1.27" layer="16"/>
<wire x1="31.75" y1="20.32" x2="31.75" y2="25.4" width="1.27" layer="16"/>
<wire x1="29.21" y1="20.32" x2="31.75" y2="20.32" width="1.27" layer="16"/>
<wire x1="29.21" y1="6.35" x2="31.75" y2="6.35" width="1.27" layer="16"/>
<wire x1="90.17" y1="63.46" x2="95.29" y2="63.46" width="2.54" layer="16"/>
<wire x1="95.29" y1="63.46" x2="96.52" y2="62.23" width="2.54" layer="16"/>
<wire x1="96.52" y1="62.23" x2="96.52" y2="44.45" width="2.54" layer="16"/>
<contactref element="IC1" pad="2"/>
<contactref element="IC2" pad="GND"/>
<contactref element="C2" pad="-"/>
<contactref element="C1" pad="2"/>
<contactref element="C5" pad="-"/>
<contactref element="C3" pad="2"/>
<contactref element="C4" pad="2"/>
<wire x1="48.26" y1="65.405" x2="42.545" y2="65.405" width="1.016" layer="16"/>
<wire x1="42.545" y1="65.405" x2="41.91" y2="64.77" width="1.016" layer="16"/>
<wire x1="41.91" y1="64.77" x2="38.1" y2="64.77" width="1.016" layer="16"/>
<wire x1="33.02" y1="65.405" x2="37.465" y2="65.405" width="1.016" layer="16"/>
<wire x1="37.465" y1="65.405" x2="38.1" y2="64.77" width="1.016" layer="16"/>
<wire x1="33.02" y1="65.405" x2="28.575" y2="65.405" width="1.016" layer="16"/>
<wire x1="28.575" y1="65.405" x2="27.94" y2="64.77" width="1.016" layer="16"/>
<wire x1="57.15" y1="64.77" x2="53.34" y2="64.77" width="1.016" layer="16"/>
<wire x1="48.26" y1="65.405" x2="52.705" y2="65.405" width="1.016" layer="16"/>
<wire x1="52.705" y1="65.405" x2="53.34" y2="64.77" width="1.016" layer="16"/>
<polygon width="0.3048" layer="16" isolate="0.4064">
<vertex x="0" y="71.12"/>
<vertex x="0" y="0"/>
<vertex x="99.06" y="0"/>
<vertex x="99.06" y="71.12"/>
</polygon>
<wire x1="88.94" y1="44.49" x2="90.13" y2="44.45" width="0" layer="19" extent="16-16"/>
<wire x1="90.13" y1="34.29" x2="88.94" y2="34.33" width="0" layer="19" extent="16-16"/>
<wire x1="90.13" y1="24.13" x2="88.94" y2="24.17" width="0" layer="19" extent="16-16"/>
</signal>
<signal name="N$2">
<contactref element="R1" pad="1"/>
</signal>
<signal name="N$3">
<contactref element="K1" pad="P"/>
<contactref element="R4" pad="1"/>
<contactref element="X1" pad="2"/>
<wire x1="66.9798" y1="13.97" x2="64.77" y2="13.97" width="2.54" layer="16"/>
<wire x1="90.17" y1="19.01" x2="76.16" y2="19.01" width="2.54" layer="16"/>
<wire x1="76.16" y1="19.01" x2="74.93" y2="17.78" width="2.54" layer="16"/>
<wire x1="74.93" y1="17.78" x2="71.12" y2="13.97" width="2.54" layer="16"/>
<wire x1="71.12" y1="13.97" x2="66.9798" y2="13.97" width="2.54" layer="16"/>
<wire x1="76.2" y1="16.51" x2="74.93" y2="17.78" width="0.8128" layer="16"/>
</signal>
<signal name="N$6">
<contactref element="R2" pad="2"/>
<contactref element="T1" pad="2"/>
<wire x1="40.64" y1="10.16" x2="40.64" y2="10.795" width="0.8128" layer="16"/>
<wire x1="40.64" y1="10.795" x2="39.37" y2="12.065" width="0.8128" layer="16"/>
</signal>
<signal name="N$7">
<contactref element="R2" pad="1"/>
<contactref element="R3" pad="2"/>
<contactref element="OK1" pad="3"/>
<wire x1="40.64" y1="5.08" x2="39.37" y2="6.35" width="0.8128" layer="16"/>
<wire x1="39.37" y1="6.35" x2="36.83" y2="6.35" width="0.8128" layer="16"/>
<wire x1="36.83" y1="6.35" x2="35.56" y2="6.35" width="0.8128" layer="16"/>
<wire x1="35.56" y1="6.35" x2="34.29" y2="7.62" width="0.8128" layer="16"/>
<wire x1="34.29" y1="7.62" x2="34.29" y2="8.89" width="0.8128" layer="16"/>
<wire x1="34.29" y1="8.89" x2="36.83" y2="11.43" width="0.8128" layer="16"/>
</signal>
<signal name="+12V">
<wire x1="70.485" y1="8.255" x2="68.58" y2="10.16" width="2.54" layer="16"/>
<wire x1="68.58" y1="10.16" x2="57.15" y2="10.16" width="2.54" layer="16"/>
<wire x1="57.15" y1="10.16" x2="57.15" y2="20.32" width="2.54" layer="16"/>
<wire x1="57.15" y1="20.32" x2="57.15" y2="24.13" width="2.54" layer="16"/>
<wire x1="57.15" y1="24.13" x2="68.58" y2="24.13" width="2.54" layer="16"/>
<wire x1="70.485" y1="22.225" x2="68.58" y2="24.13" width="2.54" layer="16"/>
<wire x1="57.023" y1="20.447" x2="57.15" y2="20.32" width="0.8128" layer="16"/>
<wire x1="70.485" y1="36.195" x2="68.58" y2="38.1" width="2.54" layer="16"/>
<wire x1="68.58" y1="38.1" x2="57.15" y2="38.1" width="2.54" layer="16"/>
<wire x1="57.15" y1="38.1" x2="57.15" y2="34.29" width="2.54" layer="16"/>
<wire x1="57.15" y1="34.29" x2="57.15" y2="24.13" width="2.54" layer="16"/>
<wire x1="70.485" y1="50.165" x2="68.58" y2="52.07" width="2.54" layer="16"/>
<wire x1="68.58" y1="52.07" x2="57.15" y2="52.07" width="2.54" layer="16"/>
<wire x1="57.15" y1="52.07" x2="57.15" y2="48.26" width="2.54" layer="16"/>
<wire x1="57.15" y1="48.26" x2="57.15" y2="38.1" width="2.54" layer="16"/>
<wire x1="57.023" y1="34.417" x2="57.15" y2="34.29" width="0.8128" layer="16"/>
<wire x1="57.023" y1="48.387" x2="57.15" y2="48.26" width="0.8128" layer="16"/>
<contactref element="X5" pad="1"/>
<wire x1="90.17" y1="58.46" x2="76.16" y2="58.46" width="2.54" layer="16"/>
<wire x1="76.16" y1="58.46" x2="73.66" y2="60.96" width="2.54" layer="16"/>
<wire x1="73.66" y1="60.96" x2="63.5" y2="60.96" width="2.54" layer="16"/>
<wire x1="63.5" y1="60.96" x2="57.15" y2="54.61" width="2.54" layer="16"/>
<wire x1="57.15" y1="54.61" x2="57.15" y2="52.07" width="2.54" layer="16"/>
<contactref element="D5" pad="A"/>
<wire x1="73.66" y1="64.77" x2="73.66" y2="60.96" width="1.016" layer="16"/>
<contactref element="K2" pad="S"/>
<contactref element="K3" pad="S"/>
<contactref element="K4" pad="S"/>
<contactref element="K1" pad="S"/>
<wire x1="70.485" y1="22.225" x2="70.485" y2="20.447" width="2.54" layer="16"/>
<wire x1="70.485" y1="8.255" x2="70.485" y2="6.477" width="2.54" layer="16"/>
<wire x1="70.485" y1="36.195" x2="70.485" y2="34.417" width="2.54" layer="16"/>
<wire x1="70.485" y1="50.165" x2="70.485" y2="48.387" width="2.54" layer="16"/>
</signal>
<signal name="N$5">
<contactref element="R4" pad="2"/>
<contactref element="LED1" pad="A"/>
<wire x1="76.2" y1="11.43" x2="80.01" y2="15.24" width="0.8128" layer="16"/>
<wire x1="80.01" y1="15.24" x2="81.28" y2="15.24" width="0.8128" layer="16"/>
</signal>
<signal name="N$8">
<contactref element="K2" pad="2"/>
<contactref element="D2" pad="A"/>
<contactref element="T2" pad="3"/>
<wire x1="46.99" y1="27.94" x2="43.18" y2="27.94" width="1.27" layer="16"/>
<wire x1="43.18" y1="27.94" x2="40.64" y2="27.94" width="1.27" layer="16"/>
<wire x1="43.18" y1="29.21" x2="43.18" y2="27.94" width="1.27" layer="16"/>
</signal>
<signal name="N$9">
<contactref element="R5" pad="2"/>
<contactref element="OK2" pad="1"/>
<wire x1="29.21" y1="22.86" x2="29.21" y2="26.67" width="0.6096" layer="16"/>
<wire x1="29.21" y1="26.67" x2="30.48" y2="27.94" width="0.6096" layer="16"/>
<wire x1="30.48" y1="27.94" x2="33.02" y2="27.94" width="0.6096" layer="16"/>
</signal>
<signal name="N$10">
<contactref element="R5" pad="1"/>
</signal>
<signal name="N$11">
<contactref element="K2" pad="P"/>
<contactref element="R8" pad="1"/>
<contactref element="X2" pad="2"/>
<wire x1="66.9798" y1="27.94" x2="64.77" y2="27.94" width="2.54" layer="16"/>
<wire x1="66.9798" y1="27.94" x2="72.39" y2="27.94" width="2.54" layer="16"/>
<wire x1="72.39" y1="27.94" x2="73.66" y2="29.21" width="2.54" layer="16"/>
<wire x1="73.66" y1="29.21" x2="76.2" y2="29.21" width="2.54" layer="16"/>
<wire x1="76.2" y1="29.21" x2="90.21" y2="29.21" width="2.54" layer="16"/>
<wire x1="91.44" y1="29.21" x2="90.21" y2="29.21" width="2.54" layer="16"/>
<wire x1="90.21" y1="29.21" x2="90.17" y2="29.17" width="2.54" layer="16"/>
<wire x1="76.2" y1="26.67" x2="76.2" y2="29.21" width="0.8128" layer="16"/>
</signal>
<signal name="N$12">
<contactref element="R6" pad="2"/>
<contactref element="T2" pad="2"/>
<wire x1="40.64" y1="24.13" x2="40.64" y2="24.765" width="0.8128" layer="16"/>
<wire x1="40.64" y1="24.765" x2="39.37" y2="26.035" width="0.8128" layer="16"/>
</signal>
<signal name="N$13">
<contactref element="R6" pad="1"/>
<contactref element="R7" pad="2"/>
<contactref element="OK2" pad="3"/>
<wire x1="36.83" y1="20.32" x2="39.37" y2="20.32" width="0.8128" layer="16"/>
<wire x1="39.37" y1="20.32" x2="40.64" y2="19.05" width="0.8128" layer="16"/>
<wire x1="36.83" y1="20.32" x2="35.56" y2="20.32" width="0.8128" layer="16"/>
<wire x1="35.56" y1="20.32" x2="34.29" y2="21.59" width="0.8128" layer="16"/>
<wire x1="34.29" y1="21.59" x2="34.29" y2="22.86" width="0.8128" layer="16"/>
<wire x1="34.29" y1="22.86" x2="36.83" y2="25.4" width="0.8128" layer="16"/>
</signal>
<signal name="N$14">
<contactref element="R8" pad="2"/>
<contactref element="LED2" pad="A"/>
<wire x1="76.2" y1="21.59" x2="80.01" y2="25.4" width="0.8128" layer="16"/>
<wire x1="80.01" y1="25.4" x2="81.28" y2="25.4" width="0.8128" layer="16"/>
</signal>
<signal name="N$15">
<contactref element="K3" pad="2"/>
<contactref element="D3" pad="A"/>
<contactref element="T3" pad="3"/>
<wire x1="46.99" y1="41.91" x2="43.18" y2="41.91" width="1.27" layer="16"/>
<wire x1="43.18" y1="41.91" x2="40.64" y2="41.91" width="1.27" layer="16"/>
<wire x1="43.18" y1="43.18" x2="43.18" y2="41.91" width="1.27" layer="16"/>
</signal>
<signal name="N$16">
<contactref element="R9" pad="2"/>
<contactref element="OK3" pad="1"/>
<wire x1="33.02" y1="41.91" x2="30.48" y2="41.91" width="0.8128" layer="16"/>
<wire x1="30.48" y1="41.91" x2="29.21" y2="40.64" width="0.8128" layer="16"/>
<wire x1="29.21" y1="40.64" x2="29.21" y2="36.83" width="0.8128" layer="16"/>
</signal>
<signal name="N$17">
<contactref element="R9" pad="1"/>
</signal>
<signal name="N$18">
<contactref element="K3" pad="P"/>
<contactref element="R12" pad="1"/>
<contactref element="X3" pad="2"/>
<wire x1="66.9798" y1="41.91" x2="64.77" y2="41.91" width="2.54" layer="16"/>
<wire x1="66.9798" y1="41.91" x2="71.12" y2="41.91" width="2.54" layer="16"/>
<wire x1="71.12" y1="41.91" x2="73.66" y2="39.37" width="2.54" layer="16"/>
<wire x1="73.66" y1="39.37" x2="76.2" y2="39.37" width="2.54" layer="16"/>
<wire x1="76.2" y1="39.37" x2="90.21" y2="39.37" width="2.54" layer="16"/>
<wire x1="91.44" y1="39.37" x2="90.21" y2="39.37" width="2.54" layer="16"/>
<wire x1="90.21" y1="39.37" x2="90.17" y2="39.33" width="2.54" layer="16"/>
<wire x1="76.2" y1="36.83" x2="76.2" y2="39.37" width="0.8128" layer="16"/>
</signal>
<signal name="N$19">
<contactref element="R10" pad="2"/>
<contactref element="T3" pad="2"/>
<wire x1="40.64" y1="38.1" x2="40.64" y2="38.735" width="0.8128" layer="16"/>
<wire x1="40.64" y1="38.735" x2="39.37" y2="40.005" width="0.8128" layer="16"/>
</signal>
<signal name="N$20">
<contactref element="R10" pad="1"/>
<contactref element="R11" pad="2"/>
<contactref element="OK3" pad="3"/>
<wire x1="36.83" y1="34.29" x2="39.37" y2="34.29" width="0.8128" layer="16"/>
<wire x1="39.37" y1="34.29" x2="40.64" y2="33.02" width="0.8128" layer="16"/>
<wire x1="36.83" y1="34.29" x2="35.56" y2="34.29" width="0.8128" layer="16"/>
<wire x1="35.56" y1="34.29" x2="34.29" y2="35.56" width="0.8128" layer="16"/>
<wire x1="34.29" y1="35.56" x2="34.29" y2="36.83" width="0.8128" layer="16"/>
<wire x1="34.29" y1="36.83" x2="36.83" y2="39.37" width="0.8128" layer="16"/>
</signal>
<signal name="N$21">
<contactref element="R12" pad="2"/>
<contactref element="LED3" pad="A"/>
<wire x1="76.2" y1="31.75" x2="80.01" y2="35.56" width="0.8128" layer="16"/>
<wire x1="80.01" y1="35.56" x2="81.28" y2="35.56" width="0.8128" layer="16"/>
</signal>
<signal name="N$22">
<contactref element="K4" pad="2"/>
<contactref element="D4" pad="A"/>
<contactref element="T4" pad="3"/>
<wire x1="46.99" y1="55.88" x2="43.18" y2="55.88" width="1.27" layer="16"/>
<wire x1="43.18" y1="55.88" x2="40.64" y2="55.88" width="1.27" layer="16"/>
<wire x1="43.18" y1="57.15" x2="43.18" y2="55.88" width="1.27" layer="16"/>
</signal>
<signal name="N$23">
<contactref element="R13" pad="2"/>
<contactref element="OK4" pad="1"/>
<wire x1="33.02" y1="55.88" x2="30.48" y2="55.88" width="0.8128" layer="16"/>
<wire x1="30.48" y1="55.88" x2="29.21" y2="54.61" width="0.8128" layer="16"/>
<wire x1="29.21" y1="54.61" x2="29.21" y2="50.8" width="0.8128" layer="16"/>
</signal>
<signal name="N$24">
<contactref element="R13" pad="1"/>
</signal>
<signal name="N$25">
<contactref element="K4" pad="P"/>
<contactref element="R16" pad="1"/>
<contactref element="X4" pad="2"/>
<wire x1="66.9798" y1="55.88" x2="64.77" y2="55.88" width="2.54" layer="16"/>
<wire x1="66.9798" y1="55.88" x2="71.12" y2="55.88" width="2.54" layer="16"/>
<wire x1="71.12" y1="55.88" x2="76.2" y2="50.8" width="2.54" layer="16"/>
<wire x1="76.2" y1="50.8" x2="86.36" y2="50.8" width="2.54" layer="16"/>
<wire x1="86.36" y1="50.8" x2="87.63" y2="49.53" width="2.54" layer="16"/>
<wire x1="87.63" y1="49.53" x2="90.21" y2="49.53" width="2.54" layer="16"/>
<wire x1="91.44" y1="49.53" x2="90.21" y2="49.53" width="2.54" layer="16"/>
<wire x1="90.21" y1="49.53" x2="90.17" y2="49.49" width="2.54" layer="16"/>
<wire x1="76.2" y1="46.99" x2="76.2" y2="50.8" width="0.8128" layer="16"/>
</signal>
<signal name="N$26">
<contactref element="R14" pad="2"/>
<contactref element="T4" pad="2"/>
<wire x1="40.64" y1="52.07" x2="40.64" y2="52.705" width="0.8128" layer="16"/>
<wire x1="40.64" y1="52.705" x2="39.37" y2="53.975" width="0.8128" layer="16"/>
</signal>
<signal name="N$27">
<contactref element="R14" pad="1"/>
<contactref element="R15" pad="2"/>
<contactref element="OK4" pad="3"/>
<wire x1="36.83" y1="48.26" x2="39.37" y2="48.26" width="0.8128" layer="16"/>
<wire x1="39.37" y1="48.26" x2="40.64" y2="46.99" width="0.8128" layer="16"/>
<wire x1="36.83" y1="48.26" x2="35.56" y2="48.26" width="0.8128" layer="16"/>
<wire x1="35.56" y1="48.26" x2="34.29" y2="49.53" width="0.8128" layer="16"/>
<wire x1="34.29" y1="49.53" x2="34.29" y2="50.8" width="0.8128" layer="16"/>
<wire x1="34.29" y1="50.8" x2="36.83" y2="53.34" width="0.8128" layer="16"/>
</signal>
<signal name="N$28">
<contactref element="R16" pad="2"/>
<contactref element="LED4" pad="A"/>
<wire x1="76.2" y1="41.91" x2="80.01" y2="45.72" width="0.8128" layer="16"/>
<wire x1="80.01" y1="45.72" x2="81.28" y2="45.72" width="0.8128" layer="16"/>
</signal>
<signal name="+5V">
<contactref element="IC1" pad="1"/>
<contactref element="IC2" pad="IN"/>
<contactref element="C2" pad="+"/>
<contactref element="C3" pad="1"/>
<wire x1="41.91" y1="62.23" x2="45.72" y2="62.23" width="1.016" layer="16"/>
<wire x1="45.72" y1="62.23" x2="46.99" y2="63.5" width="1.016" layer="16"/>
<wire x1="38.1" y1="62.23" x2="41.91" y2="62.23" width="1.016" layer="16"/>
<wire x1="38.1" y1="62.23" x2="35.56" y2="62.23" width="1.016" layer="16"/>
<wire x1="35.56" y1="62.23" x2="34.29" y2="63.5" width="1.016" layer="16"/>
</signal>
<signal name="+3V3">
<contactref element="IC2" pad="OUT"/>
<contactref element="C4" pad="1"/>
<wire x1="27.94" y1="62.23" x2="30.48" y2="62.23" width="1.016" layer="16"/>
<wire x1="30.48" y1="62.23" x2="31.75" y2="63.5" width="1.016" layer="16"/>
</signal>
<signal name="+12V_PROT">
<contactref element="IC1" pad="3"/>
<contactref element="C1" pad="1"/>
<contactref element="C5" pad="+"/>
<contactref element="D5" pad="C"/>
<wire x1="53.34" y1="62.23" x2="50.8" y2="62.23" width="1.016" layer="16"/>
<wire x1="50.8" y1="62.23" x2="49.53" y2="63.5" width="1.016" layer="16"/>
<wire x1="63.5" y1="64.77" x2="60.96" y2="64.77" width="1.016" layer="16"/>
<wire x1="60.96" y1="64.77" x2="58.42" y2="62.23" width="1.016" layer="16"/>
<wire x1="58.42" y1="62.23" x2="57.15" y2="62.23" width="1.016" layer="16"/>
<contactref element="OK1" pad="4"/>
<contactref element="D1" pad="C"/>
<contactref element="K1" pad="1"/>
<wire x1="46.99" y1="6.477" x2="43.18" y2="6.477" width="0.8128" layer="16"/>
<wire x1="43.18" y1="6.477" x2="43.053" y2="6.477" width="0.8128" layer="16"/>
<wire x1="43.053" y1="6.477" x2="41.91" y2="7.62" width="0.8128" layer="16"/>
<wire x1="41.91" y1="7.62" x2="40.64" y2="7.62" width="0.8128" layer="16"/>
<wire x1="40.64" y1="7.62" x2="39.37" y2="8.89" width="0.8128" layer="16"/>
<wire x1="39.37" y1="8.89" x2="36.83" y2="8.89" width="0.8128" layer="16"/>
<wire x1="43.18" y1="5.08" x2="43.18" y2="6.477" width="0.8128" layer="16"/>
<contactref element="OK2" pad="4"/>
<contactref element="D2" pad="C"/>
<contactref element="K2" pad="1"/>
<wire x1="43.18" y1="20.447" x2="43.053" y2="20.447" width="0.8128" layer="16"/>
<wire x1="43.053" y1="20.447" x2="41.91" y2="21.59" width="0.8128" layer="16"/>
<wire x1="41.91" y1="21.59" x2="40.64" y2="21.59" width="0.8128" layer="16"/>
<wire x1="40.64" y1="21.59" x2="39.37" y2="22.86" width="0.8128" layer="16"/>
<wire x1="39.37" y1="22.86" x2="36.83" y2="22.86" width="0.8128" layer="16"/>
<wire x1="43.18" y1="19.05" x2="43.18" y2="20.447" width="0.8128" layer="16"/>
<contactref element="OK3" pad="4"/>
<contactref element="D3" pad="C"/>
<contactref element="K3" pad="1"/>
<contactref element="OK4" pad="4"/>
<contactref element="D4" pad="C"/>
<contactref element="K4" pad="1"/>
<wire x1="46.99" y1="48.387" x2="43.18" y2="48.387" width="0.8128" layer="16"/>
<wire x1="43.18" y1="48.387" x2="43.053" y2="48.387" width="0.8128" layer="16"/>
<wire x1="43.053" y1="48.387" x2="41.91" y2="49.53" width="0.8128" layer="16"/>
<wire x1="41.91" y1="49.53" x2="40.64" y2="49.53" width="0.8128" layer="16"/>
<wire x1="40.64" y1="49.53" x2="39.37" y2="50.8" width="0.8128" layer="16"/>
<wire x1="39.37" y1="50.8" x2="36.83" y2="50.8" width="0.8128" layer="16"/>
<wire x1="43.18" y1="46.99" x2="43.18" y2="48.387" width="0.8128" layer="16"/>
<wire x1="53.34" y1="62.23" x2="57.15" y2="62.23" width="1.016" layer="16"/>
<wire x1="58.42" y1="62.23" x2="52.07" y2="55.88" width="1.016" layer="16"/>
<wire x1="52.07" y1="55.88" x2="52.07" y2="48.26" width="1.016" layer="16"/>
<wire x1="52.07" y1="48.26" x2="52.07" y2="34.417" width="1.016" layer="16"/>
<wire x1="52.07" y1="34.417" x2="52.07" y2="20.447" width="1.016" layer="16"/>
<wire x1="52.07" y1="20.447" x2="52.07" y2="8.89" width="1.016" layer="16"/>
<wire x1="46.99" y1="6.477" x2="49.657" y2="6.477" width="1.016" layer="16"/>
<wire x1="49.657" y1="6.477" x2="52.07" y2="8.89" width="1.016" layer="16"/>
<wire x1="46.99" y1="48.387" x2="51.943" y2="48.387" width="1.016" layer="16"/>
<wire x1="51.943" y1="48.387" x2="52.07" y2="48.26" width="1.016" layer="16"/>
<wire x1="46.99" y1="34.417" x2="52.07" y2="34.417" width="1.016" layer="16"/>
<wire x1="46.99" y1="20.447" x2="52.07" y2="20.447" width="1.016" layer="16"/>
<wire x1="43.18" y1="20.447" x2="46.99" y2="20.447" width="0.8128" layer="16"/>
<wire x1="43.18" y1="33.02" x2="43.18" y2="34.29" width="0.8128" layer="16"/>
<wire x1="43.18" y1="34.29" x2="41.91" y2="35.56" width="0.8128" layer="16"/>
<wire x1="41.91" y1="35.56" x2="40.64" y2="35.56" width="0.8128" layer="16"/>
<wire x1="40.64" y1="35.56" x2="39.37" y2="36.83" width="0.8128" layer="16"/>
<wire x1="39.37" y1="36.83" x2="36.83" y2="36.83" width="0.8128" layer="16"/>
<wire x1="46.99" y1="34.417" x2="43.307" y2="34.417" width="0.8128" layer="16"/>
<wire x1="43.307" y1="34.417" x2="43.18" y2="34.29" width="0.8128" layer="16"/>
</signal>
</signals>
<errors>
<approved hash="6,16,d6c2ec31a48f0fc2"/>
<approved hash="6,16,d6fe205de9f88f16"/>
<approved hash="6,16,cba7a65771198c6a"/>
<approved hash="6,16,d682619e2dcc0f4a"/>
<approved hash="6,16,af7bb67b116d742e"/>
<approved hash="6,16,96ccf263d7f5cfe7"/>
<approved hash="6,16,ae233b429f347560"/>
<approved hash="6,16,a74a74da5e9cfdaf"/>
<approved hash="6,16,45e0ec00e89c417c"/>
<approved hash="6,16,b3ab9a4b9bbab25a"/>
<approved hash="6,16,8731aed197eebe0e"/>
<approved hash="6,16,3b8f926f92033be3"/>
<approved hash="6,16,b4229dc29e1ab7fa"/>
<approved hash="6,16,b68a9f6a98a6b146"/>
<approved hash="6,16,376d9e8d97793e99"/>
<approved hash="6,16,2ca8854895e43c04"/>
<approved hash="6,16,dfba4c4249bada42"/>
<approved hash="6,16,b5ef6b176cf6b20e"/>
<approved hash="6,16,72657a9d47104fe8"/>
<approved hash="6,16,bd4763bf6046bebe"/>
<approved hash="6,16,e6696c30ea3d60e0"/>
<approved hash="6,16,d9f19f8a66fae68a"/>
<approved hash="6,16,4791356937bd4545"/>
<approved hash="6,16,87b4f54cf266809e"/>
<approved hash="6,16,747c8684877b7583"/>
<approved hash="6,16,16d66d243f30c31e"/>
<approved hash="6,16,023af0c2f73b05c3"/>
<approved hash="6,16,c1d5bc25a220dfd0"/>
<approved hash="6,16,78a0fdae13a83b27"/>
<approved hash="6,16,a5072cf73652bfa2"/>
<approved hash="6,16,c3e4be148b6af69a"/>
<approved hash="6,16,a11328e33de9b419"/>
<approved hash="6,16,c145bcb5adabd05b"/>
<approved hash="6,16,a3eb2a1b2923a0d3"/>
<approved hash="6,16,ddb9a049a09fdd6f"/>
<approved hash="6,16,c28ebf7eb9dcc42c"/>
<approved hash="6,16,c271bf81ab80d670"/>
<approved hash="6,16,c1eabc1abbc1c631"/>
<approved hash="6,16,a17b288b2e96a766"/>
<approved hash="6,16,bd447d0fe73c7af3"/>
<approved hash="6,16,bd307e8aebfc7402"/>
<approved hash="6,16,bb4e7a97e0ec7ff1"/>
<approved hash="6,16,b68c9a6c9d85b165"/>
<approved hash="6,16,b42498c49b39b7d9"/>
<approved hash="6,16,b3ad9f4d9e99b279"/>
<approved hash="6,16,8737abd792cdbe2d"/>
<approved hash="6,16,e3f581858196e3e6"/>
<approved hash="6,16,9e1dfc6debcc89bc"/>
<approved hash="6,16,8229e059e13d834d"/>
<approved hash="6,16,991dfb6df5319741"/>
<approved hash="6,16,22919cf19cde22be"/>
<approved hash="6,16,35b68bd69b392559"/>
<approved hash="6,16,2e73901399a427c4"/>
<approved hash="6,16,5cfee29ee6415821"/>
<approved hash="6,16,a6ad505d5104a7f4"/>
<approved hash="6,16,ba994c695bf5ad05"/>
<approved hash="6,16,d69f066f0835d8c5"/>
<approved hash="6,16,c771318131afc75f"/>
<approved hash="6,16,405c273eaa73bc2b"/>
<approved hash="6,16,5eae353cbd49b55d"/>
<approved hash="6,16,a2dd33aab8335662"/>
<approved hash="6,16,5e7d2bb8a5b6afe5"/>
<approved hash="6,16,d20c406c7973eb13"/>
<approved hash="6,16,e3b771d7763be45b"/>
<approved hash="6,16,e69674f67527e747"/>
<approved hash="6,16,e11f737f7087e2e7"/>
<approved hash="6,16,741bfd6bff8d76fd"/>
<approved hash="6,16,781ff16ffb8d72fd"/>
<approved hash="6,16,771bfe6bfeed779d"/>
<approved hash="6,16,76a3ffd3fd157465"/>
<approved hash="6,16,4e57c809632d85d2"/>
<approved hash="6,16,4b3430b7871e6b30"/>
<approved hash="6,16,28474430dfbc8e89"/>
<approved hash="6,16,0c0d95e4b6242a2d"/>
<approved hash="6,16,fdc1e4b8435beef7"/>
<approved hash="6,16,f97707871df3e303"/>
<approved hash="6,16,f9df072f07dbf92b"/>
<approved hash="6,16,9bf808011c1ba3ee"/>
<approved hash="6,16,adda5646b744203f"/>
<approved hash="6,16,b80fccffffec8b1c"/>
<approved hash="6,16,d0fc78c375cf894f"/>
<approved hash="6,16,c0dd142d14c8c038"/>
<approved hash="6,16,7b588ba889987968"/>
<approved hash="6,16,c07514850ee0da10"/>
<approved hash="6,16,6590d16cd92f6dd3"/>
<approved hash="6,16,6098d464d4a7605b"/>
<approved hash="6,16,71b4c548c54f71b3"/>
<approved hash="6,16,6594d168d9276ddb"/>
<approved hash="6,16,6688d274de176aeb"/>
<approved hash="6,16,6894dc68dcaf6853"/>
<approved hash="6,16,95742188d8976c6b"/>
<approved hash="6,16,69b0dd4cdd4f69b3"/>
<approved hash="6,16,bfcf7779fbee9f2a"/>
<approved hash="6,16,7d1a62e6610f7ef3"/>
<approved hash="6,16,64437bbf78cf6733"/>
<approved hash="6,16,ba4f7741f9cea7f2"/>
<approved hash="6,16,b60f7e61f7bea082"/>
<approved hash="6,16,7b0364ff67cf7833"/>
<approved hash="6,16,b10f7ee9f03eaf8a"/>
<approved hash="6,16,b698e764da078bfb"/>
<approved hash="6,16,b6d8e724e307b2fb"/>
<approved hash="6,16,b5b8e444e387b27b"/>
<approved hash="6,16,b638e7c4e4c7b53b"/>
<approved hash="6,16,7d76818a829e7e62"/>
<approved hash="6,16,38f0c40cbc1040ec"/>
<approved hash="6,16,4996b56abd4e41b2"/>
<approved hash="6,16,5a88a674ba4846b4"/>
<approved hash="6,16,5db8a144a1585da4"/>
<approved hash="6,16,44f6b80ab80e44f2"/>
<approved hash="6,16,7970858c82907e6c"/>
<approved hash="6,16,59b6a54abd5e41a2"/>
<approved hash="6,16,35e0a41cb8842978"/>
<approved hash="6,16,3530a4cca0843178"/>
<approved hash="6,16,35b0a44c997c0880"/>
<approved hash="6,16,3520a4dca40c35f0"/>
<approved hash="6,16,0187f0fc77fd874f"/>
<approved hash="6,16,087ff73c73dd8faf"/>
<approved hash="6,16,309fcccc77cdb2ff"/>
<approved hash="6,16,10d7eccc6bed8f9f"/>
<approved hash="6,16,fa07cafbce87fe7b"/>
<approved hash="6,16,fabfca43ce87fe7b"/>
<approved hash="6,16,fa37cacbcb87fb7b"/>
<approved hash="6,16,f79fc763c687f67b"/>
<approved hash="6,16,b00da9e653ae3d8e"/>
<approved hash="6,16,afc4b434b313a8e3"/>
<approved hash="6,16,bbcc1a17ecf718a0"/>
<approved hash="6,16,002e64dd83bb11de"/>
<approved hash="6,16,bf241e3ff6df0828"/>
<approved hash="6,16,145eba015bf70726"/>
<approved hash="6,16,8877828782928862"/>
<approved hash="6,16,be0c10c7f0970870"/>
<approved hash="6,16,16dec0d524b30d6e"/>
<approved hash="6,16,b0b9564f585fbea9"/>
<approved hash="6,16,c469229f21afc759"/>
<approved hash="6,16,a4c9423f40e7a611"/>
<approved hash="6,16,873961cf5d2fbbd9"/>
<approved hash="6,16,c28d58ca0a8e601d"/>
<approved hash="6,16,b0c9563f5ca7ba51"/>
<approved hash="6,16,b0f9560f5c77ba81"/>
<approved hash="6,16,a179478f4037a6c1"/>
<approved hash="6,16,b32955df5ddfbb29"/>
<approved hash="6,16,932dd209d4ff11a5"/>
<approved hash="6,16,c9b3a2dc3d434230"/>
<approved hash="6,16,4222c23b82dc4736"/>
<approved hash="6,16,410ac0c39c945f6e"/>
<approved hash="6,16,4ff2cb7b8c0c54f6"/>
<approved hash="6,16,b7de582e58a7b757"/>
<approved hash="6,16,b7765886428fad7f"/>
<approved hash="6,16,bec65136566fb99f"/>
<approved hash="6,16,6adece6e0196e6c9"/>
<approved hash="6,16,69e6c29e0656e2c1"/>
<approved hash="6,16,6afecebe07f6eeb9"/>
<approved hash="6,16,9ec2c1dbc1d59ecc"/>
<approved hash="6,16,4f660f7f0f714f68"/>
<approved hash="6,16,3dfa7c937c9d3df4"/>
<approved hash="6,16,a8ae90479049a8a0"/>
</errors>
</board>
</drawing>
</eagle>
